{"sourceFile": [{
      "name": "",
      "directive": [
        {
          "functionName": "axi_interfaces",
          "label": "",
          "functionLabel": "",
          "pragma": {
            "name": "ARRAY_PARTITION",
            "option": [
              {
                "name": "variable",
                "value": "d_o",
                "positionalBoolean": "4"
              },
              {
                "name": "cyclic",
                "value": "",
                "positionalBoolean": "type"
              },
              {
                "name": "factor",
                "value": "8"
              },
              {
                "name": "dim",
                "value": "1"
              }
            ]
          }
        },
        {
          "functionName": "axi_interfaces",
          "label": "",
          "functionLabel": "",
          "pragma": {
            "name": "INTERFACE",
            "option": [
              {
                "name": "axis",
                "value": "",
                "positionalBoolean": "mode"
              },
              {
                "name": "register",
                "value": "",
                "positionalBoolean": "1"
              },
              {
                "name": "both",
                "value": "",
                "positionalBoolean": "register_mode"
              },
              {
                "name": "port",
                "value": "d_o",
                "positionalBoolean": "4"
              }
            ]
          }
        },
        {
          "functionName": "axi_interfaces",
          "label": "",
          "functionLabel": "",
          "pragma": {
            "name": "ARRAY_PARTITION",
            "option": [
              {
                "name": "variable",
                "value": "d_i",
                "positionalBoolean": "4"
              },
              {
                "name": "cyclic",
                "value": "",
                "positionalBoolean": "type"
              },
              {
                "name": "factor",
                "value": "8"
              },
              {
                "name": "dim",
                "value": "1"
              }
            ]
          }
        },
        {
          "functionName": "axi_interfaces",
          "label": "",
          "functionLabel": "",
          "pragma": {
            "name": "INTERFACE",
            "option": [
              {
                "name": "axis",
                "value": "",
                "positionalBoolean": "mode"
              },
              {
                "name": "register",
                "value": "",
                "positionalBoolean": "1"
              },
              {
                "name": "both",
                "value": "",
                "positionalBoolean": "register_mode"
              },
              {
                "name": "port",
                "value": "d_i",
                "positionalBoolean": "4"
              }
            ]
          }
        },
        {
          "functionName": "axi_interfaces",
          "label": "For_Loop",
          "functionLabel": "",
          "pragma": {
            "name": "UNROLL",
            "option": [{
                "name": "factor",
                "value": "8"
              }]
          }
        },
        {
          "functionName": "axi_interfaces",
          "label": "For_Loop",
          "functionLabel": "",
          "pragma": {
            "name": "PIPELINE",
            "option": [{
                "name": "rewind",
                "value": "",
                "positionalBoolean": "1"
              }]
          }
        }
      ]
    }]}
