{
  "Top": "matrixmul",
  "RtlTop": "matrixmul",
  "RtlPrefix": "",
  "SourceLanguage": "cpp",
  "ResetStyle": "control",
  "GenerateBdFiles": "0",
  "HostMachineBits": "64",
  "Target": {
    "Family": "zynq",
    "Device": "xc7z010",
    "Package": "-clg400",
    "Speed": "-1"
  },
  "HlsSolution": {
    "DirectiveTcl": [
      "set_directive_pipeline matrixmul\/Col ",
      "set_directive_array_reshape matrixmul ",
      "set_directive_array_reshape matrixmul "
    ],
    "DirectiveInfo": [
      "pipeline matrixmul\/Col {} {}",
      "array_reshape matrixmul {{reshape positionBooleanCmd} {variable positionBooleanTextRequireda} {complete positionBoolean0type} {dim 2}} {}",
      "array_reshape matrixmul {{reshape positionBooleanCmd} {variable positionBooleanTextRequiredb} {complete positionBoolean0type} {dim 1}} {}"
    ]
  },
  "Args": {
    "a": {
      "index": "0",
      "type": {
        "kinds": ["array"],
        "dataType": "char",
        "dataWidth": "8",
        "arraySizes": [
          "3",
          "3"
        ],
        "multiInterfaceRef": [
          "a_address0",
          "a_q0"
        ]
      }
    },
    "b": {
      "index": "1",
      "type": {
        "kinds": ["array"],
        "dataType": "char",
        "dataWidth": "8",
        "arraySizes": [
          "3",
          "3"
        ],
        "multiInterfaceRef": [
          "b_address0",
          "b_q0"
        ]
      }
    },
    "res": {
      "index": "2",
      "type": {
        "kinds": ["array"],
        "dataType": "short",
        "dataWidth": "16",
        "arraySizes": [
          "3",
          "3"
        ],
        "multiInterfaceRef": [
          "res_address0",
          "res_d0"
        ]
      }
    }
  },
  "Return": {
    
  },
  "ClockInfo": {
    "ClockName": "ap_clk",
    "ClockPeriod": "30",
    "IsCombLogic": "0",
    "II": "x",
    "Latency": "11",
    "Uncertainty": "3.75"
  },
  "Xdc": {"OocClocks": ["create_clock -name ap_clk -period 30.000 [get_ports ap_clk]"]},
  "Ipx": {
    "Vendor": "xilinx.com",
    "Library": "hls",
    "Name": "matrixmul",
    "Version": "1.0",
    "DisplayName": "Matrixmul",
    "Revision": "",
    "Description": "An IP generated by Vivado HLS",
    "Taxonomy": "\/VIVADO_HLS_IP",
    "AutoFamilySupport": ""
  },
  "Files": {
    "CSource": ["..\/..\/..\/LABS\/Lab8\/lab1\/matrixmul.cpp"],
    "Vhdl": [
      "impl\/vhdl\/matrixmul_mac_mulbkb.vhd",
      "impl\/vhdl\/matrixmul_mac_mulcud.vhd",
      "impl\/vhdl\/matrixmul.vhd"
    ],
    "Verilog": [
      "impl\/verilog\/matrixmul_mac_mulbkb.v",
      "impl\/verilog\/matrixmul_mac_mulcud.v",
      "impl\/verilog\/matrixmul.v"
    ],
    "Misc": ["impl\/misc\/logo.png"],
    "DesignXml": "C:\/Users\/Susana\/Desktop\/Project\/lab8_1\/solution4\/.autopilot\/db\/matrixmul.design.xml",
    "DebugDir": "C:\/Users\/Susana\/Desktop\/Project\/lab8_1\/solution4\/.debug",
    "ProtoInst": ["C:\/Users\/Susana\/Desktop\/Project\/lab8_1\/solution4\/.debug\/matrixmul.protoinst"]
  },
  "SubcoreInfo": {
    "HasXpmMemory": false,
    "HasClockedDsp": false,
    "IP": []
  },
  "Interfaces": {
    "a_address0": {
      "type": "data",
      "dir": "out",
      "width": "2",
      "ctype": {"DATA": {
          "Type": "null",
          "Width": "2"
        }},
      "bundle_name": "a",
      "bundle_role": "address0"
    },
    "a_q0": {
      "type": "data",
      "dir": "in",
      "width": "24",
      "ctype": {"DATA": {
          "Type": "integer signed",
          "Width": "8",
          "Bits": "24"
        }},
      "bundle_name": "a",
      "bundle_role": "q0"
    },
    "ap_clk": {
      "type": "clock",
      "ctype": {"CLK": {"Type": "bool"}},
      "bundle_name": "ap_clk",
      "bundle_role": "default",
      "reset": "ap_rst"
    },
    "ap_ctrl": {
      "type": "ap_ctrl",
      "ctrl_ports": "ap_start ap_done ap_idle ap_ready",
      "ctype": {
        "start": {"Type": "bool"},
        "done": {"Type": "bool"},
        "idle": {"Type": "bool"},
        "ready": {"Type": "bool"}
      }
    },
    "ap_rst": {
      "type": "reset",
      "polarity": "ACTIVE_HIGH",
      "ctype": {"RST": {"Type": "bool"}},
      "bundle_name": "ap_rst",
      "bundle_role": "default"
    },
    "b_address0": {
      "type": "data",
      "dir": "out",
      "width": "2",
      "ctype": {"DATA": {
          "Type": "null",
          "Width": "2"
        }},
      "bundle_name": "b",
      "bundle_role": "address0"
    },
    "b_q0": {
      "type": "data",
      "dir": "in",
      "width": "24",
      "ctype": {"DATA": {
          "Type": "integer signed",
          "Width": "8",
          "Bits": "24"
        }},
      "bundle_name": "b",
      "bundle_role": "q0"
    },
    "res_address0": {
      "type": "data",
      "dir": "out",
      "width": "4",
      "ctype": {"DATA": {
          "Type": "null",
          "Width": "4"
        }},
      "bundle_name": "res",
      "bundle_role": "address0"
    },
    "res_d0": {
      "type": "data",
      "dir": "out",
      "width": "16",
      "ctype": {"DATA": {
          "Type": "integer signed",
          "Width": "16"
        }},
      "bundle_name": "res",
      "bundle_role": "d0"
    }
  },
  "RtlPorts": {
    "ap_clk": {
      "dir": "in",
      "width": "1"
    },
    "ap_rst": {
      "dir": "in",
      "width": "1"
    },
    "ap_start": {
      "dir": "in",
      "width": "1"
    },
    "ap_done": {
      "dir": "out",
      "width": "1"
    },
    "ap_idle": {
      "dir": "out",
      "width": "1"
    },
    "ap_ready": {
      "dir": "out",
      "width": "1"
    },
    "a_address0": {
      "dir": "out",
      "width": "2"
    },
    "a_ce0": {
      "dir": "out",
      "width": "1"
    },
    "a_q0": {
      "dir": "in",
      "width": "24"
    },
    "b_address0": {
      "dir": "out",
      "width": "2"
    },
    "b_ce0": {
      "dir": "out",
      "width": "1"
    },
    "b_q0": {
      "dir": "in",
      "width": "24"
    },
    "res_address0": {
      "dir": "out",
      "width": "4"
    },
    "res_ce0": {
      "dir": "out",
      "width": "1"
    },
    "res_we0": {
      "dir": "out",
      "width": "1"
    },
    "res_d0": {
      "dir": "out",
      "width": "16"
    }
  },
  "ModuleInfo": {
    "Hierarchy": {"ModuleName": "matrixmul"},
    "Info": {"matrixmul": {
        "FunctionProtocol": "ap_ctrl_hs",
        "isTaskLevelControl": "1",
        "isPipelined": "0",
        "isCombinational": "0",
        "isOneStateSeq": "0"
      }},
    "Metrics": {"matrixmul": {
        "Latency": {
          "LatencyBest": "11",
          "LatencyAvg": "11",
          "LatencyWorst": "11",
          "PipelineII": "12",
          "PipelineDepth": "",
          "PipelineType": "none"
        },
        "Timing": {
          "Target": "30.00",
          "Uncertainty": "3.75",
          "Estimate": "14.854"
        },
        "Loops": [{
            "Name": "Row_Col",
            "TripCount": "9",
            "Latency": "9",
            "PipelineII": "1",
            "PipelineDepth": "2"
          }],
        "Area": {
          "DSP48E": "2",
          "FF": "18",
          "LUT": "187",
          "BRAM_18K": "0",
          "URAM": "0"
        }
      }}
  },
  "Sdx": {
    "Target": "none",
    "ProfileOption": "0",
    "ProfileType": "none",
    "XO": "",
    "KernelName": "matrixmul",
    "EnableXoSwEmu": "1"
  },
  "GenData": {
    "DataVersion": "0.2",
    "Time": "2020-05-05 21:06:47 +0100",
    "ToolName": "vivado_hls",
    "ToolVersion": "2019.1"
  }
}
