

================================================================
== Vivado HLS Report for 'hls_macc'
================================================================
* Date:           Tue Apr 28 21:24:42 2020

* Version:        2019.1 (Build 2552052 on Fri May 24 15:28:33 MDT 2019)
* Project:        lab7_1
* Solution:       solution1
* Product family: zynq
* Target device:  xc7z010-clg400-1


================================================================
== Performance Estimates
================================================================
+ Timing (ns): 
    * Summary: 
    +--------+-------+----------+------------+
    |  Clock | Target| Estimated| Uncertainty|
    +--------+-------+----------+------------+
    |ap_clk  |  10.00|     7.380|        1.25|
    +--------+-------+----------+------------+

+ Latency (clock cycles): 
    * Summary: 
    +-----+-----+-----+-----+---------+
    |  Latency  |  Interval | Pipeline|
    | min | max | min | max |   Type  |
    +-----+-----+-----+-----+---------+
    |    1|    1|    1|    1|   none  |
    +-----+-----+-----+-----+---------+

    + Detail: 
        * Instance: 
        N/A

        * Loop: 
        N/A



================================================================
== Utilization Estimates
================================================================
* Summary: 
+-----------------+---------+-------+-------+-------+-----+
|       Name      | BRAM_18K| DSP48E|   FF  |  LUT  | URAM|
+-----------------+---------+-------+-------+-------+-----+
|DSP              |        -|      1|      -|      -|    -|
|Expression       |        -|      -|      -|      -|    -|
|FIFO             |        -|      -|      -|      -|    -|
|Instance         |        0|      -|    139|    186|    -|
|Memory           |        -|      -|      -|      -|    -|
|Multiplexer      |        -|      -|      -|     30|    -|
|Register         |        -|      -|     38|      -|    -|
+-----------------+---------+-------+-------+-------+-----+
|Total            |        0|      1|    177|    216|    0|
+-----------------+---------+-------+-------+-------+-----+
|Available        |      120|     80|  35200|  17600|    0|
+-----------------+---------+-------+-------+-------+-----+
|Utilization (%)  |        0|      1|   ~0  |      1|    0|
+-----------------+---------+-------+-------+-------+-----+

+ Detail: 
    * Instance: 
    +--------------------------------------+------------------------------------+---------+-------+-----+-----+-----+
    |               Instance               |               Module               | BRAM_18K| DSP48E|  FF | LUT | URAM|
    +--------------------------------------+------------------------------------+---------+-------+-----+-----+-----+
    |hls_macc_HLS_MACC_PERIPH_BUS_s_axi_U  |hls_macc_HLS_MACC_PERIPH_BUS_s_axi  |        0|      0|  139|  186|    0|
    +--------------------------------------+------------------------------------+---------+-------+-----+-----+-----+
    |Total                                 |                                    |        0|      0|  139|  186|    0|
    +--------------------------------------+------------------------------------+---------+-------+-----+-----+-----+

    * DSP48E: 
    +-------------------------+----------------------+--------------+
    |         Instance        |        Module        |  Expression  |
    +-------------------------+----------------------+--------------+
    |hls_macc_mac_mulabkb_U1  |hls_macc_mac_mulabkb  | i0 * i1 + i2 |
    +-------------------------+----------------------+--------------+

    * Memory: 
    N/A

    * FIFO: 
    N/A

    * Expression: 
    N/A

    * Multiplexer: 
    +-----------+----+-----------+-----+-----------+
    |    Name   | LUT| Input Size| Bits| Total Bits|
    +-----------+----+-----------+-----+-----------+
    |accum_V_o  |  15|          3|   18|         54|
    |ap_NS_fsm  |  15|          3|    1|          3|
    +-----------+----+-----------+-----+-----------+
    |Total      |  30|          6|   19|         57|
    +-----------+----+-----------+-----+-----------+

    * Register: 
    +------------------+----+----+-----+-----------+
    |       Name       | FF | LUT| Bits| Const Bits|
    +------------------+----+----+-----+-----------+
    |a_V_read_reg_117  |  18|   0|   18|          0|
    |ap_CS_fsm         |   2|   0|    2|          0|
    |b_V_read_reg_112  |  18|   0|   18|          0|
    +------------------+----+----+-----+-----------+
    |Total             |  38|   0|   38|          0|
    +------------------+----+----+-----+-----------+



================================================================
== Interface
================================================================
* Summary: 
+-----------------------------------+-----+-----+------------+---------------------+--------------+
|             RTL Ports             | Dir | Bits|  Protocol  |    Source Object    |    C Type    |
+-----------------------------------+-----+-----+------------+---------------------+--------------+
|s_axi_HLS_MACC_PERIPH_BUS_AWVALID  |  in |    1|    s_axi   | HLS_MACC_PERIPH_BUS |    scalar    |
|s_axi_HLS_MACC_PERIPH_BUS_AWREADY  | out |    1|    s_axi   | HLS_MACC_PERIPH_BUS |    scalar    |
|s_axi_HLS_MACC_PERIPH_BUS_AWADDR   |  in |    6|    s_axi   | HLS_MACC_PERIPH_BUS |    scalar    |
|s_axi_HLS_MACC_PERIPH_BUS_WVALID   |  in |    1|    s_axi   | HLS_MACC_PERIPH_BUS |    scalar    |
|s_axi_HLS_MACC_PERIPH_BUS_WREADY   | out |    1|    s_axi   | HLS_MACC_PERIPH_BUS |    scalar    |
|s_axi_HLS_MACC_PERIPH_BUS_WDATA    |  in |   32|    s_axi   | HLS_MACC_PERIPH_BUS |    scalar    |
|s_axi_HLS_MACC_PERIPH_BUS_WSTRB    |  in |    4|    s_axi   | HLS_MACC_PERIPH_BUS |    scalar    |
|s_axi_HLS_MACC_PERIPH_BUS_ARVALID  |  in |    1|    s_axi   | HLS_MACC_PERIPH_BUS |    scalar    |
|s_axi_HLS_MACC_PERIPH_BUS_ARREADY  | out |    1|    s_axi   | HLS_MACC_PERIPH_BUS |    scalar    |
|s_axi_HLS_MACC_PERIPH_BUS_ARADDR   |  in |    6|    s_axi   | HLS_MACC_PERIPH_BUS |    scalar    |
|s_axi_HLS_MACC_PERIPH_BUS_RVALID   | out |    1|    s_axi   | HLS_MACC_PERIPH_BUS |    scalar    |
|s_axi_HLS_MACC_PERIPH_BUS_RREADY   |  in |    1|    s_axi   | HLS_MACC_PERIPH_BUS |    scalar    |
|s_axi_HLS_MACC_PERIPH_BUS_RDATA    | out |   32|    s_axi   | HLS_MACC_PERIPH_BUS |    scalar    |
|s_axi_HLS_MACC_PERIPH_BUS_RRESP    | out |    2|    s_axi   | HLS_MACC_PERIPH_BUS |    scalar    |
|s_axi_HLS_MACC_PERIPH_BUS_BVALID   | out |    1|    s_axi   | HLS_MACC_PERIPH_BUS |    scalar    |
|s_axi_HLS_MACC_PERIPH_BUS_BREADY   |  in |    1|    s_axi   | HLS_MACC_PERIPH_BUS |    scalar    |
|s_axi_HLS_MACC_PERIPH_BUS_BRESP    | out |    2|    s_axi   | HLS_MACC_PERIPH_BUS |    scalar    |
|ap_clk                             |  in |    1| ap_ctrl_hs |       hls_macc      | return value |
|ap_rst_n                           |  in |    1| ap_ctrl_hs |       hls_macc      | return value |
|interrupt                          | out |    1| ap_ctrl_hs |       hls_macc      | return value |
+-----------------------------------+-----+-----+------------+---------------------+--------------+

============================================================
+ Verbose Summary: Synthesis Manager
============================================================
InlineROM: 1
ExposeGlobal: 0
============================================================
+ Verbose Summary: CDFG Model
============================================================
IsTopModel: 1
ResetActiveHigh: 1
IsCombinational: 2
IsDatapathOnly: 2
HasWiredReturn: 1
HasMFsm: 0
HasVarLatency: 1
IsPipeline: 0
IsRtlPipelined: 0
IsInstanceOverlapped: 0
IsDontTouch: 0
HasImplIP: 0
IsGatedGlobalClock: 0


============================================================
+ Verbose Summary: Schedule
============================================================
* Number of FSM states : 2
* Pipeline : 0
* Dataflow Pipeline: 0

* FSM state transitions: 
1 --> 2 
2 --> 

* FSM state operations: 

State 1 <SV = 0> <Delay = 1.00>
ST_1 : Operation 3 [1/1] (0.00ns)   --->   "call void (...)* @_ssdm_op_SpecBitsMap(i18 %a_V), !map !37"   --->   Operation 3 'specbitsmap' <Predicate = true> <Delay = 0.00>
ST_1 : Operation 4 [1/1] (0.00ns)   --->   "call void (...)* @_ssdm_op_SpecBitsMap(i18 %b_V), !map !43"   --->   Operation 4 'specbitsmap' <Predicate = true> <Delay = 0.00>
ST_1 : Operation 5 [1/1] (0.00ns)   --->   "call void (...)* @_ssdm_op_SpecBitsMap(i18* %accum_V), !map !47"   --->   Operation 5 'specbitsmap' <Predicate = true> <Delay = 0.00>
ST_1 : Operation 6 [1/1] (0.00ns)   --->   "call void (...)* @_ssdm_op_SpecBitsMap(i1 %accum_clr), !map !53"   --->   Operation 6 'specbitsmap' <Predicate = true> <Delay = 0.00>
ST_1 : Operation 7 [1/1] (0.00ns)   --->   "call void (...)* @_ssdm_op_SpecTopModule([9 x i8]* @hls_macc_str) nounwind"   --->   Operation 7 'spectopmodule' <Predicate = true> <Delay = 0.00>
ST_1 : Operation 8 [1/1] (1.00ns)   --->   "%accum_clr_read = call i1 @_ssdm_op_Read.s_axilite.i1(i1 %accum_clr)" [../LABS/lab7/hls_macc.cpp:4]   --->   Operation 8 'read' 'accum_clr_read' <Predicate = true> <Delay = 1.00> <Core = "s_axilite">   --->   Core 10 's_axilite' <Latency = 0> <II = 1> <Delay = 1.00> <Adapter> <Opcode : 'read' 'write'>
ST_1 : Operation 9 [1/1] (1.00ns)   --->   "%b_V_read = call i18 @_ssdm_op_Read.s_axilite.i18(i18 %b_V)" [../LABS/lab7/hls_macc.cpp:4]   --->   Operation 9 'read' 'b_V_read' <Predicate = true> <Delay = 1.00> <Core = "s_axilite">   --->   Core 10 's_axilite' <Latency = 0> <II = 1> <Delay = 1.00> <Adapter> <Opcode : 'read' 'write'>
ST_1 : Operation 10 [1/1] (1.00ns)   --->   "%a_V_read = call i18 @_ssdm_op_Read.s_axilite.i18(i18 %a_V)" [../LABS/lab7/hls_macc.cpp:4]   --->   Operation 10 'read' 'a_V_read' <Predicate = true> <Delay = 1.00> <Core = "s_axilite">   --->   Core 10 's_axilite' <Latency = 0> <II = 1> <Delay = 1.00> <Adapter> <Opcode : 'read' 'write'>
ST_1 : Operation 11 [1/1] (0.00ns)   --->   "call void (...)* @_ssdm_op_SpecInterface(i32 0, [10 x i8]* @p_str, i32 0, i32 0, [1 x i8]* @p_str1, i32 0, i32 0, [20 x i8]* @p_str2, [1 x i8]* @p_str1, [1 x i8]* @p_str1, i32 0, i32 0, i32 0, i32 0, [1 x i8]* @p_str1, [1 x i8]* @p_str1) nounwind" [../LABS/lab7/hls_macc.cpp:6]   --->   Operation 11 'specinterface' <Predicate = true> <Delay = 0.00>
ST_1 : Operation 12 [1/1] (0.00ns)   --->   "call void (...)* @_ssdm_op_SpecInterface(i18 %a_V, [10 x i8]* @p_str, i32 0, i32 0, [1 x i8]* @p_str1, i32 0, i32 0, [20 x i8]* @p_str2, [1 x i8]* @p_str1, [1 x i8]* @p_str1, i32 0, i32 0, i32 0, i32 0, [1 x i8]* @p_str1, [1 x i8]* @p_str1) nounwind" [../LABS/lab7/hls_macc.cpp:7]   --->   Operation 12 'specinterface' <Predicate = true> <Delay = 0.00>
ST_1 : Operation 13 [1/1] (0.00ns)   --->   "call void (...)* @_ssdm_op_SpecInterface(i18 %b_V, [10 x i8]* @p_str, i32 0, i32 0, [1 x i8]* @p_str1, i32 0, i32 0, [20 x i8]* @p_str2, [1 x i8]* @p_str1, [1 x i8]* @p_str1, i32 0, i32 0, i32 0, i32 0, [1 x i8]* @p_str1, [1 x i8]* @p_str1) nounwind" [../LABS/lab7/hls_macc.cpp:8]   --->   Operation 13 'specinterface' <Predicate = true> <Delay = 0.00>
ST_1 : Operation 14 [1/1] (0.00ns)   --->   "call void (...)* @_ssdm_op_SpecInterface(i18* %accum_V, [10 x i8]* @p_str, i32 0, i32 0, [1 x i8]* @p_str1, i32 0, i32 0, [20 x i8]* @p_str2, [1 x i8]* @p_str1, [1 x i8]* @p_str1, i32 0, i32 0, i32 0, i32 0, [1 x i8]* @p_str1, [1 x i8]* @p_str1) nounwind" [../LABS/lab7/hls_macc.cpp:9]   --->   Operation 14 'specinterface' <Predicate = true> <Delay = 0.00>
ST_1 : Operation 15 [1/1] (0.00ns)   --->   "call void (...)* @_ssdm_op_SpecInterface(i1 %accum_clr, [10 x i8]* @p_str, i32 0, i32 0, [1 x i8]* @p_str1, i32 0, i32 0, [20 x i8]* @p_str2, [1 x i8]* @p_str1, [1 x i8]* @p_str1, i32 0, i32 0, i32 0, i32 0, [1 x i8]* @p_str1, [1 x i8]* @p_str1) nounwind" [../LABS/lab7/hls_macc.cpp:10]   --->   Operation 15 'specinterface' <Predicate = true> <Delay = 0.00>
ST_1 : Operation 16 [1/1] (0.00ns)   --->   "br i1 %accum_clr_read, label %_ZN8ap_fixedILi18ELi15EL9ap_q_mode5EL9ap_o_mode3ELi0EEC1Ei.exit, label %_ZN13ap_fixed_baseILi38ELi16ELb1EL9ap_q_mode5EL9ap_o_mode3ELi0EEC1ILi18ELi15ELb1ELS0_5ELS1_3ELi0EEERKS_IXT_EXT0_EXT1_EXT2_EXT3_EXT4_EE.exit.i.i" [../LABS/lab7/hls_macc.cpp:13]   --->   Operation 16 'br' <Predicate = true> <Delay = 0.00>
ST_1 : Operation 17 [1/1] (1.00ns)   --->   "call void @_ssdm_op_Write.s_axilite.i18P(i18* %accum_V, i18 0)" [../LABS/lab7/hls_macc.cpp:14]   --->   Operation 17 'write' <Predicate = (accum_clr_read)> <Delay = 1.00> <Core = "s_axilite">   --->   Core 10 's_axilite' <Latency = 0> <II = 1> <Delay = 1.00> <Adapter> <Opcode : 'read' 'write'>
ST_1 : Operation 18 [1/1] (0.00ns)   --->   "br label %_ZN13ap_fixed_baseILi38ELi16ELb1EL9ap_q_mode5EL9ap_o_mode3ELi0EEC1ILi18ELi15ELb1ELS0_5ELS1_3ELi0EEERKS_IXT_EXT0_EXT1_EXT2_EXT3_EXT4_EE.exit.i.i" [../LABS/lab7/hls_macc.cpp:14]   --->   Operation 18 'br' <Predicate = (accum_clr_read)> <Delay = 0.00>

State 2 <SV = 1> <Delay = 7.38>
ST_2 : Operation 19 [1/1] (0.00ns)   --->   "%r_V = sext i18 %a_V_read to i36" [../LABS/lab7/hls_macc.cpp:15]   --->   Operation 19 'sext' 'r_V' <Predicate = true> <Delay = 0.00>
ST_2 : Operation 20 [1/1] (0.00ns)   --->   "%sext_ln1118 = sext i18 %b_V_read to i36" [../LABS/lab7/hls_macc.cpp:15]   --->   Operation 20 'sext' 'sext_ln1118' <Predicate = true> <Delay = 0.00>
ST_2 : Operation 21 [1/1] (3.36ns) (grouped into DSP with root node ret_V)   --->   "%r_V_2 = mul nsw i36 %r_V, %sext_ln1118" [../LABS/lab7/hls_macc.cpp:15]   --->   Operation 21 'mul' 'r_V_2' <Predicate = true> <Delay = 3.36> <Core = "DSP48">   --->   Core 88 'DSP48' <Latency = 0> <II = 1> <Delay = 6.38> <IPBlock> <Opcode : 'mul' 'add' 'sub' 'select'> <InPorts = 0> <OutPorts = 1> <Sync> <CReg>
ST_2 : Operation 22 [1/1] (1.00ns)   --->   "%p_Val2_s = call i18 @_ssdm_op_Read.s_axilite.i18P(i18* %accum_V)" [../LABS/lab7/hls_macc.cpp:15]   --->   Operation 22 'read' 'p_Val2_s' <Predicate = true> <Delay = 1.00> <Core = "s_axilite">   --->   Core 10 's_axilite' <Latency = 0> <II = 1> <Delay = 1.00> <Adapter> <Opcode : 'read' 'write'>
ST_2 : Operation 23 [1/1] (0.00ns)   --->   "%lhs_V = call i37 @_ssdm_op_BitConcatenate.i37.i18.i19(i18 %p_Val2_s, i19 0)" [../LABS/lab7/hls_macc.cpp:15]   --->   Operation 23 'bitconcatenate' 'lhs_V' <Predicate = true> <Delay = 0.00>
ST_2 : Operation 24 [1/1] (0.00ns) (grouped into DSP with root node ret_V)   --->   "%sext_ln703 = sext i36 %r_V_2 to i37" [../LABS/lab7/hls_macc.cpp:15]   --->   Operation 24 'sext' 'sext_ln703' <Predicate = true> <Delay = 0.00>
ST_2 : Operation 25 [1/1] (3.02ns) (root node of the DSP)   --->   "%ret_V = add i37 %sext_ln703, %lhs_V" [../LABS/lab7/hls_macc.cpp:15]   --->   Operation 25 'add' 'ret_V' <Predicate = true> <Delay = 3.02> <Core = "DSP48">   --->   Core 88 'DSP48' <Latency = 0> <II = 1> <Delay = 6.38> <IPBlock> <Opcode : 'mul' 'add' 'sub' 'select'> <InPorts = 0> <OutPorts = 1> <Sync> <CReg>
ST_2 : Operation 26 [1/1] (0.00ns)   --->   "%trunc_ln = call i18 @_ssdm_op_PartSelect.i18.i37.i32.i32(i37 %ret_V, i32 19, i32 36)" [../LABS/lab7/hls_macc.cpp:15]   --->   Operation 26 'partselect' 'trunc_ln' <Predicate = true> <Delay = 0.00>
ST_2 : Operation 27 [1/1] (1.00ns)   --->   "call void @_ssdm_op_Write.s_axilite.i18P(i18* %accum_V, i18 %trunc_ln)" [../LABS/lab7/hls_macc.cpp:15]   --->   Operation 27 'write' <Predicate = true> <Delay = 1.00> <Core = "s_axilite">   --->   Core 10 's_axilite' <Latency = 0> <II = 1> <Delay = 1.00> <Adapter> <Opcode : 'read' 'write'>
ST_2 : Operation 28 [1/1] (0.00ns)   --->   "ret void" [../LABS/lab7/hls_macc.cpp:16]   --->   Operation 28 'ret' <Predicate = true> <Delay = 0.00>


============================================================
+ Verbose Summary: Binding
============================================================
STG Binding: 
---------------- STG Properties BEGIN ----------------
- Is combinational: 0
- Is one-state seq: 0
- Is datapath-only: 0
- Is pipelined: 0
- Is top level: 1
Port [ Return ] is wired: 1; IO mode=ap_ctrl_hs:ce=0
Port [ a_V]:  wired=1; compound=0; hidden=0; nouse=0; global=0; static=0; extern=0; dir=0; type=0; pingpong=0; private_global=0; IO mode=ap_none:ce=0
Port [ b_V]:  wired=1; compound=0; hidden=0; nouse=0; global=0; static=0; extern=0; dir=0; type=0; pingpong=0; private_global=0; IO mode=ap_none:ce=0
Port [ accum_V]:  wired=1; compound=0; hidden=0; nouse=0; global=0; static=0; extern=0; dir=2; type=0; pingpong=0; private_global=0; IO mode=ap_ovld:ce=0
Port [ accum_clr]:  wired=1; compound=0; hidden=0; nouse=0; global=0; static=0; extern=0; dir=0; type=0; pingpong=0; private_global=0; IO mode=ap_none:ce=0
---------------- STG Properties END ------------------

---------------- Datapath Model BEGIN ----------------

<LifeTime>
<method=bitvector/>
specbitsmap_ln0    (specbitsmap   ) [ 000]
specbitsmap_ln0    (specbitsmap   ) [ 000]
specbitsmap_ln0    (specbitsmap   ) [ 000]
specbitsmap_ln0    (specbitsmap   ) [ 000]
spectopmodule_ln0  (spectopmodule ) [ 000]
accum_clr_read     (read          ) [ 010]
b_V_read           (read          ) [ 001]
a_V_read           (read          ) [ 001]
specinterface_ln6  (specinterface ) [ 000]
specinterface_ln7  (specinterface ) [ 000]
specinterface_ln8  (specinterface ) [ 000]
specinterface_ln9  (specinterface ) [ 000]
specinterface_ln10 (specinterface ) [ 000]
br_ln13            (br            ) [ 000]
write_ln14         (write         ) [ 000]
br_ln14            (br            ) [ 000]
r_V                (sext          ) [ 000]
sext_ln1118        (sext          ) [ 000]
r_V_2              (mul           ) [ 000]
p_Val2_s           (read          ) [ 000]
lhs_V              (bitconcatenate) [ 000]
sext_ln703         (sext          ) [ 000]
ret_V              (add           ) [ 000]
trunc_ln           (partselect    ) [ 000]
write_ln15         (write         ) [ 000]
ret_ln16           (ret           ) [ 000]
</LifeTime>

<model>

<comp_list>
<comp id="0" class="1000" name="a_V">
<pin_list>
<pin id="1" dir="1" index="0" bw="1" slack="0"/>
</pin_list>
<bind>
<StgValue><ssdm name="a_V"/></StgValue>
</bind>
</comp>

<comp id="2" class="1000" name="b_V">
<pin_list>
<pin id="3" dir="1" index="0" bw="1" slack="0"/>
</pin_list>
<bind>
<StgValue><ssdm name="b_V"/></StgValue>
</bind>
</comp>

<comp id="4" class="1000" name="accum_V">
<pin_list>
<pin id="5" dir="1" index="0" bw="1" slack="0"/>
</pin_list>
<bind>
<StgValue><ssdm name="accum_V"/></StgValue>
</bind>
</comp>

<comp id="6" class="1000" name="accum_clr">
<pin_list>
<pin id="7" dir="1" index="0" bw="1" slack="0"/>
</pin_list>
<bind>
<StgValue><ssdm name="accum_clr"/></StgValue>
</bind>
</comp>

<comp id="8" class="1001" name="const_8">
<pin_list>
<pin id="9" dir="1" index="0" bw="1" slack="2147483647"/>
</pin_list>
<bind>
<StgValue><ssdm name="_ssdm_op_SpecBitsMap"/></StgValue>
</bind>
</comp>

<comp id="10" class="1001" name="const_10">
<pin_list>
<pin id="11" dir="1" index="0" bw="1" slack="2147483647"/>
</pin_list>
<bind>
<StgValue><ssdm name="_ssdm_op_SpecTopModule"/></StgValue>
</bind>
</comp>

<comp id="12" class="1001" name="const_12">
<pin_list>
<pin id="13" dir="1" index="0" bw="1" slack="2147483647"/>
</pin_list>
<bind>
<StgValue><ssdm name="hls_macc_str"/></StgValue>
</bind>
</comp>

<comp id="14" class="1001" name="const_14">
<pin_list>
<pin id="15" dir="1" index="0" bw="1" slack="0"/>
</pin_list>
<bind>
<StgValue><ssdm name="_ssdm_op_Read.s_axilite.i1"/></StgValue>
</bind>
</comp>

<comp id="16" class="1001" name="const_16">
<pin_list>
<pin id="17" dir="1" index="0" bw="1" slack="0"/>
</pin_list>
<bind>
<StgValue><ssdm name="_ssdm_op_Read.s_axilite.i18"/></StgValue>
</bind>
</comp>

<comp id="18" class="1001" name="const_18">
<pin_list>
<pin id="19" dir="1" index="0" bw="1" slack="2147483647"/>
</pin_list>
<bind>
<StgValue><ssdm name="_ssdm_op_SpecInterface"/></StgValue>
</bind>
</comp>

<comp id="20" class="1001" name="const_20">
<pin_list>
<pin id="21" dir="1" index="0" bw="1" slack="2147483647"/>
</pin_list>
<bind>
<StgValue><ssdm name=""/></StgValue>
</bind>
</comp>

<comp id="22" class="1001" name="const_22">
<pin_list>
<pin id="23" dir="1" index="0" bw="1" slack="2147483647"/>
</pin_list>
<bind>
<StgValue><ssdm name="p_str"/></StgValue>
</bind>
</comp>

<comp id="24" class="1001" name="const_24">
<pin_list>
<pin id="25" dir="1" index="0" bw="1" slack="2147483647"/>
</pin_list>
<bind>
<StgValue><ssdm name="p_str1"/></StgValue>
</bind>
</comp>

<comp id="26" class="1001" name="const_26">
<pin_list>
<pin id="27" dir="1" index="0" bw="1" slack="2147483647"/>
</pin_list>
<bind>
<StgValue><ssdm name="p_str2"/></StgValue>
</bind>
</comp>

<comp id="28" class="1001" name="const_28">
<pin_list>
<pin id="29" dir="1" index="0" bw="1" slack="0"/>
</pin_list>
<bind>
<StgValue><ssdm name="_ssdm_op_Write.s_axilite.i18P"/></StgValue>
</bind>
</comp>

<comp id="30" class="1001" name="const_30">
<pin_list>
<pin id="31" dir="1" index="0" bw="1" slack="0"/>
</pin_list>
<bind>
<StgValue><ssdm name=""/></StgValue>
</bind>
</comp>

<comp id="32" class="1001" name="const_32">
<pin_list>
<pin id="33" dir="1" index="0" bw="1" slack="0"/>
</pin_list>
<bind>
<StgValue><ssdm name="_ssdm_op_Read.s_axilite.i18P"/></StgValue>
</bind>
</comp>

<comp id="34" class="1001" name="const_34">
<pin_list>
<pin id="35" dir="1" index="0" bw="1" slack="0"/>
</pin_list>
<bind>
<StgValue><ssdm name="_ssdm_op_BitConcatenate.i37.i18.i19"/></StgValue>
</bind>
</comp>

<comp id="36" class="1001" name="const_36">
<pin_list>
<pin id="37" dir="1" index="0" bw="1" slack="0"/>
</pin_list>
<bind>
<StgValue><ssdm name=""/></StgValue>
</bind>
</comp>

<comp id="38" class="1001" name="const_38">
<pin_list>
<pin id="39" dir="1" index="0" bw="1" slack="0"/>
</pin_list>
<bind>
<StgValue><ssdm name="_ssdm_op_PartSelect.i18.i37.i32.i32"/></StgValue>
</bind>
</comp>

<comp id="40" class="1001" name="const_40">
<pin_list>
<pin id="41" dir="1" index="0" bw="1" slack="0"/>
</pin_list>
<bind>
<StgValue><ssdm name=""/></StgValue>
</bind>
</comp>

<comp id="42" class="1001" name="const_42">
<pin_list>
<pin id="43" dir="1" index="0" bw="1" slack="0"/>
</pin_list>
<bind>
<StgValue><ssdm name=""/></StgValue>
</bind>
</comp>

<comp id="44" class="1004" name="accum_clr_read_read_fu_44">
<pin_list>
<pin id="45" dir="0" index="0" bw="1" slack="0"/>
<pin id="46" dir="0" index="1" bw="1" slack="0"/>
<pin id="47" dir="1" index="2" bw="1" slack="2147483647"/>
</pin_list>
<bind>
<opcode="read(1150) " fcode="read"/>
<opset="accum_clr_read/1 "/>
</bind>
</comp>

<comp id="50" class="1004" name="b_V_read_read_fu_50">
<pin_list>
<pin id="51" dir="0" index="0" bw="18" slack="0"/>
<pin id="52" dir="0" index="1" bw="18" slack="0"/>
<pin id="53" dir="1" index="2" bw="18" slack="1"/>
</pin_list>
<bind>
<opcode="read(1150) " fcode="read"/>
<opset="b_V_read/1 "/>
</bind>
</comp>

<comp id="56" class="1004" name="a_V_read_read_fu_56">
<pin_list>
<pin id="57" dir="0" index="0" bw="18" slack="0"/>
<pin id="58" dir="0" index="1" bw="18" slack="0"/>
<pin id="59" dir="1" index="2" bw="18" slack="1"/>
</pin_list>
<bind>
<opcode="read(1150) " fcode="read"/>
<opset="a_V_read/1 "/>
</bind>
</comp>

<comp id="62" class="1004" name="grp_write_fu_62">
<pin_list>
<pin id="63" dir="0" index="0" bw="0" slack="0"/>
<pin id="64" dir="0" index="1" bw="18" slack="0"/>
<pin id="65" dir="0" index="2" bw="18" slack="0"/>
<pin id="66" dir="1" index="3" bw="0" slack="2147483647"/>
</pin_list>
<bind>
<opcode="write(1151) " fcode="write"/>
<opset="write_ln14/1 write_ln15/2 "/>
</bind>
</comp>

<comp id="70" class="1004" name="p_Val2_s_read_fu_70">
<pin_list>
<pin id="71" dir="0" index="0" bw="18" slack="0"/>
<pin id="72" dir="0" index="1" bw="18" slack="0"/>
<pin id="73" dir="1" index="2" bw="18" slack="0"/>
</pin_list>
<bind>
<opcode="read(1150) " fcode="read"/>
<opset="p_Val2_s/2 "/>
</bind>
</comp>

<comp id="76" class="1004" name="r_V_fu_76">
<pin_list>
<pin id="77" dir="0" index="0" bw="18" slack="1"/>
<pin id="78" dir="1" index="1" bw="36" slack="0"/>
</pin_list>
<bind>
<opcode="sext(35) " fcode="sext"/>
<opset="r_V/2 "/>
</bind>
</comp>

<comp id="79" class="1004" name="sext_ln1118_fu_79">
<pin_list>
<pin id="80" dir="0" index="0" bw="18" slack="1"/>
<pin id="81" dir="1" index="1" bw="36" slack="0"/>
</pin_list>
<bind>
<opcode="sext(35) " fcode="sext"/>
<opset="sext_ln1118/2 "/>
</bind>
</comp>

<comp id="82" class="1004" name="lhs_V_fu_82">
<pin_list>
<pin id="83" dir="0" index="0" bw="37" slack="0"/>
<pin id="84" dir="0" index="1" bw="18" slack="0"/>
<pin id="85" dir="0" index="2" bw="1" slack="0"/>
<pin id="86" dir="1" index="3" bw="37" slack="0"/>
</pin_list>
<bind>
<opcode="bitconcatenate(1004) " fcode="bitconcatenate"/>
<opset="lhs_V/2 "/>
</bind>
</comp>

<comp id="90" class="1004" name="trunc_ln_fu_90">
<pin_list>
<pin id="91" dir="0" index="0" bw="18" slack="0"/>
<pin id="92" dir="0" index="1" bw="37" slack="0"/>
<pin id="93" dir="0" index="2" bw="6" slack="0"/>
<pin id="94" dir="0" index="3" bw="7" slack="0"/>
<pin id="95" dir="1" index="4" bw="18" slack="0"/>
</pin_list>
<bind>
<opcode="partselect(1002) " fcode="partselect"/>
<opset="trunc_ln/2 "/>
</bind>
</comp>

<comp id="100" class="1007" name="grp_fu_100">
<pin_list>
<pin id="101" dir="0" index="0" bw="18" slack="0"/>
<pin id="102" dir="0" index="1" bw="18" slack="0"/>
<pin id="103" dir="0" index="2" bw="37" slack="0"/>
<pin id="104" dir="1" index="3" bw="37" slack="0"/>
</pin_list>
<bind>
<opcode="muladd(1172) " fcode="muladd"/>
<opset="r_V_2/2 sext_ln703/2 ret_V/2 "/>
</bind>
</comp>

<comp id="112" class="1005" name="b_V_read_reg_112">
<pin_list>
<pin id="113" dir="0" index="0" bw="18" slack="1"/>
<pin id="114" dir="1" index="1" bw="18" slack="1"/>
</pin_list>
<bind>
<opset="b_V_read "/>
</bind>
</comp>

<comp id="117" class="1005" name="a_V_read_reg_117">
<pin_list>
<pin id="118" dir="0" index="0" bw="18" slack="1"/>
<pin id="119" dir="1" index="1" bw="18" slack="1"/>
</pin_list>
<bind>
<opset="a_V_read "/>
</bind>
</comp>

</comp_list>

<net_list>
<net id="48"><net_src comp="14" pin="0"/><net_sink comp="44" pin=0"/></net>

<net id="49"><net_src comp="6" pin="0"/><net_sink comp="44" pin=1"/></net>

<net id="54"><net_src comp="16" pin="0"/><net_sink comp="50" pin=0"/></net>

<net id="55"><net_src comp="2" pin="0"/><net_sink comp="50" pin=1"/></net>

<net id="60"><net_src comp="16" pin="0"/><net_sink comp="56" pin=0"/></net>

<net id="61"><net_src comp="0" pin="0"/><net_sink comp="56" pin=1"/></net>

<net id="67"><net_src comp="28" pin="0"/><net_sink comp="62" pin=0"/></net>

<net id="68"><net_src comp="4" pin="0"/><net_sink comp="62" pin=1"/></net>

<net id="69"><net_src comp="30" pin="0"/><net_sink comp="62" pin=2"/></net>

<net id="74"><net_src comp="32" pin="0"/><net_sink comp="70" pin=0"/></net>

<net id="75"><net_src comp="4" pin="0"/><net_sink comp="70" pin=1"/></net>

<net id="87"><net_src comp="34" pin="0"/><net_sink comp="82" pin=0"/></net>

<net id="88"><net_src comp="70" pin="2"/><net_sink comp="82" pin=1"/></net>

<net id="89"><net_src comp="36" pin="0"/><net_sink comp="82" pin=2"/></net>

<net id="96"><net_src comp="38" pin="0"/><net_sink comp="90" pin=0"/></net>

<net id="97"><net_src comp="40" pin="0"/><net_sink comp="90" pin=2"/></net>

<net id="98"><net_src comp="42" pin="0"/><net_sink comp="90" pin=3"/></net>

<net id="99"><net_src comp="90" pin="4"/><net_sink comp="62" pin=2"/></net>

<net id="105"><net_src comp="76" pin="1"/><net_sink comp="100" pin=0"/></net>

<net id="106"><net_src comp="79" pin="1"/><net_sink comp="100" pin=1"/></net>

<net id="107"><net_src comp="82" pin="3"/><net_sink comp="100" pin=2"/></net>

<net id="108"><net_src comp="100" pin="3"/><net_sink comp="90" pin=1"/></net>

<net id="115"><net_src comp="50" pin="2"/><net_sink comp="112" pin=0"/></net>

<net id="116"><net_src comp="112" pin="1"/><net_sink comp="79" pin=0"/></net>

<net id="120"><net_src comp="56" pin="2"/><net_sink comp="117" pin=0"/></net>

<net id="121"><net_src comp="117" pin="1"/><net_sink comp="76" pin=0"/></net>

</net_list>

</model> 
---------------- Datapath Model END ------------------

* FSMD analyzer results:
  - Output states:
	Port: accum_V | {1 2 }
 - Input state : 
	Port: hls_macc : a_V | {1 }
	Port: hls_macc : b_V | {1 }
	Port: hls_macc : accum_V | {2 }
	Port: hls_macc : accum_clr | {1 }
  - Chain level:
	State 1
	State 2
		r_V_2 : 1
		sext_ln703 : 2
		ret_V : 3
		trunc_ln : 4
		write_ln15 : 5


============================================================
+ Verbose Summary: Datapath Resource usage 
============================================================

* Functional unit list:
|----------|---------------------------|---------|
| Operation|      Functional Unit      |  DSP48E |
|----------|---------------------------|---------|
|  muladd  |         grp_fu_100        |    1    |
|----------|---------------------------|---------|
|          | accum_clr_read_read_fu_44 |    0    |
|   read   |    b_V_read_read_fu_50    |    0    |
|          |    a_V_read_read_fu_56    |    0    |
|          |    p_Val2_s_read_fu_70    |    0    |
|----------|---------------------------|---------|
|   write  |      grp_write_fu_62      |    0    |
|----------|---------------------------|---------|
|   sext   |         r_V_fu_76         |    0    |
|          |     sext_ln1118_fu_79     |    0    |
|----------|---------------------------|---------|
|bitconcatenate|        lhs_V_fu_82        |    0    |
|----------|---------------------------|---------|
|partselect|       trunc_ln_fu_90      |    0    |
|----------|---------------------------|---------|
|   Total  |                           |    1    |
|----------|---------------------------|---------|

Memories:
N/A

* Register list:
+----------------+--------+
|                |   FF   |
+----------------+--------+
|a_V_read_reg_117|   18   |
|b_V_read_reg_112|   18   |
+----------------+--------+
|      Total     |   36   |
+----------------+--------+

* Multiplexer (MUX) list: 
|-----------------|------|------|------|--------||---------||---------|
|       Comp      |  Pin | Size |  BW  | S x BW ||  Delay  ||   LUT   |
|-----------------|------|------|------|--------||---------||---------|
| grp_write_fu_62 |  p2  |   2  |  18  |   36   ||    9    |
|-----------------|------|------|------|--------||---------||---------|
|      Total      |      |      |      |   36   ||  1.769  ||    9    |
|-----------------|------|------|------|--------||---------||---------|



* Summary:
+-----------+--------+--------+--------+--------+
|           | DSP48E |  Delay |   FF   |   LUT  |
+-----------+--------+--------+--------+--------+
|  Function |    1   |    -   |    -   |    -   |
|   Memory  |    -   |    -   |    -   |    -   |
|Multiplexer|    -   |    1   |    -   |    9   |
|  Register |    -   |    -   |   36   |    -   |
+-----------+--------+--------+--------+--------+
|   Total   |    1   |    1   |   36   |    9   |
+-----------+--------+--------+--------+--------+
