

================================================================
== Vivado HLS Report for 'matrixmul'
================================================================
* Date:           Tue May  5 20:49:45 2020

* Version:        2019.1 (Build 2552052 on Fri May 24 15:28:33 MDT 2019)
* Project:        lab8_1
* Solution:       solution2
* Product family: zynq
* Target device:  xc7z010-clg400-1


================================================================
== Performance Estimates
================================================================
+ Timing (ns): 
    * Summary: 
    +--------+-------+----------+------------+
    |  Clock | Target| Estimated| Uncertainty|
    +--------+-------+----------+------------+
    |ap_clk  |  30.00|    11.024|        3.75|
    +--------+-------+----------+------------+

+ Latency (clock cycles): 
    * Summary: 
    +-----+-----+-----+-----+---------+
    |  Latency  |  Interval | Pipeline|
    | min | max | min | max |   Type  |
    +-----+-----+-----+-----+---------+
    |   82|   82|   82|   82|   none  |
    +-----+-----+-----+-----+---------+

    + Detail: 
        * Instance: 
        N/A

        * Loop: 
        +------------+-----+-----+----------+-----------+-----------+------+----------+
        |            |  Latency  | Iteration|  Initiation Interval  | Trip |          |
        |  Loop Name | min | max |  Latency |  achieved |   target  | Count| Pipelined|
        +------------+-----+-----+----------+-----------+-----------+------+----------+
        |- Row_Col   |   81|   81|         9|          -|          -|     9|    no    |
        | + Product  |    6|    6|         2|          2|          1|     3|    yes   |
        +------------+-----+-----+----------+-----------+-----------+------+----------+

============================================================
+ Verbose Summary: Synthesis Manager
============================================================
InlineROM: 1
ExposeGlobal: 0
============================================================
+ Verbose Summary: CDFG Model
============================================================
IsTopModel: 1
ResetActiveHigh: 1
IsCombinational: 0
IsDatapathOnly: 0
HasWiredReturn: 1
HasMFsm: 0
HasVarLatency: 1
IsPipeline: 0
IsRtlPipelined: 0
IsInstanceOverlapped: 0
IsDontTouch: 0
HasImplIP: 0
IsGatedGlobalClock: 0

+ Individual pipeline summary: 
  * Pipeline-0: initiation interval (II) = 2, depth = 2


============================================================
+ Verbose Summary: Schedule
============================================================
* Number of FSM states : 5
* Pipeline : 1
  Pipeline-0 : II = 2, D = 2, States = { 3 4 }
* Dataflow Pipeline: 0

* FSM state transitions: 
1 --> 2 
2 --> 3 
3 --> 5 4 
4 --> 3 
5 --> 2 

* FSM state operations: 

State 1 <SV = 0> <Delay = 1.76>
ST_1 : Operation 6 [1/1] (0.00ns)   --->   "call void (...)* @_ssdm_op_SpecBitsMap([9 x i8]* %a) nounwind, !map !7"   --->   Operation 6 'specbitsmap' <Predicate = true> <Delay = 0.00>
ST_1 : Operation 7 [1/1] (0.00ns)   --->   "call void (...)* @_ssdm_op_SpecBitsMap([9 x i8]* %b) nounwind, !map !13"   --->   Operation 7 'specbitsmap' <Predicate = true> <Delay = 0.00>
ST_1 : Operation 8 [1/1] (0.00ns)   --->   "call void (...)* @_ssdm_op_SpecBitsMap([9 x i16]* %res) nounwind, !map !17"   --->   Operation 8 'specbitsmap' <Predicate = true> <Delay = 0.00>
ST_1 : Operation 9 [1/1] (0.00ns)   --->   "call void (...)* @_ssdm_op_SpecTopModule([10 x i8]* @matrixmul_str) nounwind"   --->   Operation 9 'spectopmodule' <Predicate = true> <Delay = 0.00>
ST_1 : Operation 10 [1/1] (1.76ns)   --->   "br label %1" [../LABS/Lab8/lab1/matrixmul.cpp:54]   --->   Operation 10 'br' <Predicate = true> <Delay = 1.76>

State 2 <SV = 1> <Delay = 8.39>
ST_2 : Operation 11 [1/1] (0.00ns)   --->   "%indvar_flatten = phi i4 [ 0, %0 ], [ %add_ln54, %Col_end ]" [../LABS/Lab8/lab1/matrixmul.cpp:54]   --->   Operation 11 'phi' 'indvar_flatten' <Predicate = true> <Delay = 0.00>
ST_2 : Operation 12 [1/1] (0.00ns)   --->   "%i_0 = phi i2 [ 0, %0 ], [ %select_ln57_1, %Col_end ]" [../LABS/Lab8/lab1/matrixmul.cpp:57]   --->   Operation 12 'phi' 'i_0' <Predicate = true> <Delay = 0.00>
ST_2 : Operation 13 [1/1] (0.00ns)   --->   "%j_0 = phi i2 [ 0, %0 ], [ %j, %Col_end ]"   --->   Operation 13 'phi' 'j_0' <Predicate = true> <Delay = 0.00>
ST_2 : Operation 14 [1/1] (1.30ns)   --->   "%icmp_ln54 = icmp eq i4 %indvar_flatten, -7" [../LABS/Lab8/lab1/matrixmul.cpp:54]   --->   Operation 14 'icmp' 'icmp_ln54' <Predicate = true> <Delay = 1.30> <Core = "Cmp">   --->   Core 25 'Cmp' <Latency = 0> <II = 1> <Delay = 0.95> <FuncUnit> <Opcode : 'icmp'> <InPorts = 2> <OutPorts = 1>
ST_2 : Operation 15 [1/1] (1.73ns)   --->   "%add_ln54 = add i4 %indvar_flatten, 1" [../LABS/Lab8/lab1/matrixmul.cpp:54]   --->   Operation 15 'add' 'add_ln54' <Predicate = true> <Delay = 1.73> <Core = "AddSub">   --->   Core 14 'AddSub' <Latency = 0> <II = 1> <Delay = 1.56> <FuncUnit> <Opcode : 'add' 'sub'> <InPorts = 2> <OutPorts = 1>
ST_2 : Operation 16 [1/1] (0.00ns)   --->   "br i1 %icmp_ln54, label %3, label %Col_begin" [../LABS/Lab8/lab1/matrixmul.cpp:54]   --->   Operation 16 'br' <Predicate = true> <Delay = 0.00>
ST_2 : Operation 17 [1/1] (1.56ns)   --->   "%i = add i2 %i_0, 1" [../LABS/Lab8/lab1/matrixmul.cpp:54]   --->   Operation 17 'add' 'i' <Predicate = (!icmp_ln54)> <Delay = 1.56> <Core = "AddSub">   --->   Core 14 'AddSub' <Latency = 0> <II = 1> <Delay = 1.56> <FuncUnit> <Opcode : 'add' 'sub'> <InPorts = 2> <OutPorts = 1>
ST_2 : Operation 18 [1/1] (0.00ns)   --->   "call void (...)* @_ssdm_op_SpecLoopName([8 x i8]* @Row_Col_str)"   --->   Operation 18 'specloopname' <Predicate = (!icmp_ln54)> <Delay = 0.00>
ST_2 : Operation 19 [1/1] (0.00ns)   --->   "%empty_4 = call i32 (...)* @_ssdm_op_SpecLoopTripCount(i64 9, i64 9, i64 9) nounwind"   --->   Operation 19 'speclooptripcount' 'empty_4' <Predicate = (!icmp_ln54)> <Delay = 0.00>
ST_2 : Operation 20 [1/1] (0.95ns)   --->   "%icmp_ln56 = icmp eq i2 %j_0, -1" [../LABS/Lab8/lab1/matrixmul.cpp:56]   --->   Operation 20 'icmp' 'icmp_ln56' <Predicate = (!icmp_ln54)> <Delay = 0.95> <Core = "Cmp">   --->   Core 25 'Cmp' <Latency = 0> <II = 1> <Delay = 0.95> <FuncUnit> <Opcode : 'icmp'> <InPorts = 2> <OutPorts = 1>
ST_2 : Operation 21 [1/1] (0.99ns)   --->   "%select_ln57 = select i1 %icmp_ln56, i2 0, i2 %j_0" [../LABS/Lab8/lab1/matrixmul.cpp:57]   --->   Operation 21 'select' 'select_ln57' <Predicate = (!icmp_ln54)> <Delay = 0.99> <Core = "Sel">   --->   Core 26 'Sel' <Latency = 0> <II = 1> <Delay = 0.99> <FuncUnit> <Opcode : 'select'> <InPorts = 3> <OutPorts = 1>
ST_2 : Operation 22 [1/1] (0.99ns)   --->   "%select_ln57_1 = select i1 %icmp_ln56, i2 %i, i2 %i_0" [../LABS/Lab8/lab1/matrixmul.cpp:57]   --->   Operation 22 'select' 'select_ln57_1' <Predicate = (!icmp_ln54)> <Delay = 0.99> <Core = "Sel">   --->   Core 26 'Sel' <Latency = 0> <II = 1> <Delay = 0.99> <FuncUnit> <Opcode : 'select'> <InPorts = 3> <OutPorts = 1>
ST_2 : Operation 23 [1/1] (0.00ns)   --->   "%zext_ln60 = zext i2 %select_ln57_1 to i5" [../LABS/Lab8/lab1/matrixmul.cpp:60]   --->   Operation 23 'zext' 'zext_ln60' <Predicate = (!icmp_ln54)> <Delay = 0.00>
ST_2 : Operation 24 [1/1] (0.00ns)   --->   "%tmp = call i4 @_ssdm_op_BitConcatenate.i4.i2.i2(i2 %select_ln57_1, i2 0)" [../LABS/Lab8/lab1/matrixmul.cpp:60]   --->   Operation 24 'bitconcatenate' 'tmp' <Predicate = (!icmp_ln54)> <Delay = 0.00>
ST_2 : Operation 25 [1/1] (0.00ns)   --->   "%zext_ln60_1 = zext i4 %tmp to i5" [../LABS/Lab8/lab1/matrixmul.cpp:60]   --->   Operation 25 'zext' 'zext_ln60_1' <Predicate = (!icmp_ln54)> <Delay = 0.00>
ST_2 : Operation 26 [1/1] (1.73ns)   --->   "%sub_ln60 = sub i5 %zext_ln60_1, %zext_ln60" [../LABS/Lab8/lab1/matrixmul.cpp:60]   --->   Operation 26 'sub' 'sub_ln60' <Predicate = (!icmp_ln54)> <Delay = 1.73> <Core = "AddSub">   --->   Core 14 'AddSub' <Latency = 0> <II = 1> <Delay = 1.56> <FuncUnit> <Opcode : 'add' 'sub'> <InPorts = 2> <OutPorts = 1>
ST_2 : Operation 27 [1/1] (0.00ns)   --->   "call void (...)* @_ssdm_op_SpecLoopName([4 x i8]* @p_str1) nounwind" [../LABS/Lab8/lab1/matrixmul.cpp:56]   --->   Operation 27 'specloopname' <Predicate = (!icmp_ln54)> <Delay = 0.00>
ST_2 : Operation 28 [1/1] (0.00ns)   --->   "%tmp_1 = call i32 (...)* @_ssdm_op_SpecRegionBegin([4 x i8]* @p_str1) nounwind" [../LABS/Lab8/lab1/matrixmul.cpp:56]   --->   Operation 28 'specregionbegin' 'tmp_1' <Predicate = (!icmp_ln54)> <Delay = 0.00>
ST_2 : Operation 29 [1/1] (0.00ns)   --->   "%zext_ln57 = zext i2 %select_ln57 to i5" [../LABS/Lab8/lab1/matrixmul.cpp:57]   --->   Operation 29 'zext' 'zext_ln57' <Predicate = (!icmp_ln54)> <Delay = 0.00>
ST_2 : Operation 30 [1/1] (1.78ns)   --->   "%add_ln57 = add i5 %sub_ln60, %zext_ln57" [../LABS/Lab8/lab1/matrixmul.cpp:57]   --->   Operation 30 'add' 'add_ln57' <Predicate = (!icmp_ln54)> <Delay = 1.78> <Core = "AddSub">   --->   Core 14 'AddSub' <Latency = 0> <II = 1> <Delay = 1.56> <FuncUnit> <Opcode : 'add' 'sub'> <InPorts = 2> <OutPorts = 1>
ST_2 : Operation 31 [1/1] (0.00ns)   --->   "%sext_ln57 = sext i5 %add_ln57 to i64" [../LABS/Lab8/lab1/matrixmul.cpp:57]   --->   Operation 31 'sext' 'sext_ln57' <Predicate = (!icmp_ln54)> <Delay = 0.00>
ST_2 : Operation 32 [1/1] (0.00ns)   --->   "%res_addr = getelementptr [9 x i16]* %res, i64 0, i64 %sext_ln57" [../LABS/Lab8/lab1/matrixmul.cpp:57]   --->   Operation 32 'getelementptr' 'res_addr' <Predicate = (!icmp_ln54)> <Delay = 0.00>
ST_2 : Operation 33 [1/1] (2.32ns)   --->   "store i16 0, i16* %res_addr, align 2" [../LABS/Lab8/lab1/matrixmul.cpp:57]   --->   Operation 33 'store' <Predicate = (!icmp_ln54)> <Delay = 2.32> <Core = "RAM">   --->   Core 37 'RAM' <Latency = 1> <II = 1> <Delay = 2.32> <Storage> <Opcode : 'load' 'store'> <Ports = 2> <Width = 16> <Depth = 9> <RAM>
ST_2 : Operation 34 [1/1] (1.76ns)   --->   "br label %2" [../LABS/Lab8/lab1/matrixmul.cpp:59]   --->   Operation 34 'br' <Predicate = (!icmp_ln54)> <Delay = 1.76>
ST_2 : Operation 35 [1/1] (0.00ns)   --->   "ret void" [../LABS/Lab8/lab1/matrixmul.cpp:65]   --->   Operation 35 'ret' <Predicate = (icmp_ln54)> <Delay = 0.00>

State 3 <SV = 2> <Delay = 5.72>
ST_3 : Operation 36 [1/1] (0.00ns)   --->   "%k_0 = phi i2 [ 0, %Col_begin ], [ %k, %Product ]"   --->   Operation 36 'phi' 'k_0' <Predicate = true> <Delay = 0.00>
ST_3 : Operation 37 [1/1] (0.95ns)   --->   "%icmp_ln59 = icmp eq i2 %k_0, -1" [../LABS/Lab8/lab1/matrixmul.cpp:59]   --->   Operation 37 'icmp' 'icmp_ln59' <Predicate = true> <Delay = 0.95> <Core = "Cmp">   --->   Core 25 'Cmp' <Latency = 0> <II = 1> <Delay = 0.95> <FuncUnit> <Opcode : 'icmp'> <InPorts = 2> <OutPorts = 1>
ST_3 : Operation 38 [1/1] (0.00ns)   --->   "%empty = call i32 (...)* @_ssdm_op_SpecLoopTripCount(i64 3, i64 3, i64 3) nounwind"   --->   Operation 38 'speclooptripcount' 'empty' <Predicate = true> <Delay = 0.00>
ST_3 : Operation 39 [1/1] (1.56ns)   --->   "%k = add i2 %k_0, 1" [../LABS/Lab8/lab1/matrixmul.cpp:59]   --->   Operation 39 'add' 'k' <Predicate = true> <Delay = 1.56> <Core = "AddSub">   --->   Core 14 'AddSub' <Latency = 0> <II = 1> <Delay = 1.56> <FuncUnit> <Opcode : 'add' 'sub'> <InPorts = 2> <OutPorts = 1>
ST_3 : Operation 40 [1/1] (0.00ns)   --->   "br i1 %icmp_ln59, label %Col_end, label %Product" [../LABS/Lab8/lab1/matrixmul.cpp:59]   --->   Operation 40 'br' <Predicate = true> <Delay = 0.00>
ST_3 : Operation 41 [1/1] (0.00ns)   --->   "%zext_ln60_2 = zext i2 %k_0 to i5" [../LABS/Lab8/lab1/matrixmul.cpp:60]   --->   Operation 41 'zext' 'zext_ln60_2' <Predicate = (!icmp_ln59)> <Delay = 0.00>
ST_3 : Operation 42 [1/1] (1.78ns)   --->   "%add_ln60_1 = add i5 %sub_ln60, %zext_ln60_2" [../LABS/Lab8/lab1/matrixmul.cpp:60]   --->   Operation 42 'add' 'add_ln60_1' <Predicate = (!icmp_ln59)> <Delay = 1.78> <Core = "AddSub">   --->   Core 14 'AddSub' <Latency = 0> <II = 1> <Delay = 1.56> <FuncUnit> <Opcode : 'add' 'sub'> <InPorts = 2> <OutPorts = 1>
ST_3 : Operation 43 [1/1] (0.00ns)   --->   "%sext_ln60_2 = sext i5 %add_ln60_1 to i64" [../LABS/Lab8/lab1/matrixmul.cpp:60]   --->   Operation 43 'sext' 'sext_ln60_2' <Predicate = (!icmp_ln59)> <Delay = 0.00>
ST_3 : Operation 44 [1/1] (0.00ns)   --->   "%a_addr = getelementptr [9 x i8]* %a, i64 0, i64 %sext_ln60_2" [../LABS/Lab8/lab1/matrixmul.cpp:60]   --->   Operation 44 'getelementptr' 'a_addr' <Predicate = (!icmp_ln59)> <Delay = 0.00>
ST_3 : Operation 45 [1/1] (0.00ns)   --->   "%tmp_3 = call i4 @_ssdm_op_BitConcatenate.i4.i2.i2(i2 %k_0, i2 0)" [../LABS/Lab8/lab1/matrixmul.cpp:60]   --->   Operation 45 'bitconcatenate' 'tmp_3' <Predicate = (!icmp_ln59)> <Delay = 0.00>
ST_3 : Operation 46 [1/1] (0.00ns)   --->   "%zext_ln60_3 = zext i4 %tmp_3 to i5" [../LABS/Lab8/lab1/matrixmul.cpp:60]   --->   Operation 46 'zext' 'zext_ln60_3' <Predicate = (!icmp_ln59)> <Delay = 0.00>
ST_3 : Operation 47 [1/1] (0.00ns) (grouped into TernaryAdder)   --->   "%sub_ln60_1 = sub i5 %zext_ln60_3, %zext_ln60_2" [../LABS/Lab8/lab1/matrixmul.cpp:60]   --->   Operation 47 'sub' 'sub_ln60_1' <Predicate = (!icmp_ln59)> <Delay = 0.00> <Core = "TAddSub">   --->   Core 83 'TAddSub' <Latency = 0> <II = 1> <Delay = 1.70> <IPBlock> <Opcode : 'add' 'sub'> <InPorts = 3> <OutPorts = 1> <Sync> <CReg>
ST_3 : Operation 48 [1/1] (3.40ns) (root node of TernaryAdder)   --->   "%add_ln60_2 = add i5 %sub_ln60_1, %zext_ln57" [../LABS/Lab8/lab1/matrixmul.cpp:60]   --->   Operation 48 'add' 'add_ln60_2' <Predicate = (!icmp_ln59)> <Delay = 3.40> <Core = "TAddSub">   --->   Core 83 'TAddSub' <Latency = 0> <II = 1> <Delay = 1.70> <IPBlock> <Opcode : 'add' 'sub'> <InPorts = 3> <OutPorts = 1> <Sync> <CReg>
ST_3 : Operation 49 [1/1] (0.00ns)   --->   "%sext_ln60_3 = sext i5 %add_ln60_2 to i64" [../LABS/Lab8/lab1/matrixmul.cpp:60]   --->   Operation 49 'sext' 'sext_ln60_3' <Predicate = (!icmp_ln59)> <Delay = 0.00>
ST_3 : Operation 50 [1/1] (0.00ns)   --->   "%b_addr = getelementptr [9 x i8]* %b, i64 0, i64 %sext_ln60_3" [../LABS/Lab8/lab1/matrixmul.cpp:60]   --->   Operation 50 'getelementptr' 'b_addr' <Predicate = (!icmp_ln59)> <Delay = 0.00>
ST_3 : Operation 51 [2/2] (2.32ns)   --->   "%a_load = load i8* %a_addr, align 1" [../LABS/Lab8/lab1/matrixmul.cpp:60]   --->   Operation 51 'load' 'a_load' <Predicate = (!icmp_ln59)> <Delay = 2.32> <Core = "RAM">   --->   Core 37 'RAM' <Latency = 1> <II = 1> <Delay = 2.32> <Storage> <Opcode : 'load' 'store'> <Ports = 2> <Width = 16> <Depth = 9> <RAM>
ST_3 : Operation 52 [2/2] (2.32ns)   --->   "%b_load = load i8* %b_addr, align 1" [../LABS/Lab8/lab1/matrixmul.cpp:60]   --->   Operation 52 'load' 'b_load' <Predicate = (!icmp_ln59)> <Delay = 2.32> <Core = "RAM">   --->   Core 37 'RAM' <Latency = 1> <II = 1> <Delay = 2.32> <Storage> <Opcode : 'load' 'store'> <Ports = 2> <Width = 16> <Depth = 9> <RAM>
ST_3 : Operation 53 [2/2] (2.32ns)   --->   "%res_load = load i16* %res_addr, align 2" [../LABS/Lab8/lab1/matrixmul.cpp:60]   --->   Operation 53 'load' 'res_load' <Predicate = (!icmp_ln59)> <Delay = 2.32> <Core = "RAM">   --->   Core 37 'RAM' <Latency = 1> <II = 1> <Delay = 2.32> <Storage> <Opcode : 'load' 'store'> <Ports = 2> <Width = 16> <Depth = 9> <RAM>

State 4 <SV = 3> <Delay = 11.0>
ST_4 : Operation 54 [1/1] (0.00ns)   --->   "call void (...)* @_ssdm_op_SpecLoopName([8 x i8]* @p_str2) nounwind" [../LABS/Lab8/lab1/matrixmul.cpp:59]   --->   Operation 54 'specloopname' <Predicate = true> <Delay = 0.00>
ST_4 : Operation 55 [1/1] (0.00ns)   --->   "%tmp_2 = call i32 (...)* @_ssdm_op_SpecRegionBegin([8 x i8]* @p_str2) nounwind" [../LABS/Lab8/lab1/matrixmul.cpp:59]   --->   Operation 55 'specregionbegin' 'tmp_2' <Predicate = true> <Delay = 0.00>
ST_4 : Operation 56 [1/1] (0.00ns)   --->   "call void (...)* @_ssdm_op_SpecPipeline(i32 1, i32 1, i32 1, i32 0, [1 x i8]* @p_str3) nounwind" [../LABS/Lab8/lab1/matrixmul.cpp:60]   --->   Operation 56 'specpipeline' <Predicate = true> <Delay = 0.00>
ST_4 : Operation 57 [1/2] (2.32ns)   --->   "%a_load = load i8* %a_addr, align 1" [../LABS/Lab8/lab1/matrixmul.cpp:60]   --->   Operation 57 'load' 'a_load' <Predicate = true> <Delay = 2.32> <Core = "RAM">   --->   Core 37 'RAM' <Latency = 1> <II = 1> <Delay = 2.32> <Storage> <Opcode : 'load' 'store'> <Ports = 2> <Width = 16> <Depth = 9> <RAM>
ST_4 : Operation 58 [1/1] (0.00ns)   --->   "%sext_ln60 = sext i8 %a_load to i16" [../LABS/Lab8/lab1/matrixmul.cpp:60]   --->   Operation 58 'sext' 'sext_ln60' <Predicate = true> <Delay = 0.00>
ST_4 : Operation 59 [1/2] (2.32ns)   --->   "%b_load = load i8* %b_addr, align 1" [../LABS/Lab8/lab1/matrixmul.cpp:60]   --->   Operation 59 'load' 'b_load' <Predicate = true> <Delay = 2.32> <Core = "RAM">   --->   Core 37 'RAM' <Latency = 1> <II = 1> <Delay = 2.32> <Storage> <Opcode : 'load' 'store'> <Ports = 2> <Width = 16> <Depth = 9> <RAM>
ST_4 : Operation 60 [1/1] (0.00ns)   --->   "%sext_ln60_1 = sext i8 %b_load to i16" [../LABS/Lab8/lab1/matrixmul.cpp:60]   --->   Operation 60 'sext' 'sext_ln60_1' <Predicate = true> <Delay = 0.00>
ST_4 : Operation 61 [1/1] (3.36ns) (grouped into DSP with root node add_ln60)   --->   "%mul_ln60 = mul i16 %sext_ln60_1, %sext_ln60" [../LABS/Lab8/lab1/matrixmul.cpp:60]   --->   Operation 61 'mul' 'mul_ln60' <Predicate = true> <Delay = 3.36> <Core = "DSP48">   --->   Core 88 'DSP48' <Latency = 0> <II = 1> <Delay = 6.38> <IPBlock> <Opcode : 'mul' 'add' 'sub' 'select'> <InPorts = 0> <OutPorts = 1> <Sync> <CReg>
ST_4 : Operation 62 [1/2] (2.32ns)   --->   "%res_load = load i16* %res_addr, align 2" [../LABS/Lab8/lab1/matrixmul.cpp:60]   --->   Operation 62 'load' 'res_load' <Predicate = true> <Delay = 2.32> <Core = "RAM">   --->   Core 37 'RAM' <Latency = 1> <II = 1> <Delay = 2.32> <Storage> <Opcode : 'load' 'store'> <Ports = 2> <Width = 16> <Depth = 9> <RAM>
ST_4 : Operation 63 [1/1] (3.02ns) (root node of the DSP)   --->   "%add_ln60 = add i16 %mul_ln60, %res_load" [../LABS/Lab8/lab1/matrixmul.cpp:60]   --->   Operation 63 'add' 'add_ln60' <Predicate = true> <Delay = 3.02> <Core = "DSP48">   --->   Core 88 'DSP48' <Latency = 0> <II = 1> <Delay = 6.38> <IPBlock> <Opcode : 'mul' 'add' 'sub' 'select'> <InPorts = 0> <OutPorts = 1> <Sync> <CReg>
ST_4 : Operation 64 [1/1] (2.32ns)   --->   "store i16 %add_ln60, i16* %res_addr, align 2" [../LABS/Lab8/lab1/matrixmul.cpp:60]   --->   Operation 64 'store' <Predicate = true> <Delay = 2.32> <Core = "RAM">   --->   Core 37 'RAM' <Latency = 1> <II = 1> <Delay = 2.32> <Storage> <Opcode : 'load' 'store'> <Ports = 2> <Width = 16> <Depth = 9> <RAM>
ST_4 : Operation 65 [1/1] (0.00ns)   --->   "%empty_2 = call i32 (...)* @_ssdm_op_SpecRegionEnd([8 x i8]* @p_str2, i32 %tmp_2) nounwind" [../LABS/Lab8/lab1/matrixmul.cpp:61]   --->   Operation 65 'specregionend' 'empty_2' <Predicate = true> <Delay = 0.00>
ST_4 : Operation 66 [1/1] (0.00ns)   --->   "br label %2"   --->   Operation 66 'br' <Predicate = true> <Delay = 0.00>

State 5 <SV = 3> <Delay = 1.56>
ST_5 : Operation 67 [1/1] (0.00ns)   --->   "%empty_3 = call i32 (...)* @_ssdm_op_SpecRegionEnd([4 x i8]* @p_str1, i32 %tmp_1) nounwind" [../LABS/Lab8/lab1/matrixmul.cpp:62]   --->   Operation 67 'specregionend' 'empty_3' <Predicate = true> <Delay = 0.00>
ST_5 : Operation 68 [1/1] (1.56ns)   --->   "%j = add i2 %select_ln57, 1" [../LABS/Lab8/lab1/matrixmul.cpp:56]   --->   Operation 68 'add' 'j' <Predicate = true> <Delay = 1.56> <Core = "AddSub">   --->   Core 14 'AddSub' <Latency = 0> <II = 1> <Delay = 1.56> <FuncUnit> <Opcode : 'add' 'sub'> <InPorts = 2> <OutPorts = 1>
ST_5 : Operation 69 [1/1] (0.00ns)   --->   "br label %1" [../LABS/Lab8/lab1/matrixmul.cpp:56]   --->   Operation 69 'br' <Predicate = true> <Delay = 0.00>


============================================================
+ Verbose Summary: Binding
============================================================
STG Binding: 
---------------- STG Properties BEGIN ----------------
- Is combinational: 0
- Is one-state seq: 0
- Is datapath-only: 0
- Is pipelined: 0
- Is top level: 1
Port [ Return ] is wired: 1; IO mode=ap_ctrl_hs:ce=0
Port [ a]:  wired=1; compound=1; hidden=0; nouse=0; global=0; static=0; extern=0; dir=0; type=1; pingpong=0; private_global=0; MemPort=[13]; IO mode=ap_memory:ce=0
Port [ b]:  wired=1; compound=1; hidden=0; nouse=0; global=0; static=0; extern=0; dir=0; type=1; pingpong=0; private_global=0; MemPort=[13]; IO mode=ap_memory:ce=0
Port [ res]:  wired=1; compound=1; hidden=0; nouse=0; global=0; static=0; extern=0; dir=2; type=1; pingpong=0; private_global=0; MemPort=[23]; IO mode=ap_memory:ce=0
---------------- STG Properties END ------------------

---------------- Datapath Model BEGIN ----------------

<LifeTime>
<method=bitvector/>
specbitsmap_ln0   (specbitsmap      ) [ 000000]
specbitsmap_ln0   (specbitsmap      ) [ 000000]
specbitsmap_ln0   (specbitsmap      ) [ 000000]
spectopmodule_ln0 (spectopmodule    ) [ 000000]
br_ln54           (br               ) [ 011111]
indvar_flatten    (phi              ) [ 001000]
i_0               (phi              ) [ 001000]
j_0               (phi              ) [ 001000]
icmp_ln54         (icmp             ) [ 001111]
add_ln54          (add              ) [ 011111]
br_ln54           (br               ) [ 000000]
i                 (add              ) [ 000000]
specloopname_ln0  (specloopname     ) [ 000000]
empty_4           (speclooptripcount) [ 000000]
icmp_ln56         (icmp             ) [ 000000]
select_ln57       (select           ) [ 000111]
select_ln57_1     (select           ) [ 011111]
zext_ln60         (zext             ) [ 000000]
tmp               (bitconcatenate   ) [ 000000]
zext_ln60_1       (zext             ) [ 000000]
sub_ln60          (sub              ) [ 000110]
specloopname_ln56 (specloopname     ) [ 000000]
tmp_1             (specregionbegin  ) [ 000111]
zext_ln57         (zext             ) [ 000110]
add_ln57          (add              ) [ 000000]
sext_ln57         (sext             ) [ 000000]
res_addr          (getelementptr    ) [ 000110]
store_ln57        (store            ) [ 000000]
br_ln59           (br               ) [ 001111]
ret_ln65          (ret              ) [ 000000]
k_0               (phi              ) [ 000100]
icmp_ln59         (icmp             ) [ 001111]
empty             (speclooptripcount) [ 000000]
k                 (add              ) [ 001111]
br_ln59           (br               ) [ 000000]
zext_ln60_2       (zext             ) [ 000000]
add_ln60_1        (add              ) [ 000000]
sext_ln60_2       (sext             ) [ 000000]
a_addr            (getelementptr    ) [ 000010]
tmp_3             (bitconcatenate   ) [ 000000]
zext_ln60_3       (zext             ) [ 000000]
sub_ln60_1        (sub              ) [ 000000]
add_ln60_2        (add              ) [ 000000]
sext_ln60_3       (sext             ) [ 000000]
b_addr            (getelementptr    ) [ 000010]
specloopname_ln59 (specloopname     ) [ 000000]
tmp_2             (specregionbegin  ) [ 000000]
specpipeline_ln60 (specpipeline     ) [ 000000]
a_load            (load             ) [ 000000]
sext_ln60         (sext             ) [ 000000]
b_load            (load             ) [ 000000]
sext_ln60_1       (sext             ) [ 000000]
mul_ln60          (mul              ) [ 000000]
res_load          (load             ) [ 000000]
add_ln60          (add              ) [ 000000]
store_ln60        (store            ) [ 000000]
empty_2           (specregionend    ) [ 000000]
br_ln0            (br               ) [ 001111]
empty_3           (specregionend    ) [ 000000]
j                 (add              ) [ 011111]
br_ln56           (br               ) [ 011111]
</LifeTime>

<model>

<comp_list>
<comp id="0" class="1000" name="a">
<pin_list>
<pin id="1" dir="1" index="0" bw="1" slack="0"/>
</pin_list>
<bind>
<StgValue><ssdm name="a"/><MemPortTyVec>1 3 </MemPortTyVec>
</StgValue>
</bind>
</comp>

<comp id="2" class="1000" name="b">
<pin_list>
<pin id="3" dir="1" index="0" bw="1" slack="0"/>
</pin_list>
<bind>
<StgValue><ssdm name="b"/><MemPortTyVec>1 3 </MemPortTyVec>
</StgValue>
</bind>
</comp>

<comp id="4" class="1000" name="res">
<pin_list>
<pin id="5" dir="1" index="0" bw="1" slack="0"/>
</pin_list>
<bind>
<StgValue><ssdm name="res"/><MemPortTyVec>2 3 </MemPortTyVec>
</StgValue>
</bind>
</comp>

<comp id="6" class="1001" name="const_6">
<pin_list>
<pin id="7" dir="1" index="0" bw="1" slack="2147483647"/>
</pin_list>
<bind>
<StgValue><ssdm name="_ssdm_op_SpecBitsMap"/></StgValue>
</bind>
</comp>

<comp id="8" class="1001" name="const_8">
<pin_list>
<pin id="9" dir="1" index="0" bw="1" slack="2147483647"/>
</pin_list>
<bind>
<StgValue><ssdm name="_ssdm_op_SpecTopModule"/></StgValue>
</bind>
</comp>

<comp id="10" class="1001" name="const_10">
<pin_list>
<pin id="11" dir="1" index="0" bw="1" slack="2147483647"/>
</pin_list>
<bind>
<StgValue><ssdm name="matrixmul_str"/></StgValue>
</bind>
</comp>

<comp id="12" class="1001" name="const_12">
<pin_list>
<pin id="13" dir="1" index="0" bw="1" slack="1"/>
</pin_list>
<bind>
<StgValue><ssdm name=""/></StgValue>
</bind>
</comp>

<comp id="14" class="1001" name="const_14">
<pin_list>
<pin id="15" dir="1" index="0" bw="1" slack="0"/>
</pin_list>
<bind>
<StgValue><ssdm name=""/></StgValue>
</bind>
</comp>

<comp id="16" class="1001" name="const_16">
<pin_list>
<pin id="17" dir="1" index="0" bw="1" slack="0"/>
</pin_list>
<bind>
<StgValue><ssdm name=""/></StgValue>
</bind>
</comp>

<comp id="18" class="1001" name="const_18">
<pin_list>
<pin id="19" dir="1" index="0" bw="1" slack="0"/>
</pin_list>
<bind>
<StgValue><ssdm name=""/></StgValue>
</bind>
</comp>

<comp id="20" class="1001" name="const_20">
<pin_list>
<pin id="21" dir="1" index="0" bw="1" slack="0"/>
</pin_list>
<bind>
<StgValue><ssdm name=""/></StgValue>
</bind>
</comp>

<comp id="22" class="1001" name="const_22">
<pin_list>
<pin id="23" dir="1" index="0" bw="1" slack="2147483647"/>
</pin_list>
<bind>
<StgValue><ssdm name="_ssdm_op_SpecLoopName"/></StgValue>
</bind>
</comp>

<comp id="24" class="1001" name="const_24">
<pin_list>
<pin id="25" dir="1" index="0" bw="1" slack="2147483647"/>
</pin_list>
<bind>
<StgValue><ssdm name="Row_Col_str"/></StgValue>
</bind>
</comp>

<comp id="26" class="1001" name="const_26">
<pin_list>
<pin id="27" dir="1" index="0" bw="1" slack="2147483647"/>
</pin_list>
<bind>
<StgValue><ssdm name="_ssdm_op_SpecLoopTripCount"/></StgValue>
</bind>
</comp>

<comp id="28" class="1001" name="const_28">
<pin_list>
<pin id="29" dir="1" index="0" bw="1" slack="2147483647"/>
</pin_list>
<bind>
<StgValue><ssdm name=""/></StgValue>
</bind>
</comp>

<comp id="30" class="1001" name="const_30">
<pin_list>
<pin id="31" dir="1" index="0" bw="1" slack="0"/>
</pin_list>
<bind>
<StgValue><ssdm name=""/></StgValue>
</bind>
</comp>

<comp id="32" class="1001" name="const_32">
<pin_list>
<pin id="33" dir="1" index="0" bw="1" slack="0"/>
</pin_list>
<bind>
<StgValue><ssdm name="_ssdm_op_BitConcatenate.i4.i2.i2"/></StgValue>
</bind>
</comp>

<comp id="34" class="1001" name="const_34">
<pin_list>
<pin id="35" dir="1" index="0" bw="1" slack="2147483647"/>
</pin_list>
<bind>
<StgValue><ssdm name="p_str1"/></StgValue>
</bind>
</comp>

<comp id="36" class="1001" name="const_36">
<pin_list>
<pin id="37" dir="1" index="0" bw="1" slack="2147483647"/>
</pin_list>
<bind>
<StgValue><ssdm name="_ssdm_op_SpecRegionBegin"/></StgValue>
</bind>
</comp>

<comp id="38" class="1001" name="const_38">
<pin_list>
<pin id="39" dir="1" index="0" bw="1" slack="0"/>
</pin_list>
<bind>
<StgValue><ssdm name=""/></StgValue>
</bind>
</comp>

<comp id="40" class="1001" name="const_40">
<pin_list>
<pin id="41" dir="1" index="0" bw="1" slack="0"/>
</pin_list>
<bind>
<StgValue><ssdm name=""/></StgValue>
</bind>
</comp>

<comp id="42" class="1001" name="const_42">
<pin_list>
<pin id="43" dir="1" index="0" bw="1" slack="2147483647"/>
</pin_list>
<bind>
<StgValue><ssdm name=""/></StgValue>
</bind>
</comp>

<comp id="44" class="1001" name="const_44">
<pin_list>
<pin id="45" dir="1" index="0" bw="1" slack="2147483647"/>
</pin_list>
<bind>
<StgValue><ssdm name="p_str2"/></StgValue>
</bind>
</comp>

<comp id="46" class="1001" name="const_46">
<pin_list>
<pin id="47" dir="1" index="0" bw="1" slack="2147483647"/>
</pin_list>
<bind>
<StgValue><ssdm name="_ssdm_op_SpecPipeline"/></StgValue>
</bind>
</comp>

<comp id="48" class="1001" name="const_48">
<pin_list>
<pin id="49" dir="1" index="0" bw="1" slack="2147483647"/>
</pin_list>
<bind>
<StgValue><ssdm name=""/></StgValue>
</bind>
</comp>

<comp id="50" class="1001" name="const_50">
<pin_list>
<pin id="51" dir="1" index="0" bw="1" slack="2147483647"/>
</pin_list>
<bind>
<StgValue><ssdm name=""/></StgValue>
</bind>
</comp>

<comp id="52" class="1001" name="const_52">
<pin_list>
<pin id="53" dir="1" index="0" bw="1" slack="2147483647"/>
</pin_list>
<bind>
<StgValue><ssdm name="p_str3"/></StgValue>
</bind>
</comp>

<comp id="54" class="1001" name="const_54">
<pin_list>
<pin id="55" dir="1" index="0" bw="1" slack="2147483647"/>
</pin_list>
<bind>
<StgValue><ssdm name="_ssdm_op_SpecRegionEnd"/></StgValue>
</bind>
</comp>

<comp id="56" class="1004" name="res_addr_gep_fu_56">
<pin_list>
<pin id="57" dir="0" index="0" bw="16" slack="0"/>
<pin id="58" dir="0" index="1" bw="1" slack="0"/>
<pin id="59" dir="0" index="2" bw="5" slack="0"/>
<pin id="60" dir="1" index="3" bw="4" slack="0"/>
</pin_list>
<bind>
<opcode="getelementptr(29) " fcode="getelementptr"/>
<opset="res_addr/2 "/>
</bind>
</comp>

<comp id="63" class="1004" name="grp_access_fu_63">
<pin_list>
<pin id="64" dir="0" index="0" bw="4" slack="0"/>
<pin id="65" dir="0" index="1" bw="16" slack="0"/>
<pin id="66" dir="0" index="2" bw="0" slack="2147483647"/>
<pin id="67" dir="1" index="3" bw="16" slack="0"/>
</pin_list>
<bind>
<opcode="load(27) store(28) " fcode="store"/>
<opset="store_ln57/2 res_load/3 store_ln60/4 "/>
</bind>
</comp>

<comp id="70" class="1004" name="a_addr_gep_fu_70">
<pin_list>
<pin id="71" dir="0" index="0" bw="8" slack="0"/>
<pin id="72" dir="0" index="1" bw="1" slack="0"/>
<pin id="73" dir="0" index="2" bw="5" slack="0"/>
<pin id="74" dir="1" index="3" bw="4" slack="0"/>
</pin_list>
<bind>
<opcode="getelementptr(29) " fcode="getelementptr"/>
<opset="a_addr/3 "/>
</bind>
</comp>

<comp id="77" class="1004" name="b_addr_gep_fu_77">
<pin_list>
<pin id="78" dir="0" index="0" bw="8" slack="0"/>
<pin id="79" dir="0" index="1" bw="1" slack="0"/>
<pin id="80" dir="0" index="2" bw="5" slack="0"/>
<pin id="81" dir="1" index="3" bw="4" slack="0"/>
</pin_list>
<bind>
<opcode="getelementptr(29) " fcode="getelementptr"/>
<opset="b_addr/3 "/>
</bind>
</comp>

<comp id="84" class="1004" name="grp_access_fu_84">
<pin_list>
<pin id="85" dir="0" index="0" bw="4" slack="0"/>
<pin id="86" dir="0" index="1" bw="8" slack="2147483647"/>
<pin id="87" dir="0" index="2" bw="0" slack="2147483647"/>
<pin id="88" dir="1" index="3" bw="8" slack="0"/>
</pin_list>
<bind>
<opcode="load(27) " fcode="load"/>
<opset="a_load/3 "/>
</bind>
</comp>

<comp id="90" class="1004" name="grp_access_fu_90">
<pin_list>
<pin id="91" dir="0" index="0" bw="4" slack="0"/>
<pin id="92" dir="0" index="1" bw="8" slack="2147483647"/>
<pin id="93" dir="0" index="2" bw="0" slack="2147483647"/>
<pin id="94" dir="1" index="3" bw="8" slack="0"/>
</pin_list>
<bind>
<opcode="load(27) " fcode="load"/>
<opset="b_load/3 "/>
</bind>
</comp>

<comp id="96" class="1005" name="indvar_flatten_reg_96">
<pin_list>
<pin id="97" dir="0" index="0" bw="4" slack="1"/>
<pin id="98" dir="1" index="1" bw="4" slack="1"/>
</pin_list>
<bind>
<opset="indvar_flatten (phireg) "/>
</bind>
</comp>

<comp id="100" class="1004" name="indvar_flatten_phi_fu_100">
<pin_list>
<pin id="101" dir="0" index="0" bw="1" slack="1"/>
<pin id="102" dir="0" index="1" bw="0" slack="2147483647"/>
<pin id="103" dir="0" index="2" bw="4" slack="0"/>
<pin id="104" dir="0" index="3" bw="0" slack="2147483647"/>
<pin id="105" dir="1" index="4" bw="4" slack="0"/>
</pin_list>
<bind>
<opcode="phi(47) " fcode="phi"/>
<opset="indvar_flatten/2 "/>
</bind>
</comp>

<comp id="107" class="1005" name="i_0_reg_107">
<pin_list>
<pin id="108" dir="0" index="0" bw="2" slack="1"/>
<pin id="109" dir="1" index="1" bw="2" slack="1"/>
</pin_list>
<bind>
<opset="i_0 (phireg) "/>
</bind>
</comp>

<comp id="111" class="1004" name="i_0_phi_fu_111">
<pin_list>
<pin id="112" dir="0" index="0" bw="1" slack="1"/>
<pin id="113" dir="0" index="1" bw="0" slack="2147483647"/>
<pin id="114" dir="0" index="2" bw="2" slack="0"/>
<pin id="115" dir="0" index="3" bw="0" slack="2147483647"/>
<pin id="116" dir="1" index="4" bw="2" slack="0"/>
</pin_list>
<bind>
<opcode="phi(47) " fcode="phi"/>
<opset="i_0/2 "/>
</bind>
</comp>

<comp id="118" class="1005" name="j_0_reg_118">
<pin_list>
<pin id="119" dir="0" index="0" bw="2" slack="1"/>
<pin id="120" dir="1" index="1" bw="2" slack="1"/>
</pin_list>
<bind>
<opset="j_0 (phireg) "/>
</bind>
</comp>

<comp id="122" class="1004" name="j_0_phi_fu_122">
<pin_list>
<pin id="123" dir="0" index="0" bw="1" slack="1"/>
<pin id="124" dir="0" index="1" bw="0" slack="2147483647"/>
<pin id="125" dir="0" index="2" bw="2" slack="1"/>
<pin id="126" dir="0" index="3" bw="0" slack="2147483647"/>
<pin id="127" dir="1" index="4" bw="2" slack="0"/>
</pin_list>
<bind>
<opcode="phi(47) " fcode="phi"/>
<opset="j_0/2 "/>
</bind>
</comp>

<comp id="129" class="1005" name="k_0_reg_129">
<pin_list>
<pin id="130" dir="0" index="0" bw="2" slack="1"/>
<pin id="131" dir="1" index="1" bw="2" slack="1"/>
</pin_list>
<bind>
<opset="k_0 (phireg) "/>
</bind>
</comp>

<comp id="133" class="1004" name="k_0_phi_fu_133">
<pin_list>
<pin id="134" dir="0" index="0" bw="1" slack="1"/>
<pin id="135" dir="0" index="1" bw="0" slack="2147483647"/>
<pin id="136" dir="0" index="2" bw="2" slack="0"/>
<pin id="137" dir="0" index="3" bw="0" slack="2147483647"/>
<pin id="138" dir="1" index="4" bw="2" slack="0"/>
</pin_list>
<bind>
<opcode="phi(47) " fcode="phi"/>
<opset="k_0/3 "/>
</bind>
</comp>

<comp id="140" class="1004" name="icmp_ln54_fu_140">
<pin_list>
<pin id="141" dir="0" index="0" bw="4" slack="0"/>
<pin id="142" dir="0" index="1" bw="4" slack="0"/>
<pin id="143" dir="1" index="2" bw="1" slack="1"/>
</pin_list>
<bind>
<opcode="icmp(45) " fcode="icmp"/>
<opset="icmp_ln54/2 "/>
</bind>
</comp>

<comp id="146" class="1004" name="add_ln54_fu_146">
<pin_list>
<pin id="147" dir="0" index="0" bw="4" slack="0"/>
<pin id="148" dir="0" index="1" bw="1" slack="0"/>
<pin id="149" dir="1" index="2" bw="4" slack="0"/>
</pin_list>
<bind>
<opcode="add(8) " fcode="add"/>
<opset="add_ln54/2 "/>
</bind>
</comp>

<comp id="152" class="1004" name="i_fu_152">
<pin_list>
<pin id="153" dir="0" index="0" bw="2" slack="0"/>
<pin id="154" dir="0" index="1" bw="1" slack="0"/>
<pin id="155" dir="1" index="2" bw="2" slack="0"/>
</pin_list>
<bind>
<opcode="add(8) " fcode="add"/>
<opset="i/2 "/>
</bind>
</comp>

<comp id="158" class="1004" name="icmp_ln56_fu_158">
<pin_list>
<pin id="159" dir="0" index="0" bw="2" slack="0"/>
<pin id="160" dir="0" index="1" bw="1" slack="0"/>
<pin id="161" dir="1" index="2" bw="1" slack="0"/>
</pin_list>
<bind>
<opcode="icmp(45) " fcode="icmp"/>
<opset="icmp_ln56/2 "/>
</bind>
</comp>

<comp id="164" class="1004" name="select_ln57_fu_164">
<pin_list>
<pin id="165" dir="0" index="0" bw="1" slack="0"/>
<pin id="166" dir="0" index="1" bw="1" slack="0"/>
<pin id="167" dir="0" index="2" bw="2" slack="0"/>
<pin id="168" dir="1" index="3" bw="2" slack="0"/>
</pin_list>
<bind>
<opcode="select(49) " fcode="select"/>
<opset="select_ln57/2 "/>
</bind>
</comp>

<comp id="172" class="1004" name="select_ln57_1_fu_172">
<pin_list>
<pin id="173" dir="0" index="0" bw="1" slack="0"/>
<pin id="174" dir="0" index="1" bw="2" slack="0"/>
<pin id="175" dir="0" index="2" bw="2" slack="0"/>
<pin id="176" dir="1" index="3" bw="2" slack="0"/>
</pin_list>
<bind>
<opcode="select(49) " fcode="select"/>
<opset="select_ln57_1/2 "/>
</bind>
</comp>

<comp id="180" class="1004" name="zext_ln60_fu_180">
<pin_list>
<pin id="181" dir="0" index="0" bw="2" slack="0"/>
<pin id="182" dir="1" index="1" bw="5" slack="0"/>
</pin_list>
<bind>
<opcode="zext(34) " fcode="zext"/>
<opset="zext_ln60/2 "/>
</bind>
</comp>

<comp id="184" class="1004" name="tmp_fu_184">
<pin_list>
<pin id="185" dir="0" index="0" bw="4" slack="0"/>
<pin id="186" dir="0" index="1" bw="2" slack="0"/>
<pin id="187" dir="0" index="2" bw="1" slack="0"/>
<pin id="188" dir="1" index="3" bw="4" slack="0"/>
</pin_list>
<bind>
<opcode="bitconcatenate(1004) " fcode="bitconcatenate"/>
<opset="tmp/2 "/>
</bind>
</comp>

<comp id="192" class="1004" name="zext_ln60_1_fu_192">
<pin_list>
<pin id="193" dir="0" index="0" bw="4" slack="0"/>
<pin id="194" dir="1" index="1" bw="5" slack="0"/>
</pin_list>
<bind>
<opcode="zext(34) " fcode="zext"/>
<opset="zext_ln60_1/2 "/>
</bind>
</comp>

<comp id="196" class="1004" name="sub_ln60_fu_196">
<pin_list>
<pin id="197" dir="0" index="0" bw="4" slack="0"/>
<pin id="198" dir="0" index="1" bw="2" slack="0"/>
<pin id="199" dir="1" index="2" bw="5" slack="0"/>
</pin_list>
<bind>
<opcode="sub(10) " fcode="sub"/>
<opset="sub_ln60/2 "/>
</bind>
</comp>

<comp id="202" class="1004" name="zext_ln57_fu_202">
<pin_list>
<pin id="203" dir="0" index="0" bw="2" slack="0"/>
<pin id="204" dir="1" index="1" bw="5" slack="0"/>
</pin_list>
<bind>
<opcode="zext(34) " fcode="zext"/>
<opset="zext_ln57/2 "/>
</bind>
</comp>

<comp id="206" class="1004" name="add_ln57_fu_206">
<pin_list>
<pin id="207" dir="0" index="0" bw="5" slack="0"/>
<pin id="208" dir="0" index="1" bw="2" slack="0"/>
<pin id="209" dir="1" index="2" bw="5" slack="0"/>
</pin_list>
<bind>
<opcode="add(8) " fcode="add"/>
<opset="add_ln57/2 "/>
</bind>
</comp>

<comp id="212" class="1004" name="sext_ln57_fu_212">
<pin_list>
<pin id="213" dir="0" index="0" bw="5" slack="0"/>
<pin id="214" dir="1" index="1" bw="64" slack="0"/>
</pin_list>
<bind>
<opcode="sext(35) " fcode="sext"/>
<opset="sext_ln57/2 "/>
</bind>
</comp>

<comp id="217" class="1004" name="icmp_ln59_fu_217">
<pin_list>
<pin id="218" dir="0" index="0" bw="2" slack="0"/>
<pin id="219" dir="0" index="1" bw="1" slack="0"/>
<pin id="220" dir="1" index="2" bw="1" slack="2147483647"/>
</pin_list>
<bind>
<opcode="icmp(45) " fcode="icmp"/>
<opset="icmp_ln59/3 "/>
</bind>
</comp>

<comp id="223" class="1004" name="k_fu_223">
<pin_list>
<pin id="224" dir="0" index="0" bw="2" slack="0"/>
<pin id="225" dir="0" index="1" bw="1" slack="0"/>
<pin id="226" dir="1" index="2" bw="2" slack="0"/>
</pin_list>
<bind>
<opcode="add(8) " fcode="add"/>
<opset="k/3 "/>
</bind>
</comp>

<comp id="229" class="1004" name="zext_ln60_2_fu_229">
<pin_list>
<pin id="230" dir="0" index="0" bw="2" slack="0"/>
<pin id="231" dir="1" index="1" bw="5" slack="0"/>
</pin_list>
<bind>
<opcode="zext(34) " fcode="zext"/>
<opset="zext_ln60_2/3 "/>
</bind>
</comp>

<comp id="233" class="1004" name="add_ln60_1_fu_233">
<pin_list>
<pin id="234" dir="0" index="0" bw="5" slack="1"/>
<pin id="235" dir="0" index="1" bw="2" slack="0"/>
<pin id="236" dir="1" index="2" bw="5" slack="0"/>
</pin_list>
<bind>
<opcode="add(8) " fcode="add"/>
<opset="add_ln60_1/3 "/>
</bind>
</comp>

<comp id="238" class="1004" name="sext_ln60_2_fu_238">
<pin_list>
<pin id="239" dir="0" index="0" bw="5" slack="0"/>
<pin id="240" dir="1" index="1" bw="64" slack="0"/>
</pin_list>
<bind>
<opcode="sext(35) " fcode="sext"/>
<opset="sext_ln60_2/3 "/>
</bind>
</comp>

<comp id="243" class="1004" name="tmp_3_fu_243">
<pin_list>
<pin id="244" dir="0" index="0" bw="4" slack="0"/>
<pin id="245" dir="0" index="1" bw="2" slack="0"/>
<pin id="246" dir="0" index="2" bw="1" slack="0"/>
<pin id="247" dir="1" index="3" bw="4" slack="0"/>
</pin_list>
<bind>
<opcode="bitconcatenate(1004) " fcode="bitconcatenate"/>
<opset="tmp_3/3 "/>
</bind>
</comp>

<comp id="251" class="1004" name="zext_ln60_3_fu_251">
<pin_list>
<pin id="252" dir="0" index="0" bw="4" slack="0"/>
<pin id="253" dir="1" index="1" bw="5" slack="0"/>
</pin_list>
<bind>
<opcode="zext(34) " fcode="zext"/>
<opset="zext_ln60_3/3 "/>
</bind>
</comp>

<comp id="255" class="1004" name="sub_ln60_1_fu_255">
<pin_list>
<pin id="256" dir="0" index="0" bw="4" slack="0"/>
<pin id="257" dir="0" index="1" bw="2" slack="0"/>
<pin id="258" dir="1" index="2" bw="5" slack="0"/>
</pin_list>
<bind>
<opcode="sub(10) " fcode="sub"/>
<opset="sub_ln60_1/3 "/>
</bind>
</comp>

<comp id="261" class="1004" name="add_ln60_2_fu_261">
<pin_list>
<pin id="262" dir="0" index="0" bw="5" slack="0"/>
<pin id="263" dir="0" index="1" bw="2" slack="1"/>
<pin id="264" dir="1" index="2" bw="5" slack="0"/>
</pin_list>
<bind>
<opcode="add(8) " fcode="add"/>
<opset="add_ln60_2/3 "/>
</bind>
</comp>

<comp id="266" class="1004" name="sext_ln60_3_fu_266">
<pin_list>
<pin id="267" dir="0" index="0" bw="5" slack="0"/>
<pin id="268" dir="1" index="1" bw="64" slack="0"/>
</pin_list>
<bind>
<opcode="sext(35) " fcode="sext"/>
<opset="sext_ln60_3/3 "/>
</bind>
</comp>

<comp id="271" class="1004" name="sext_ln60_fu_271">
<pin_list>
<pin id="272" dir="0" index="0" bw="8" slack="0"/>
<pin id="273" dir="1" index="1" bw="16" slack="0"/>
</pin_list>
<bind>
<opcode="sext(35) " fcode="sext"/>
<opset="sext_ln60/4 "/>
</bind>
</comp>

<comp id="275" class="1004" name="sext_ln60_1_fu_275">
<pin_list>
<pin id="276" dir="0" index="0" bw="8" slack="0"/>
<pin id="277" dir="1" index="1" bw="16" slack="0"/>
</pin_list>
<bind>
<opcode="sext(35) " fcode="sext"/>
<opset="sext_ln60_1/4 "/>
</bind>
</comp>

<comp id="279" class="1004" name="j_fu_279">
<pin_list>
<pin id="280" dir="0" index="0" bw="2" slack="2"/>
<pin id="281" dir="0" index="1" bw="1" slack="0"/>
<pin id="282" dir="1" index="2" bw="2" slack="1"/>
</pin_list>
<bind>
<opcode="add(8) " fcode="add"/>
<opset="j/5 "/>
</bind>
</comp>

<comp id="284" class="1007" name="grp_fu_284">
<pin_list>
<pin id="285" dir="0" index="0" bw="8" slack="0"/>
<pin id="286" dir="0" index="1" bw="8" slack="0"/>
<pin id="287" dir="0" index="2" bw="16" slack="0"/>
<pin id="288" dir="1" index="3" bw="16" slack="0"/>
</pin_list>
<bind>
<opcode="muladd(1172) " fcode="muladd"/>
<opset="mul_ln60/4 add_ln60/4 "/>
</bind>
</comp>

<comp id="293" class="1005" name="icmp_ln54_reg_293">
<pin_list>
<pin id="294" dir="0" index="0" bw="1" slack="1"/>
<pin id="295" dir="1" index="1" bw="1" slack="2147483647"/>
</pin_list>
<bind>
<opset="icmp_ln54 "/>
</bind>
</comp>

<comp id="297" class="1005" name="add_ln54_reg_297">
<pin_list>
<pin id="298" dir="0" index="0" bw="4" slack="0"/>
<pin id="299" dir="1" index="1" bw="4" slack="0"/>
</pin_list>
<bind>
<opset="add_ln54 "/>
</bind>
</comp>

<comp id="302" class="1005" name="select_ln57_reg_302">
<pin_list>
<pin id="303" dir="0" index="0" bw="2" slack="2"/>
<pin id="304" dir="1" index="1" bw="2" slack="2"/>
</pin_list>
<bind>
<opset="select_ln57 "/>
</bind>
</comp>

<comp id="307" class="1005" name="select_ln57_1_reg_307">
<pin_list>
<pin id="308" dir="0" index="0" bw="2" slack="0"/>
<pin id="309" dir="1" index="1" bw="2" slack="0"/>
</pin_list>
<bind>
<opset="select_ln57_1 "/>
</bind>
</comp>

<comp id="312" class="1005" name="sub_ln60_reg_312">
<pin_list>
<pin id="313" dir="0" index="0" bw="5" slack="1"/>
<pin id="314" dir="1" index="1" bw="5" slack="1"/>
</pin_list>
<bind>
<opset="sub_ln60 "/>
</bind>
</comp>

<comp id="317" class="1005" name="zext_ln57_reg_317">
<pin_list>
<pin id="318" dir="0" index="0" bw="5" slack="1"/>
<pin id="319" dir="1" index="1" bw="5" slack="1"/>
</pin_list>
<bind>
<opset="zext_ln57 "/>
</bind>
</comp>

<comp id="322" class="1005" name="res_addr_reg_322">
<pin_list>
<pin id="323" dir="0" index="0" bw="4" slack="1"/>
<pin id="324" dir="1" index="1" bw="4" slack="1"/>
</pin_list>
<bind>
<opset="res_addr "/>
</bind>
</comp>

<comp id="330" class="1005" name="k_reg_330">
<pin_list>
<pin id="331" dir="0" index="0" bw="2" slack="0"/>
<pin id="332" dir="1" index="1" bw="2" slack="0"/>
</pin_list>
<bind>
<opset="k "/>
</bind>
</comp>

<comp id="335" class="1005" name="a_addr_reg_335">
<pin_list>
<pin id="336" dir="0" index="0" bw="4" slack="1"/>
<pin id="337" dir="1" index="1" bw="4" slack="1"/>
</pin_list>
<bind>
<opset="a_addr "/>
</bind>
</comp>

<comp id="340" class="1005" name="b_addr_reg_340">
<pin_list>
<pin id="341" dir="0" index="0" bw="4" slack="1"/>
<pin id="342" dir="1" index="1" bw="4" slack="1"/>
</pin_list>
<bind>
<opset="b_addr "/>
</bind>
</comp>

<comp id="345" class="1005" name="j_reg_345">
<pin_list>
<pin id="346" dir="0" index="0" bw="2" slack="1"/>
<pin id="347" dir="1" index="1" bw="2" slack="1"/>
</pin_list>
<bind>
<opset="j "/>
</bind>
</comp>

</comp_list>

<net_list>
<net id="61"><net_src comp="4" pin="0"/><net_sink comp="56" pin=0"/></net>

<net id="62"><net_src comp="38" pin="0"/><net_sink comp="56" pin=1"/></net>

<net id="68"><net_src comp="40" pin="0"/><net_sink comp="63" pin=1"/></net>

<net id="69"><net_src comp="56" pin="3"/><net_sink comp="63" pin=0"/></net>

<net id="75"><net_src comp="0" pin="0"/><net_sink comp="70" pin=0"/></net>

<net id="76"><net_src comp="38" pin="0"/><net_sink comp="70" pin=1"/></net>

<net id="82"><net_src comp="2" pin="0"/><net_sink comp="77" pin=0"/></net>

<net id="83"><net_src comp="38" pin="0"/><net_sink comp="77" pin=1"/></net>

<net id="89"><net_src comp="70" pin="3"/><net_sink comp="84" pin=0"/></net>

<net id="95"><net_src comp="77" pin="3"/><net_sink comp="90" pin=0"/></net>

<net id="99"><net_src comp="12" pin="0"/><net_sink comp="96" pin=0"/></net>

<net id="106"><net_src comp="96" pin="1"/><net_sink comp="100" pin=0"/></net>

<net id="110"><net_src comp="14" pin="0"/><net_sink comp="107" pin=0"/></net>

<net id="117"><net_src comp="107" pin="1"/><net_sink comp="111" pin=0"/></net>

<net id="121"><net_src comp="14" pin="0"/><net_sink comp="118" pin=0"/></net>

<net id="128"><net_src comp="118" pin="1"/><net_sink comp="122" pin=0"/></net>

<net id="132"><net_src comp="14" pin="0"/><net_sink comp="129" pin=0"/></net>

<net id="139"><net_src comp="129" pin="1"/><net_sink comp="133" pin=0"/></net>

<net id="144"><net_src comp="100" pin="4"/><net_sink comp="140" pin=0"/></net>

<net id="145"><net_src comp="16" pin="0"/><net_sink comp="140" pin=1"/></net>

<net id="150"><net_src comp="100" pin="4"/><net_sink comp="146" pin=0"/></net>

<net id="151"><net_src comp="18" pin="0"/><net_sink comp="146" pin=1"/></net>

<net id="156"><net_src comp="111" pin="4"/><net_sink comp="152" pin=0"/></net>

<net id="157"><net_src comp="20" pin="0"/><net_sink comp="152" pin=1"/></net>

<net id="162"><net_src comp="122" pin="4"/><net_sink comp="158" pin=0"/></net>

<net id="163"><net_src comp="30" pin="0"/><net_sink comp="158" pin=1"/></net>

<net id="169"><net_src comp="158" pin="2"/><net_sink comp="164" pin=0"/></net>

<net id="170"><net_src comp="14" pin="0"/><net_sink comp="164" pin=1"/></net>

<net id="171"><net_src comp="122" pin="4"/><net_sink comp="164" pin=2"/></net>

<net id="177"><net_src comp="158" pin="2"/><net_sink comp="172" pin=0"/></net>

<net id="178"><net_src comp="152" pin="2"/><net_sink comp="172" pin=1"/></net>

<net id="179"><net_src comp="111" pin="4"/><net_sink comp="172" pin=2"/></net>

<net id="183"><net_src comp="172" pin="3"/><net_sink comp="180" pin=0"/></net>

<net id="189"><net_src comp="32" pin="0"/><net_sink comp="184" pin=0"/></net>

<net id="190"><net_src comp="172" pin="3"/><net_sink comp="184" pin=1"/></net>

<net id="191"><net_src comp="14" pin="0"/><net_sink comp="184" pin=2"/></net>

<net id="195"><net_src comp="184" pin="3"/><net_sink comp="192" pin=0"/></net>

<net id="200"><net_src comp="192" pin="1"/><net_sink comp="196" pin=0"/></net>

<net id="201"><net_src comp="180" pin="1"/><net_sink comp="196" pin=1"/></net>

<net id="205"><net_src comp="164" pin="3"/><net_sink comp="202" pin=0"/></net>

<net id="210"><net_src comp="196" pin="2"/><net_sink comp="206" pin=0"/></net>

<net id="211"><net_src comp="202" pin="1"/><net_sink comp="206" pin=1"/></net>

<net id="215"><net_src comp="206" pin="2"/><net_sink comp="212" pin=0"/></net>

<net id="216"><net_src comp="212" pin="1"/><net_sink comp="56" pin=2"/></net>

<net id="221"><net_src comp="133" pin="4"/><net_sink comp="217" pin=0"/></net>

<net id="222"><net_src comp="30" pin="0"/><net_sink comp="217" pin=1"/></net>

<net id="227"><net_src comp="133" pin="4"/><net_sink comp="223" pin=0"/></net>

<net id="228"><net_src comp="20" pin="0"/><net_sink comp="223" pin=1"/></net>

<net id="232"><net_src comp="133" pin="4"/><net_sink comp="229" pin=0"/></net>

<net id="237"><net_src comp="229" pin="1"/><net_sink comp="233" pin=1"/></net>

<net id="241"><net_src comp="233" pin="2"/><net_sink comp="238" pin=0"/></net>

<net id="242"><net_src comp="238" pin="1"/><net_sink comp="70" pin=2"/></net>

<net id="248"><net_src comp="32" pin="0"/><net_sink comp="243" pin=0"/></net>

<net id="249"><net_src comp="133" pin="4"/><net_sink comp="243" pin=1"/></net>

<net id="250"><net_src comp="14" pin="0"/><net_sink comp="243" pin=2"/></net>

<net id="254"><net_src comp="243" pin="3"/><net_sink comp="251" pin=0"/></net>

<net id="259"><net_src comp="251" pin="1"/><net_sink comp="255" pin=0"/></net>

<net id="260"><net_src comp="229" pin="1"/><net_sink comp="255" pin=1"/></net>

<net id="265"><net_src comp="255" pin="2"/><net_sink comp="261" pin=0"/></net>

<net id="269"><net_src comp="261" pin="2"/><net_sink comp="266" pin=0"/></net>

<net id="270"><net_src comp="266" pin="1"/><net_sink comp="77" pin=2"/></net>

<net id="274"><net_src comp="84" pin="3"/><net_sink comp="271" pin=0"/></net>

<net id="278"><net_src comp="90" pin="3"/><net_sink comp="275" pin=0"/></net>

<net id="283"><net_src comp="20" pin="0"/><net_sink comp="279" pin=1"/></net>

<net id="289"><net_src comp="275" pin="1"/><net_sink comp="284" pin=0"/></net>

<net id="290"><net_src comp="271" pin="1"/><net_sink comp="284" pin=1"/></net>

<net id="291"><net_src comp="63" pin="3"/><net_sink comp="284" pin=2"/></net>

<net id="292"><net_src comp="284" pin="3"/><net_sink comp="63" pin=1"/></net>

<net id="296"><net_src comp="140" pin="2"/><net_sink comp="293" pin=0"/></net>

<net id="300"><net_src comp="146" pin="2"/><net_sink comp="297" pin=0"/></net>

<net id="301"><net_src comp="297" pin="1"/><net_sink comp="100" pin=2"/></net>

<net id="305"><net_src comp="164" pin="3"/><net_sink comp="302" pin=0"/></net>

<net id="306"><net_src comp="302" pin="1"/><net_sink comp="279" pin=0"/></net>

<net id="310"><net_src comp="172" pin="3"/><net_sink comp="307" pin=0"/></net>

<net id="311"><net_src comp="307" pin="1"/><net_sink comp="111" pin=2"/></net>

<net id="315"><net_src comp="196" pin="2"/><net_sink comp="312" pin=0"/></net>

<net id="316"><net_src comp="312" pin="1"/><net_sink comp="233" pin=0"/></net>

<net id="320"><net_src comp="202" pin="1"/><net_sink comp="317" pin=0"/></net>

<net id="321"><net_src comp="317" pin="1"/><net_sink comp="261" pin=1"/></net>

<net id="325"><net_src comp="56" pin="3"/><net_sink comp="322" pin=0"/></net>

<net id="326"><net_src comp="322" pin="1"/><net_sink comp="63" pin=0"/></net>

<net id="333"><net_src comp="223" pin="2"/><net_sink comp="330" pin=0"/></net>

<net id="334"><net_src comp="330" pin="1"/><net_sink comp="133" pin=2"/></net>

<net id="338"><net_src comp="70" pin="3"/><net_sink comp="335" pin=0"/></net>

<net id="339"><net_src comp="335" pin="1"/><net_sink comp="84" pin=0"/></net>

<net id="343"><net_src comp="77" pin="3"/><net_sink comp="340" pin=0"/></net>

<net id="344"><net_src comp="340" pin="1"/><net_sink comp="90" pin=0"/></net>

<net id="348"><net_src comp="279" pin="2"/><net_sink comp="345" pin=0"/></net>

<net id="349"><net_src comp="345" pin="1"/><net_sink comp="122" pin=2"/></net>

</net_list>

</model> 
---------------- Datapath Model END ------------------

* FSMD analyzer results:
  - Output states:
	Port: res | {2 4 }
 - Input state : 
	Port: matrixmul : a | {3 4 }
	Port: matrixmul : b | {3 4 }
	Port: matrixmul : res | {3 4 }
  - Chain level:
	State 1
	State 2
		icmp_ln54 : 1
		add_ln54 : 1
		br_ln54 : 2
		i : 1
		icmp_ln56 : 1
		select_ln57 : 2
		select_ln57_1 : 2
		zext_ln60 : 3
		tmp : 3
		zext_ln60_1 : 4
		sub_ln60 : 5
		zext_ln57 : 3
		add_ln57 : 6
		sext_ln57 : 7
		res_addr : 8
		store_ln57 : 9
	State 3
		icmp_ln59 : 1
		k : 1
		br_ln59 : 2
		zext_ln60_2 : 1
		add_ln60_1 : 2
		sext_ln60_2 : 3
		a_addr : 4
		tmp_3 : 1
		zext_ln60_3 : 2
		sub_ln60_1 : 3
		add_ln60_2 : 4
		sext_ln60_3 : 5
		b_addr : 6
		a_load : 5
		b_load : 7
	State 4
		sext_ln60 : 1
		sext_ln60_1 : 1
		mul_ln60 : 2
		add_ln60 : 3
		store_ln60 : 4
		empty_2 : 1
	State 5


============================================================
+ Verbose Summary: Datapath Resource usage 
============================================================

* Functional unit list:
|----------|----------------------|---------|---------|---------|
| Operation|    Functional Unit   |  DSP48E |    FF   |   LUT   |
|----------|----------------------|---------|---------|---------|
|          |    add_ln54_fu_146   |    0    |    0    |    13   |
|          |       i_fu_152       |    0    |    0    |    10   |
|          |    add_ln57_fu_206   |    0    |    0    |    15   |
|    add   |       k_fu_223       |    0    |    0    |    10   |
|          |   add_ln60_1_fu_233  |    0    |    0    |    15   |
|          |   add_ln60_2_fu_261  |    0    |    0    |    8    |
|          |       j_fu_279       |    0    |    0    |    10   |
|----------|----------------------|---------|---------|---------|
|          |   icmp_ln54_fu_140   |    0    |    0    |    9    |
|   icmp   |   icmp_ln56_fu_158   |    0    |    0    |    8    |
|          |   icmp_ln59_fu_217   |    0    |    0    |    8    |
|----------|----------------------|---------|---------|---------|
|    sub   |    sub_ln60_fu_196   |    0    |    0    |    13   |
|          |   sub_ln60_1_fu_255  |    0    |    0    |    8    |
|----------|----------------------|---------|---------|---------|
|  select  |  select_ln57_fu_164  |    0    |    0    |    2    |
|          | select_ln57_1_fu_172 |    0    |    0    |    2    |
|----------|----------------------|---------|---------|---------|
|  muladd  |      grp_fu_284      |    1    |    0    |    0    |
|----------|----------------------|---------|---------|---------|
|          |   zext_ln60_fu_180   |    0    |    0    |    0    |
|          |  zext_ln60_1_fu_192  |    0    |    0    |    0    |
|   zext   |   zext_ln57_fu_202   |    0    |    0    |    0    |
|          |  zext_ln60_2_fu_229  |    0    |    0    |    0    |
|          |  zext_ln60_3_fu_251  |    0    |    0    |    0    |
|----------|----------------------|---------|---------|---------|
|bitconcatenate|      tmp_fu_184      |    0    |    0    |    0    |
|          |     tmp_3_fu_243     |    0    |    0    |    0    |
|----------|----------------------|---------|---------|---------|
|          |   sext_ln57_fu_212   |    0    |    0    |    0    |
|          |  sext_ln60_2_fu_238  |    0    |    0    |    0    |
|   sext   |  sext_ln60_3_fu_266  |    0    |    0    |    0    |
|          |   sext_ln60_fu_271   |    0    |    0    |    0    |
|          |  sext_ln60_1_fu_275  |    0    |    0    |    0    |
|----------|----------------------|---------|---------|---------|
|   Total  |                      |    1    |    0    |   131   |
|----------|----------------------|---------|---------|---------|

Memories:
N/A

* Register list:
+---------------------+--------+
|                     |   FF   |
+---------------------+--------+
|    a_addr_reg_335   |    4   |
|   add_ln54_reg_297  |    4   |
|    b_addr_reg_340   |    4   |
|     i_0_reg_107     |    2   |
|  icmp_ln54_reg_293  |    1   |
|indvar_flatten_reg_96|    4   |
|     j_0_reg_118     |    2   |
|      j_reg_345      |    2   |
|     k_0_reg_129     |    2   |
|      k_reg_330      |    2   |
|   res_addr_reg_322  |    4   |
|select_ln57_1_reg_307|    2   |
| select_ln57_reg_302 |    2   |
|   sub_ln60_reg_312  |    5   |
|  zext_ln57_reg_317  |    5   |
+---------------------+--------+
|        Total        |   45   |
+---------------------+--------+

* Multiplexer (MUX) list: 
|------------------|------|------|------|--------||---------||---------|
|       Comp       |  Pin | Size |  BW  | S x BW ||  Delay  ||   LUT   |
|------------------|------|------|------|--------||---------||---------|
| grp_access_fu_63 |  p0  |   2  |   4  |    8   ||    9    |
| grp_access_fu_63 |  p1  |   2  |  16  |   32   ||    9    |
| grp_access_fu_84 |  p0  |   2  |   4  |    8   ||    9    |
| grp_access_fu_90 |  p0  |   2  |   4  |    8   ||    9    |
|------------------|------|------|------|--------||---------||---------|
|       Total      |      |      |      |   56   ||  7.076  ||    36   |
|------------------|------|------|------|--------||---------||---------|



* Summary:
+-----------+--------+--------+--------+--------+
|           | DSP48E |  Delay |   FF   |   LUT  |
+-----------+--------+--------+--------+--------+
|  Function |    1   |    -   |    0   |   131  |
|   Memory  |    -   |    -   |    -   |    -   |
|Multiplexer|    -   |    7   |    -   |   36   |
|  Register |    -   |    -   |   45   |    -   |
+-----------+--------+--------+--------+--------+
|   Total   |    1   |    7   |   45   |   167  |
+-----------+--------+--------+--------+--------+
