

Implementation tool: Xilinx Vivado v.2019.1
Project:             fir
Solution:            solution1
Device target:       xc7z010-clg400-1
Report date:         Sat Apr 18 23:28:12 +0100 2020

#=== Post-Synthesis Resource usage ===
SLICE:            0
LUT:            192
FF:             135
DSP:              3
BRAM:             0
SRL:              0
#=== Final timing ===
CP required:    8.000
CP achieved post-synthesis:    5.690
Timing met
