axi4stream_vip_axi4streampc.sv,systemverilog,xilinx_vip,../../../../../../../../../Xilinx/Vivado/2019.1/data/xilinx_vip/hdl/axi4stream_vip_axi4streampc.sv,incdir="$ref_dir/../../../../lab2.srcs/sources_1/bd/design_1/ipshared/ec67/hdl"incdir="$ref_dir/../../../../lab2.srcs/sources_1/bd/design_1/ipshared/8c62/hdl"incdir="../../../../lab2.srcs/sources_1/bd/design_1/ipshared/ec67/hdl"incdir="../../../../lab2.srcs/sources_1/bd/design_1/ipshared/8c62/hdl"incdir="../../../../lab2.srcs/sources_1/bd/design_1/ip/design_1_processing_system7_0_0"
axi_vip_axi4pc.sv,systemverilog,xilinx_vip,../../../../../../../../../Xilinx/Vivado/2019.1/data/xilinx_vip/hdl/axi_vip_axi4pc.sv,incdir="$ref_dir/../../../../lab2.srcs/sources_1/bd/design_1/ipshared/ec67/hdl"incdir="$ref_dir/../../../../lab2.srcs/sources_1/bd/design_1/ipshared/8c62/hdl"incdir="../../../../lab2.srcs/sources_1/bd/design_1/ipshared/ec67/hdl"incdir="../../../../lab2.srcs/sources_1/bd/design_1/ipshared/8c62/hdl"incdir="../../../../lab2.srcs/sources_1/bd/design_1/ip/design_1_processing_system7_0_0"
xil_common_vip_pkg.sv,systemverilog,xilinx_vip,../../../../../../../../../Xilinx/Vivado/2019.1/data/xilinx_vip/hdl/xil_common_vip_pkg.sv,incdir="$ref_dir/../../../../lab2.srcs/sources_1/bd/design_1/ipshared/ec67/hdl"incdir="$ref_dir/../../../../lab2.srcs/sources_1/bd/design_1/ipshared/8c62/hdl"incdir="../../../../lab2.srcs/sources_1/bd/design_1/ipshared/ec67/hdl"incdir="../../../../lab2.srcs/sources_1/bd/design_1/ipshared/8c62/hdl"incdir="../../../../lab2.srcs/sources_1/bd/design_1/ip/design_1_processing_system7_0_0"
axi4stream_vip_pkg.sv,systemverilog,xilinx_vip,../../../../../../../../../Xilinx/Vivado/2019.1/data/xilinx_vip/hdl/axi4stream_vip_pkg.sv,incdir="$ref_dir/../../../../lab2.srcs/sources_1/bd/design_1/ipshared/ec67/hdl"incdir="$ref_dir/../../../../lab2.srcs/sources_1/bd/design_1/ipshared/8c62/hdl"incdir="../../../../lab2.srcs/sources_1/bd/design_1/ipshared/ec67/hdl"incdir="../../../../lab2.srcs/sources_1/bd/design_1/ipshared/8c62/hdl"incdir="../../../../lab2.srcs/sources_1/bd/design_1/ip/design_1_processing_system7_0_0"
axi_vip_pkg.sv,systemverilog,xilinx_vip,../../../../../../../../../Xilinx/Vivado/2019.1/data/xilinx_vip/hdl/axi_vip_pkg.sv,incdir="$ref_dir/../../../../lab2.srcs/sources_1/bd/design_1/ipshared/ec67/hdl"incdir="$ref_dir/../../../../lab2.srcs/sources_1/bd/design_1/ipshared/8c62/hdl"incdir="../../../../lab2.srcs/sources_1/bd/design_1/ipshared/ec67/hdl"incdir="../../../../lab2.srcs/sources_1/bd/design_1/ipshared/8c62/hdl"incdir="../../../../lab2.srcs/sources_1/bd/design_1/ip/design_1_processing_system7_0_0"
axi4stream_vip_if.sv,systemverilog,xilinx_vip,../../../../../../../../../Xilinx/Vivado/2019.1/data/xilinx_vip/hdl/axi4stream_vip_if.sv,incdir="$ref_dir/../../../../lab2.srcs/sources_1/bd/design_1/ipshared/ec67/hdl"incdir="$ref_dir/../../../../lab2.srcs/sources_1/bd/design_1/ipshared/8c62/hdl"incdir="../../../../lab2.srcs/sources_1/bd/design_1/ipshared/ec67/hdl"incdir="../../../../lab2.srcs/sources_1/bd/design_1/ipshared/8c62/hdl"incdir="../../../../lab2.srcs/sources_1/bd/design_1/ip/design_1_processing_system7_0_0"
axi_vip_if.sv,systemverilog,xilinx_vip,../../../../../../../../../Xilinx/Vivado/2019.1/data/xilinx_vip/hdl/axi_vip_if.sv,incdir="$ref_dir/../../../../lab2.srcs/sources_1/bd/design_1/ipshared/ec67/hdl"incdir="$ref_dir/../../../../lab2.srcs/sources_1/bd/design_1/ipshared/8c62/hdl"incdir="../../../../lab2.srcs/sources_1/bd/design_1/ipshared/ec67/hdl"incdir="../../../../lab2.srcs/sources_1/bd/design_1/ipshared/8c62/hdl"incdir="../../../../lab2.srcs/sources_1/bd/design_1/ip/design_1_processing_system7_0_0"
clk_vip_if.sv,systemverilog,xilinx_vip,../../../../../../../../../Xilinx/Vivado/2019.1/data/xilinx_vip/hdl/clk_vip_if.sv,incdir="$ref_dir/../../../../lab2.srcs/sources_1/bd/design_1/ipshared/ec67/hdl"incdir="$ref_dir/../../../../lab2.srcs/sources_1/bd/design_1/ipshared/8c62/hdl"incdir="../../../../lab2.srcs/sources_1/bd/design_1/ipshared/ec67/hdl"incdir="../../../../lab2.srcs/sources_1/bd/design_1/ipshared/8c62/hdl"incdir="../../../../lab2.srcs/sources_1/bd/design_1/ip/design_1_processing_system7_0_0"
rst_vip_if.sv,systemverilog,xilinx_vip,../../../../../../../../../Xilinx/Vivado/2019.1/data/xilinx_vip/hdl/rst_vip_if.sv,incdir="$ref_dir/../../../../lab2.srcs/sources_1/bd/design_1/ipshared/ec67/hdl"incdir="$ref_dir/../../../../lab2.srcs/sources_1/bd/design_1/ipshared/8c62/hdl"incdir="../../../../lab2.srcs/sources_1/bd/design_1/ipshared/ec67/hdl"incdir="../../../../lab2.srcs/sources_1/bd/design_1/ipshared/8c62/hdl"incdir="../../../../lab2.srcs/sources_1/bd/design_1/ip/design_1_processing_system7_0_0"
xpm_cdc.sv,systemverilog,xil_defaultlib,../../../../../../../../../Xilinx/Vivado/2019.1/data/ip/xpm/xpm_cdc/hdl/xpm_cdc.sv,incdir="$ref_dir/../../../../lab2.srcs/sources_1/bd/design_1/ipshared/ec67/hdl"incdir="$ref_dir/../../../../lab2.srcs/sources_1/bd/design_1/ipshared/8c62/hdl"incdir="../../../../lab2.srcs/sources_1/bd/design_1/ipshared/ec67/hdl"incdir="../../../../lab2.srcs/sources_1/bd/design_1/ipshared/8c62/hdl"incdir="../../../../lab2.srcs/sources_1/bd/design_1/ip/design_1_processing_system7_0_0"
xpm_memory.sv,systemverilog,xil_defaultlib,../../../../../../../../../Xilinx/Vivado/2019.1/data/ip/xpm/xpm_memory/hdl/xpm_memory.sv,incdir="$ref_dir/../../../../lab2.srcs/sources_1/bd/design_1/ipshared/ec67/hdl"incdir="$ref_dir/../../../../lab2.srcs/sources_1/bd/design_1/ipshared/8c62/hdl"incdir="../../../../lab2.srcs/sources_1/bd/design_1/ipshared/ec67/hdl"incdir="../../../../lab2.srcs/sources_1/bd/design_1/ipshared/8c62/hdl"incdir="../../../../lab2.srcs/sources_1/bd/design_1/ip/design_1_processing_system7_0_0"
xpm_VCOMP.vhd,vhdl,xpm,../../../../../../../../../Xilinx/Vivado/2019.1/data/ip/xpm/xpm_VCOMP.vhd,incdir="$ref_dir/../../../../lab2.srcs/sources_1/bd/design_1/ipshared/ec67/hdl"incdir="$ref_dir/../../../../lab2.srcs/sources_1/bd/design_1/ipshared/8c62/hdl"incdir="../../../../lab2.srcs/sources_1/bd/design_1/ipshared/ec67/hdl"incdir="../../../../lab2.srcs/sources_1/bd/design_1/ipshared/8c62/hdl"incdir="../../../../lab2.srcs/sources_1/bd/design_1/ip/design_1_processing_system7_0_0"
axi_infrastructure_v1_1_vl_rfs.v,verilog,axi_infrastructure_v1_1_0,../../../../lab2.srcs/sources_1/bd/design_1/ipshared/ec67/hdl/axi_infrastructure_v1_1_vl_rfs.v,incdir="$ref_dir/../../../../lab2.srcs/sources_1/bd/design_1/ipshared/ec67/hdl"incdir="$ref_dir/../../../../lab2.srcs/sources_1/bd/design_1/ipshared/8c62/hdl"incdir="../../../../lab2.srcs/sources_1/bd/design_1/ipshared/ec67/hdl"incdir="../../../../lab2.srcs/sources_1/bd/design_1/ipshared/8c62/hdl"incdir="../../../../lab2.srcs/sources_1/bd/design_1/ip/design_1_processing_system7_0_0"
axi_vip_v1_1_vl_rfs.sv,systemverilog,axi_vip_v1_1_5,../../../../lab2.srcs/sources_1/bd/design_1/ipshared/d4a8/hdl/axi_vip_v1_1_vl_rfs.sv,incdir="$ref_dir/../../../../lab2.srcs/sources_1/bd/design_1/ipshared/ec67/hdl"incdir="$ref_dir/../../../../lab2.srcs/sources_1/bd/design_1/ipshared/8c62/hdl"incdir="../../../../lab2.srcs/sources_1/bd/design_1/ipshared/ec67/hdl"incdir="../../../../lab2.srcs/sources_1/bd/design_1/ipshared/8c62/hdl"incdir="../../../../lab2.srcs/sources_1/bd/design_1/ip/design_1_processing_system7_0_0"
processing_system7_vip_v1_0_vl_rfs.sv,systemverilog,processing_system7_vip_v1_0_7,../../../../lab2.srcs/sources_1/bd/design_1/ipshared/8c62/hdl/processing_system7_vip_v1_0_vl_rfs.sv,incdir="$ref_dir/../../../../lab2.srcs/sources_1/bd/design_1/ipshared/ec67/hdl"incdir="$ref_dir/../../../../lab2.srcs/sources_1/bd/design_1/ipshared/8c62/hdl"incdir="../../../../lab2.srcs/sources_1/bd/design_1/ipshared/ec67/hdl"incdir="../../../../lab2.srcs/sources_1/bd/design_1/ipshared/8c62/hdl"incdir="../../../../lab2.srcs/sources_1/bd/design_1/ip/design_1_processing_system7_0_0"
design_1_processing_system7_0_0.v,verilog,xil_defaultlib,../../../bd/design_1/ip/design_1_processing_system7_0_0/sim/design_1_processing_system7_0_0.v,incdir="$ref_dir/../../../../lab2.srcs/sources_1/bd/design_1/ipshared/ec67/hdl"incdir="$ref_dir/../../../../lab2.srcs/sources_1/bd/design_1/ipshared/8c62/hdl"incdir="../../../../lab2.srcs/sources_1/bd/design_1/ipshared/ec67/hdl"incdir="../../../../lab2.srcs/sources_1/bd/design_1/ipshared/8c62/hdl"incdir="../../../../lab2.srcs/sources_1/bd/design_1/ip/design_1_processing_system7_0_0"
maccLogic.vhd,vhdl,xil_defaultlib,../../../bd/design_1/ipshared/9fd2/src/maccLogic.vhd,incdir="$ref_dir/../../../../lab2.srcs/sources_1/bd/design_1/ipshared/ec67/hdl"incdir="$ref_dir/../../../../lab2.srcs/sources_1/bd/design_1/ipshared/8c62/hdl"incdir="../../../../lab2.srcs/sources_1/bd/design_1/ipshared/ec67/hdl"incdir="../../../../lab2.srcs/sources_1/bd/design_1/ipshared/8c62/hdl"incdir="../../../../lab2.srcs/sources_1/bd/design_1/ip/design_1_processing_system7_0_0"
macc_v1_0_S00_AXI.vhd,vhdl,xil_defaultlib,../../../bd/design_1/ipshared/9fd2/hdl/macc_v1_0_S00_AXI.vhd,incdir="$ref_dir/../../../../lab2.srcs/sources_1/bd/design_1/ipshared/ec67/hdl"incdir="$ref_dir/../../../../lab2.srcs/sources_1/bd/design_1/ipshared/8c62/hdl"incdir="../../../../lab2.srcs/sources_1/bd/design_1/ipshared/ec67/hdl"incdir="../../../../lab2.srcs/sources_1/bd/design_1/ipshared/8c62/hdl"incdir="../../../../lab2.srcs/sources_1/bd/design_1/ip/design_1_processing_system7_0_0"
macc_v1_0.vhd,vhdl,xil_defaultlib,../../../bd/design_1/ipshared/9fd2/hdl/macc_v1_0.vhd,incdir="$ref_dir/../../../../lab2.srcs/sources_1/bd/design_1/ipshared/ec67/hdl"incdir="$ref_dir/../../../../lab2.srcs/sources_1/bd/design_1/ipshared/8c62/hdl"incdir="../../../../lab2.srcs/sources_1/bd/design_1/ipshared/ec67/hdl"incdir="../../../../lab2.srcs/sources_1/bd/design_1/ipshared/8c62/hdl"incdir="../../../../lab2.srcs/sources_1/bd/design_1/ip/design_1_processing_system7_0_0"
design_1_macc_0_0.vhd,vhdl,xil_defaultlib,../../../bd/design_1/ip/design_1_macc_0_0/sim/design_1_macc_0_0.vhd,incdir="$ref_dir/../../../../lab2.srcs/sources_1/bd/design_1/ipshared/ec67/hdl"incdir="$ref_dir/../../../../lab2.srcs/sources_1/bd/design_1/ipshared/8c62/hdl"incdir="../../../../lab2.srcs/sources_1/bd/design_1/ipshared/ec67/hdl"incdir="../../../../lab2.srcs/sources_1/bd/design_1/ipshared/8c62/hdl"incdir="../../../../lab2.srcs/sources_1/bd/design_1/ip/design_1_processing_system7_0_0"
lib_cdc_v1_0_rfs.vhd,vhdl,lib_cdc_v1_0_2,../../../../lab2.srcs/sources_1/bd/design_1/ipshared/ef1e/hdl/lib_cdc_v1_0_rfs.vhd,incdir="$ref_dir/../../../../lab2.srcs/sources_1/bd/design_1/ipshared/ec67/hdl"incdir="$ref_dir/../../../../lab2.srcs/sources_1/bd/design_1/ipshared/8c62/hdl"incdir="../../../../lab2.srcs/sources_1/bd/design_1/ipshared/ec67/hdl"incdir="../../../../lab2.srcs/sources_1/bd/design_1/ipshared/8c62/hdl"incdir="../../../../lab2.srcs/sources_1/bd/design_1/ip/design_1_processing_system7_0_0"
proc_sys_reset_v5_0_vh_rfs.vhd,vhdl,proc_sys_reset_v5_0_13,../../../../lab2.srcs/sources_1/bd/design_1/ipshared/8842/hdl/proc_sys_reset_v5_0_vh_rfs.vhd,incdir="$ref_dir/../../../../lab2.srcs/sources_1/bd/design_1/ipshared/ec67/hdl"incdir="$ref_dir/../../../../lab2.srcs/sources_1/bd/design_1/ipshared/8c62/hdl"incdir="../../../../lab2.srcs/sources_1/bd/design_1/ipshared/ec67/hdl"incdir="../../../../lab2.srcs/sources_1/bd/design_1/ipshared/8c62/hdl"incdir="../../../../lab2.srcs/sources_1/bd/design_1/ip/design_1_processing_system7_0_0"
design_1_rst_ps7_0_100M_0.vhd,vhdl,xil_defaultlib,../../../bd/design_1/ip/design_1_rst_ps7_0_100M_0/sim/design_1_rst_ps7_0_100M_0.vhd,incdir="$ref_dir/../../../../lab2.srcs/sources_1/bd/design_1/ipshared/ec67/hdl"incdir="$ref_dir/../../../../lab2.srcs/sources_1/bd/design_1/ipshared/8c62/hdl"incdir="../../../../lab2.srcs/sources_1/bd/design_1/ipshared/ec67/hdl"incdir="../../../../lab2.srcs/sources_1/bd/design_1/ipshared/8c62/hdl"incdir="../../../../lab2.srcs/sources_1/bd/design_1/ip/design_1_processing_system7_0_0"
design_1.v,verilog,xil_defaultlib,../../../bd/design_1/sim/design_1.v,incdir="$ref_dir/../../../../lab2.srcs/sources_1/bd/design_1/ipshared/ec67/hdl"incdir="$ref_dir/../../../../lab2.srcs/sources_1/bd/design_1/ipshared/8c62/hdl"incdir="../../../../lab2.srcs/sources_1/bd/design_1/ipshared/ec67/hdl"incdir="../../../../lab2.srcs/sources_1/bd/design_1/ipshared/8c62/hdl"incdir="../../../../lab2.srcs/sources_1/bd/design_1/ip/design_1_processing_system7_0_0"
generic_baseblocks_v2_1_vl_rfs.v,verilog,generic_baseblocks_v2_1_0,../../../../lab2.srcs/sources_1/bd/design_1/ipshared/b752/hdl/generic_baseblocks_v2_1_vl_rfs.v,incdir="$ref_dir/../../../../lab2.srcs/sources_1/bd/design_1/ipshared/ec67/hdl"incdir="$ref_dir/../../../../lab2.srcs/sources_1/bd/design_1/ipshared/8c62/hdl"incdir="../../../../lab2.srcs/sources_1/bd/design_1/ipshared/ec67/hdl"incdir="../../../../lab2.srcs/sources_1/bd/design_1/ipshared/8c62/hdl"incdir="../../../../lab2.srcs/sources_1/bd/design_1/ip/design_1_processing_system7_0_0"
fifo_generator_vlog_beh.v,verilog,fifo_generator_v13_2_4,../../../../lab2.srcs/sources_1/bd/design_1/ipshared/1f5a/simulation/fifo_generator_vlog_beh.v,incdir="$ref_dir/../../../../lab2.srcs/sources_1/bd/design_1/ipshared/ec67/hdl"incdir="$ref_dir/../../../../lab2.srcs/sources_1/bd/design_1/ipshared/8c62/hdl"incdir="../../../../lab2.srcs/sources_1/bd/design_1/ipshared/ec67/hdl"incdir="../../../../lab2.srcs/sources_1/bd/design_1/ipshared/8c62/hdl"incdir="../../../../lab2.srcs/sources_1/bd/design_1/ip/design_1_processing_system7_0_0"
fifo_generator_v13_2_rfs.vhd,vhdl,fifo_generator_v13_2_4,../../../../lab2.srcs/sources_1/bd/design_1/ipshared/1f5a/hdl/fifo_generator_v13_2_rfs.vhd,incdir="$ref_dir/../../../../lab2.srcs/sources_1/bd/design_1/ipshared/ec67/hdl"incdir="$ref_dir/../../../../lab2.srcs/sources_1/bd/design_1/ipshared/8c62/hdl"incdir="../../../../lab2.srcs/sources_1/bd/design_1/ipshared/ec67/hdl"incdir="../../../../lab2.srcs/sources_1/bd/design_1/ipshared/8c62/hdl"incdir="../../../../lab2.srcs/sources_1/bd/design_1/ip/design_1_processing_system7_0_0"
fifo_generator_v13_2_rfs.v,verilog,fifo_generator_v13_2_4,../../../../lab2.srcs/sources_1/bd/design_1/ipshared/1f5a/hdl/fifo_generator_v13_2_rfs.v,incdir="$ref_dir/../../../../lab2.srcs/sources_1/bd/design_1/ipshared/ec67/hdl"incdir="$ref_dir/../../../../lab2.srcs/sources_1/bd/design_1/ipshared/8c62/hdl"incdir="../../../../lab2.srcs/sources_1/bd/design_1/ipshared/ec67/hdl"incdir="../../../../lab2.srcs/sources_1/bd/design_1/ipshared/8c62/hdl"incdir="../../../../lab2.srcs/sources_1/bd/design_1/ip/design_1_processing_system7_0_0"
axi_data_fifo_v2_1_vl_rfs.v,verilog,axi_data_fifo_v2_1_18,../../../../lab2.srcs/sources_1/bd/design_1/ipshared/5b9c/hdl/axi_data_fifo_v2_1_vl_rfs.v,incdir="$ref_dir/../../../../lab2.srcs/sources_1/bd/design_1/ipshared/ec67/hdl"incdir="$ref_dir/../../../../lab2.srcs/sources_1/bd/design_1/ipshared/8c62/hdl"incdir="../../../../lab2.srcs/sources_1/bd/design_1/ipshared/ec67/hdl"incdir="../../../../lab2.srcs/sources_1/bd/design_1/ipshared/8c62/hdl"incdir="../../../../lab2.srcs/sources_1/bd/design_1/ip/design_1_processing_system7_0_0"
axi_register_slice_v2_1_vl_rfs.v,verilog,axi_register_slice_v2_1_19,../../../../lab2.srcs/sources_1/bd/design_1/ipshared/4d88/hdl/axi_register_slice_v2_1_vl_rfs.v,incdir="$ref_dir/../../../../lab2.srcs/sources_1/bd/design_1/ipshared/ec67/hdl"incdir="$ref_dir/../../../../lab2.srcs/sources_1/bd/design_1/ipshared/8c62/hdl"incdir="../../../../lab2.srcs/sources_1/bd/design_1/ipshared/ec67/hdl"incdir="../../../../lab2.srcs/sources_1/bd/design_1/ipshared/8c62/hdl"incdir="../../../../lab2.srcs/sources_1/bd/design_1/ip/design_1_processing_system7_0_0"
axi_protocol_converter_v2_1_vl_rfs.v,verilog,axi_protocol_converter_v2_1_19,../../../../lab2.srcs/sources_1/bd/design_1/ipshared/c83a/hdl/axi_protocol_converter_v2_1_vl_rfs.v,incdir="$ref_dir/../../../../lab2.srcs/sources_1/bd/design_1/ipshared/ec67/hdl"incdir="$ref_dir/../../../../lab2.srcs/sources_1/bd/design_1/ipshared/8c62/hdl"incdir="../../../../lab2.srcs/sources_1/bd/design_1/ipshared/ec67/hdl"incdir="../../../../lab2.srcs/sources_1/bd/design_1/ipshared/8c62/hdl"incdir="../../../../lab2.srcs/sources_1/bd/design_1/ip/design_1_processing_system7_0_0"
design_1_auto_pc_0.v,verilog,xil_defaultlib,../../../bd/design_1/ip/design_1_auto_pc_0/sim/design_1_auto_pc_0.v,incdir="$ref_dir/../../../../lab2.srcs/sources_1/bd/design_1/ipshared/ec67/hdl"incdir="$ref_dir/../../../../lab2.srcs/sources_1/bd/design_1/ipshared/8c62/hdl"incdir="../../../../lab2.srcs/sources_1/bd/design_1/ipshared/ec67/hdl"incdir="../../../../lab2.srcs/sources_1/bd/design_1/ipshared/8c62/hdl"incdir="../../../../lab2.srcs/sources_1/bd/design_1/ip/design_1_processing_system7_0_0"
glbl.v,Verilog,xil_defaultlib,glbl.v
