

================================================================
== Vivado HLS Report for 'matrixmul'
================================================================
* Date:           Tue May  5 21:44:16 2020

* Version:        2019.1 (Build 2552052 on Fri May 24 15:28:33 MDT 2019)
* Project:        lab8_2
* Solution:       solution1
* Product family: zynq
* Target device:  xc7z010-clg400-1


================================================================
== Performance Estimates
================================================================
+ Timing (ns): 
    * Summary: 
    +--------+-------+----------+------------+
    |  Clock | Target| Estimated| Uncertainty|
    +--------+-------+----------+------------+
    |ap_clk  |  30.00|    18.288|        3.75|
    +--------+-------+----------+------------+

+ Latency (clock cycles): 
    * Summary: 
    +-----+-----+-----+-----+---------------------------------------------+
    |  Latency  |  Interval |                   Pipeline                  |
    | min | max | min | max |                     Type                    |
    +-----+-----+-----+-----+---------------------------------------------+
    |    9|   10|    9|    9| loop rewind(delay=0 initiation interval(s)) |
    +-----+-----+-----+-----+---------------------------------------------+

    + Detail: 
        * Instance: 
        N/A

        * Loop: 
        +-----------+-----+-----+----------+-----------+-----------+------+----------+
        |           |  Latency  | Iteration|  Initiation Interval  | Trip |          |
        | Loop Name | min | max |  Latency |  achieved |   target  | Count| Pipelined|
        +-----------+-----+-----+----------+-----------+-----------+------+----------+
        |- Row_Col  |    9|    9|         2|          1|          1|     9|    yes   |
        +-----------+-----+-----+----------+-----------+-----------+------+----------+

============================================================
+ Verbose Summary: Synthesis Manager
============================================================
InlineROM: 1
ExposeGlobal: 0
============================================================
+ Verbose Summary: CDFG Model
============================================================
IsTopModel: 1
ResetActiveHigh: 1
IsCombinational: 0
IsDatapathOnly: 0
HasWiredReturn: 1
HasMFsm: 0
HasVarLatency: 1
IsPipeline: 0
IsRtlPipelined: 0
IsInstanceOverlapped: 0
IsDontTouch: 0
HasImplIP: 0
IsGatedGlobalClock: 0

+ Individual pipeline summary: 
  * Pipeline-0: initiation interval (II) = 1, depth = 2


============================================================
+ Verbose Summary: Schedule
============================================================
* Number of FSM states : 3
* Pipeline : 1
  Pipeline-0 : II = 1, D = 2, States = { 2 3 }
* Dataflow Pipeline: 0

* FSM state transitions: 
1 --> 2 
2 --> 3 
3 --> 2 

* FSM state operations: 

State 1 <SV = 0> <Delay = 1.76>
ST_1 : Operation 4 [1/1] (0.00ns)   --->   "%b_copy_2_2_1 = alloca i32"   --->   Operation 4 'alloca' 'b_copy_2_2_1' <Predicate = true> <Delay = 0.00>
ST_1 : Operation 5 [1/1] (0.00ns)   --->   "%b_copy_2_2_2 = alloca i32"   --->   Operation 5 'alloca' 'b_copy_2_2_2' <Predicate = true> <Delay = 0.00>
ST_1 : Operation 6 [1/1] (0.00ns)   --->   "%b_copy_2_2_3 = alloca i32"   --->   Operation 6 'alloca' 'b_copy_2_2_3' <Predicate = true> <Delay = 0.00>
ST_1 : Operation 7 [1/1] (0.00ns)   --->   "%b_copy_1_2_1 = alloca i32"   --->   Operation 7 'alloca' 'b_copy_1_2_1' <Predicate = true> <Delay = 0.00>
ST_1 : Operation 8 [1/1] (0.00ns)   --->   "%b_copy_1_2_2 = alloca i32"   --->   Operation 8 'alloca' 'b_copy_1_2_2' <Predicate = true> <Delay = 0.00>
ST_1 : Operation 9 [1/1] (0.00ns)   --->   "%b_copy_1_2_3 = alloca i32"   --->   Operation 9 'alloca' 'b_copy_1_2_3' <Predicate = true> <Delay = 0.00>
ST_1 : Operation 10 [1/1] (0.00ns)   --->   "%b_copy_0_2_1 = alloca i32"   --->   Operation 10 'alloca' 'b_copy_0_2_1' <Predicate = true> <Delay = 0.00>
ST_1 : Operation 11 [1/1] (0.00ns)   --->   "%b_copy_0_2_2 = alloca i32"   --->   Operation 11 'alloca' 'b_copy_0_2_2' <Predicate = true> <Delay = 0.00>
ST_1 : Operation 12 [1/1] (0.00ns)   --->   "%b_copy_0_2_3 = alloca i32"   --->   Operation 12 'alloca' 'b_copy_0_2_3' <Predicate = true> <Delay = 0.00>
ST_1 : Operation 13 [1/1] (0.00ns)   --->   "%a_row_2_1 = alloca i32"   --->   Operation 13 'alloca' 'a_row_2_1' <Predicate = true> <Delay = 0.00>
ST_1 : Operation 14 [1/1] (0.00ns)   --->   "%a_row_1_1 = alloca i32"   --->   Operation 14 'alloca' 'a_row_1_1' <Predicate = true> <Delay = 0.00>
ST_1 : Operation 15 [1/1] (0.00ns)   --->   "%a_row_0 = alloca i32"   --->   Operation 15 'alloca' 'a_row_0' <Predicate = true> <Delay = 0.00>
ST_1 : Operation 16 [1/1] (0.00ns)   --->   "call void (...)* @_ssdm_op_SpecInterface(i96* %a, [8 x i8]* @p_str3, i32 0, i32 0, [1 x i8]* @p_str1, i32 0, i32 0, [1 x i8]* @p_str1, [1 x i8]* @p_str1, [1 x i8]* @p_str1, i32 0, i32 0, i32 0, i32 0, [1 x i8]* @p_str1, [1 x i8]* @p_str1)"   --->   Operation 16 'specinterface' <Predicate = true> <Delay = 0.00>
ST_1 : Operation 17 [1/1] (0.00ns)   --->   "call void (...)* @_ssdm_op_SpecInterface(i96* %b, [8 x i8]* @p_str3, i32 0, i32 0, [1 x i8]* @p_str1, i32 0, i32 0, [1 x i8]* @p_str1, [1 x i8]* @p_str1, [1 x i8]* @p_str1, i32 0, i32 0, i32 0, i32 0, [1 x i8]* @p_str1, [1 x i8]* @p_str1)"   --->   Operation 17 'specinterface' <Predicate = true> <Delay = 0.00>
ST_1 : Operation 18 [1/1] (0.00ns)   --->   "call void (...)* @_ssdm_op_SpecInterface(i32* %res, [8 x i8]* @p_str3, i32 0, i32 0, [1 x i8]* @p_str1, i32 0, i32 0, [1 x i8]* @p_str1, [1 x i8]* @p_str1, [1 x i8]* @p_str1, i32 0, i32 0, i32 0, i32 0, [1 x i8]* @p_str1, [1 x i8]* @p_str1)" [../LABS/Lab8/lab2/matrixmul.cpp:59]   --->   Operation 18 'specinterface' <Predicate = true> <Delay = 0.00>
ST_1 : Operation 19 [1/1] (1.76ns)   --->   "br label %rewind_header"   --->   Operation 19 'br' <Predicate = true> <Delay = 1.76>

State 2 <SV = 1> <Delay = 4.33>
ST_2 : Operation 20 [1/1] (0.00ns)   --->   "%do_init = phi i1 [ true, %0 ], [ false, %Col_end ], [ true, %1 ]"   --->   Operation 20 'phi' 'do_init' <Predicate = true> <Delay = 0.00>
ST_2 : Operation 21 [1/1] (0.00ns)   --->   "%i18 = phi i2 [ 1, %0 ], [ %i, %Col_end ], [ 1, %1 ]"   --->   Operation 21 'phi' 'i18' <Predicate = true> <Delay = 0.00>
ST_2 : Operation 22 [1/1] (0.00ns)   --->   "%icmp_ln6717 = phi i1 [ false, %0 ], [ %icmp_ln67, %Col_end ], [ false, %1 ]" [../LABS/Lab8/lab2/matrixmul.cpp:67]   --->   Operation 22 'phi' 'icmp_ln6717' <Predicate = true> <Delay = 0.00>
ST_2 : Operation 23 [1/1] (0.00ns)   --->   "%j_016 = phi i2 [ 0, %0 ], [ %j, %Col_end ], [ 0, %1 ]"   --->   Operation 23 'phi' 'j_016' <Predicate = true> <Delay = 0.00>
ST_2 : Operation 24 [1/1] (0.00ns)   --->   "%i_03 = phi i2 [ 0, %0 ], [ %select_ln65, %Col_end ], [ 0, %1 ]" [../LABS/Lab8/lab2/matrixmul.cpp:65]   --->   Operation 24 'phi' 'i_03' <Predicate = true> <Delay = 0.00>
ST_2 : Operation 25 [1/1] (0.00ns)   --->   "%indvar_flatten2 = phi i4 [ 0, %0 ], [ %add_ln65, %Col_end ], [ 0, %1 ]" [../LABS/Lab8/lab2/matrixmul.cpp:65]   --->   Operation 25 'phi' 'indvar_flatten2' <Predicate = true> <Delay = 0.00>
ST_2 : Operation 26 [1/1] (0.00ns)   --->   "br i1 %do_init, label %rewind_init, label %Col_begin"   --->   Operation 26 'br' <Predicate = true> <Delay = 0.00>
ST_2 : Operation 27 [1/1] (0.99ns)   --->   "%select_ln67 = select i1 %icmp_ln6717, i2 0, i2 %j_016" [../LABS/Lab8/lab2/matrixmul.cpp:67]   --->   Operation 27 'select' 'select_ln67' <Predicate = true> <Delay = 0.99> <Core = "Sel">   --->   Core 26 'Sel' <Latency = 0> <II = 1> <Delay = 0.69> <FuncUnit> <Opcode : 'select'> <InPorts = 3> <OutPorts = 1>
ST_2 : Operation 28 [1/1] (0.99ns)   --->   "%select_ln65 = select i1 %icmp_ln6717, i2 %i18, i2 %i_03" [../LABS/Lab8/lab2/matrixmul.cpp:65]   --->   Operation 28 'select' 'select_ln65' <Predicate = true> <Delay = 0.99> <Core = "Sel">   --->   Core 26 'Sel' <Latency = 0> <II = 1> <Delay = 0.69> <FuncUnit> <Opcode : 'select'> <InPorts = 3> <OutPorts = 1>
ST_2 : Operation 29 [1/1] (0.95ns)   --->   "%icmp_ln72 = icmp eq i2 %select_ln67, 0" [../LABS/Lab8/lab2/matrixmul.cpp:72]   --->   Operation 29 'icmp' 'icmp_ln72' <Predicate = true> <Delay = 0.95> <Core = "Cmp">   --->   Core 25 'Cmp' <Latency = 0> <II = 1> <Delay = 1.30> <FuncUnit> <Opcode : 'icmp'> <InPorts = 2> <OutPorts = 1>
ST_2 : Operation 30 [1/1] (1.73ns)   --->   "%add_ln65 = add i4 %indvar_flatten2, 1" [../LABS/Lab8/lab2/matrixmul.cpp:65]   --->   Operation 30 'add' 'add_ln65' <Predicate = true> <Delay = 1.73> <Core = "AddSub">   --->   Core 14 'AddSub' <Latency = 0> <II = 1> <Delay = 1.56> <FuncUnit> <Opcode : 'add' 'sub'> <InPorts = 2> <OutPorts = 1>
ST_2 : Operation 31 [1/1] (0.00ns)   --->   "br i1 %icmp_ln72, label %.preheader1.preheader, label %.loopexit2" [../LABS/Lab8/lab2/matrixmul.cpp:72]   --->   Operation 31 'br' <Predicate = true> <Delay = 0.00>
ST_2 : Operation 32 [1/1] (3.63ns)   --->   "%a_read = call i96 @_ssdm_op_Read.ap_fifo.volatile.i96P(i96* %a)" [../LABS/Lab8/lab2/matrixmul.cpp:74]   --->   Operation 32 'read' 'a_read' <Predicate = (icmp_ln72)> <Delay = 3.63> <Core = "FIFO">   --->   Core 32 'FIFO' <Latency = 0> <II = 1> <Delay = 3.63> <Storage> <Opcode : 'read' 'write' 'nbread' 'nbwrite'> <Ports = 0> <Width = 32> <Depth = 0> <FIFO>
ST_2 : Operation 33 [1/1] (0.00ns)   --->   "%a_row_0_1 = trunc i96 %a_read to i32" [../LABS/Lab8/lab2/matrixmul.cpp:74]   --->   Operation 33 'trunc' 'a_row_0_1' <Predicate = (icmp_ln72)> <Delay = 0.00>
ST_2 : Operation 34 [1/1] (0.00ns)   --->   "%a_row_1 = call i32 @_ssdm_op_PartSelect.i32.i96.i32.i32(i96 %a_read, i32 32, i32 63)" [../LABS/Lab8/lab2/matrixmul.cpp:74]   --->   Operation 34 'partselect' 'a_row_1' <Predicate = (icmp_ln72)> <Delay = 0.00>
ST_2 : Operation 35 [1/1] (0.00ns)   --->   "%a_row_2 = call i32 @_ssdm_op_PartSelect.i32.i96.i32.i32(i96 %a_read, i32 64, i32 95)" [../LABS/Lab8/lab2/matrixmul.cpp:74]   --->   Operation 35 'partselect' 'a_row_2' <Predicate = (icmp_ln72)> <Delay = 0.00>
ST_2 : Operation 36 [1/1] (0.00ns)   --->   "store i32 %a_row_0_1, i32* %a_row_0" [../LABS/Lab8/lab2/matrixmul.cpp:74]   --->   Operation 36 'store' <Predicate = (icmp_ln72)> <Delay = 0.00>
ST_2 : Operation 37 [1/1] (0.00ns)   --->   "store i32 %a_row_1, i32* %a_row_1_1" [../LABS/Lab8/lab2/matrixmul.cpp:74]   --->   Operation 37 'store' <Predicate = (icmp_ln72)> <Delay = 0.00>
ST_2 : Operation 38 [1/1] (0.00ns)   --->   "store i32 %a_row_2, i32* %a_row_2_1" [../LABS/Lab8/lab2/matrixmul.cpp:74]   --->   Operation 38 'store' <Predicate = (icmp_ln72)> <Delay = 0.00>
ST_2 : Operation 39 [1/1] (0.00ns)   --->   "br label %.loopexit2"   --->   Operation 39 'br' <Predicate = (icmp_ln72)> <Delay = 0.00>
ST_2 : Operation 40 [1/1] (0.95ns)   --->   "%icmp_ln77 = icmp eq i2 %select_ln65, 0" [../LABS/Lab8/lab2/matrixmul.cpp:77]   --->   Operation 40 'icmp' 'icmp_ln77' <Predicate = true> <Delay = 0.95> <Core = "Cmp">   --->   Core 25 'Cmp' <Latency = 0> <II = 1> <Delay = 1.30> <FuncUnit> <Opcode : 'icmp'> <InPorts = 2> <OutPorts = 1>
ST_2 : Operation 41 [1/1] (0.00ns)   --->   "br i1 %icmp_ln77, label %.preheader.preheader_ifconv, label %Col_end" [../LABS/Lab8/lab2/matrixmul.cpp:77]   --->   Operation 41 'br' <Predicate = true> <Delay = 0.00>
ST_2 : Operation 42 [1/1] (0.00ns)   --->   "%b_copy_2_2_1_load = load i32* %b_copy_2_2_1" [../LABS/Lab8/lab2/matrixmul.cpp:79]   --->   Operation 42 'load' 'b_copy_2_2_1_load' <Predicate = (icmp_ln77)> <Delay = 0.00>
ST_2 : Operation 43 [1/1] (0.00ns)   --->   "%b_copy_2_2_2_load = load i32* %b_copy_2_2_2" [../LABS/Lab8/lab2/matrixmul.cpp:79]   --->   Operation 43 'load' 'b_copy_2_2_2_load' <Predicate = (icmp_ln77)> <Delay = 0.00>
ST_2 : Operation 44 [1/1] (0.00ns)   --->   "%b_copy_2_2_3_load = load i32* %b_copy_2_2_3" [../LABS/Lab8/lab2/matrixmul.cpp:79]   --->   Operation 44 'load' 'b_copy_2_2_3_load' <Predicate = (icmp_ln77)> <Delay = 0.00>
ST_2 : Operation 45 [1/1] (0.00ns)   --->   "%b_copy_1_2_1_load = load i32* %b_copy_1_2_1" [../LABS/Lab8/lab2/matrixmul.cpp:79]   --->   Operation 45 'load' 'b_copy_1_2_1_load' <Predicate = (icmp_ln77)> <Delay = 0.00>
ST_2 : Operation 46 [1/1] (0.00ns)   --->   "%b_copy_1_2_2_load = load i32* %b_copy_1_2_2" [../LABS/Lab8/lab2/matrixmul.cpp:79]   --->   Operation 46 'load' 'b_copy_1_2_2_load' <Predicate = (icmp_ln77)> <Delay = 0.00>
ST_2 : Operation 47 [1/1] (0.00ns)   --->   "%b_copy_1_2_3_load = load i32* %b_copy_1_2_3" [../LABS/Lab8/lab2/matrixmul.cpp:79]   --->   Operation 47 'load' 'b_copy_1_2_3_load' <Predicate = (icmp_ln77)> <Delay = 0.00>
ST_2 : Operation 48 [1/1] (0.00ns)   --->   "%b_copy_0_2_1_load = load i32* %b_copy_0_2_1" [../LABS/Lab8/lab2/matrixmul.cpp:79]   --->   Operation 48 'load' 'b_copy_0_2_1_load' <Predicate = (icmp_ln77)> <Delay = 0.00>
ST_2 : Operation 49 [1/1] (0.00ns)   --->   "%b_copy_0_2_2_load = load i32* %b_copy_0_2_2" [../LABS/Lab8/lab2/matrixmul.cpp:79]   --->   Operation 49 'load' 'b_copy_0_2_2_load' <Predicate = (icmp_ln77)> <Delay = 0.00>
ST_2 : Operation 50 [1/1] (0.00ns)   --->   "%b_copy_0_2_3_load = load i32* %b_copy_0_2_3" [../LABS/Lab8/lab2/matrixmul.cpp:79]   --->   Operation 50 'load' 'b_copy_0_2_3_load' <Predicate = (icmp_ln77)> <Delay = 0.00>
ST_2 : Operation 51 [1/1] (3.63ns)   --->   "%b_read = call i96 @_ssdm_op_Read.ap_fifo.volatile.i96P(i96* %b)" [../LABS/Lab8/lab2/matrixmul.cpp:79]   --->   Operation 51 'read' 'b_read' <Predicate = (icmp_ln77)> <Delay = 3.63> <Core = "FIFO">   --->   Core 32 'FIFO' <Latency = 0> <II = 1> <Delay = 3.63> <Storage> <Opcode : 'read' 'write' 'nbread' 'nbwrite'> <Ports = 0> <Width = 32> <Depth = 0> <FIFO>
ST_2 : Operation 52 [1/1] (0.00ns)   --->   "%b_copy_0_2_10 = trunc i96 %b_read to i32" [../LABS/Lab8/lab2/matrixmul.cpp:79]   --->   Operation 52 'trunc' 'b_copy_0_2_10' <Predicate = (icmp_ln77)> <Delay = 0.00>
ST_2 : Operation 53 [1/1] (0.00ns)   --->   "%b_copy_1_2_10 = call i32 @_ssdm_op_PartSelect.i32.i96.i32.i32(i96 %b_read, i32 32, i32 63)" [../LABS/Lab8/lab2/matrixmul.cpp:79]   --->   Operation 53 'partselect' 'b_copy_1_2_10' <Predicate = (icmp_ln77)> <Delay = 0.00>
ST_2 : Operation 54 [1/1] (0.00ns)   --->   "%b_copy_2_2_10 = call i32 @_ssdm_op_PartSelect.i32.i96.i32.i32(i96 %b_read, i32 64, i32 95)" [../LABS/Lab8/lab2/matrixmul.cpp:79]   --->   Operation 54 'partselect' 'b_copy_2_2_10' <Predicate = (icmp_ln77)> <Delay = 0.00>
ST_2 : Operation 55 [1/1] (0.95ns)   --->   "%icmp_ln79 = icmp eq i2 %select_ln67, 1" [../LABS/Lab8/lab2/matrixmul.cpp:79]   --->   Operation 55 'icmp' 'icmp_ln79' <Predicate = (icmp_ln77)> <Delay = 0.95> <Core = "Cmp">   --->   Core 25 'Cmp' <Latency = 0> <II = 1> <Delay = 1.30> <FuncUnit> <Opcode : 'icmp'> <InPorts = 2> <OutPorts = 1>
ST_2 : Operation 56 [1/1] (0.00ns) (grouped into LUT with out node b_copy_2_2_5)   --->   "%b_copy_2_2 = select i1 %icmp_ln79, i32 %b_copy_2_2_1_load, i32 %b_copy_2_2_10" [../LABS/Lab8/lab2/matrixmul.cpp:79]   --->   Operation 56 'select' 'b_copy_2_2' <Predicate = (icmp_ln77)> <Delay = 0.00> <Core = "Sel">   --->   Core 26 'Sel' <Latency = 0> <II = 1> <Delay = 0.69> <FuncUnit> <Opcode : 'select'> <InPorts = 3> <OutPorts = 1>
ST_2 : Operation 57 [1/1] (0.69ns) (out node of the LUT)   --->   "%b_copy_2_2_5 = select i1 %icmp_ln72, i32 %b_copy_2_2_1_load, i32 %b_copy_2_2" [../LABS/Lab8/lab2/matrixmul.cpp:79]   --->   Operation 57 'select' 'b_copy_2_2_5' <Predicate = (icmp_ln77)> <Delay = 0.69> <Core = "Sel">   --->   Core 26 'Sel' <Latency = 0> <II = 1> <Delay = 0.69> <FuncUnit> <Opcode : 'select'> <InPorts = 3> <OutPorts = 1>
ST_2 : Operation 58 [1/1] (0.00ns) (grouped into LUT with out node b_copy_2_2_7)   --->   "%b_copy_2_2_6 = select i1 %icmp_ln79, i32 %b_copy_2_2_10, i32 %b_copy_2_2_2_load" [../LABS/Lab8/lab2/matrixmul.cpp:79]   --->   Operation 58 'select' 'b_copy_2_2_6' <Predicate = (icmp_ln77)> <Delay = 0.00> <Core = "Sel">   --->   Core 26 'Sel' <Latency = 0> <II = 1> <Delay = 0.69> <FuncUnit> <Opcode : 'select'> <InPorts = 3> <OutPorts = 1>
ST_2 : Operation 59 [1/1] (0.69ns) (out node of the LUT)   --->   "%b_copy_2_2_7 = select i1 %icmp_ln72, i32 %b_copy_2_2_2_load, i32 %b_copy_2_2_6" [../LABS/Lab8/lab2/matrixmul.cpp:79]   --->   Operation 59 'select' 'b_copy_2_2_7' <Predicate = (icmp_ln77)> <Delay = 0.69> <Core = "Sel">   --->   Core 26 'Sel' <Latency = 0> <II = 1> <Delay = 0.69> <FuncUnit> <Opcode : 'select'> <InPorts = 3> <OutPorts = 1>
ST_2 : Operation 60 [1/1] (0.69ns)   --->   "%b_copy_2_2_9 = select i1 %icmp_ln72, i32 %b_copy_2_2_10, i32 %b_copy_2_2_3_load" [../LABS/Lab8/lab2/matrixmul.cpp:79]   --->   Operation 60 'select' 'b_copy_2_2_9' <Predicate = (icmp_ln77)> <Delay = 0.69> <Core = "Sel">   --->   Core 26 'Sel' <Latency = 0> <II = 1> <Delay = 0.69> <FuncUnit> <Opcode : 'select'> <InPorts = 3> <OutPorts = 1>
ST_2 : Operation 61 [1/1] (0.00ns) (grouped into LUT with out node b_copy_1_2_5)   --->   "%b_copy_1_2 = select i1 %icmp_ln79, i32 %b_copy_1_2_1_load, i32 %b_copy_1_2_10" [../LABS/Lab8/lab2/matrixmul.cpp:79]   --->   Operation 61 'select' 'b_copy_1_2' <Predicate = (icmp_ln77)> <Delay = 0.00> <Core = "Sel">   --->   Core 26 'Sel' <Latency = 0> <II = 1> <Delay = 0.69> <FuncUnit> <Opcode : 'select'> <InPorts = 3> <OutPorts = 1>
ST_2 : Operation 62 [1/1] (0.69ns) (out node of the LUT)   --->   "%b_copy_1_2_5 = select i1 %icmp_ln72, i32 %b_copy_1_2_1_load, i32 %b_copy_1_2" [../LABS/Lab8/lab2/matrixmul.cpp:79]   --->   Operation 62 'select' 'b_copy_1_2_5' <Predicate = (icmp_ln77)> <Delay = 0.69> <Core = "Sel">   --->   Core 26 'Sel' <Latency = 0> <II = 1> <Delay = 0.69> <FuncUnit> <Opcode : 'select'> <InPorts = 3> <OutPorts = 1>
ST_2 : Operation 63 [1/1] (0.00ns) (grouped into LUT with out node b_copy_1_2_7)   --->   "%b_copy_1_2_6 = select i1 %icmp_ln79, i32 %b_copy_1_2_10, i32 %b_copy_1_2_2_load" [../LABS/Lab8/lab2/matrixmul.cpp:79]   --->   Operation 63 'select' 'b_copy_1_2_6' <Predicate = (icmp_ln77)> <Delay = 0.00> <Core = "Sel">   --->   Core 26 'Sel' <Latency = 0> <II = 1> <Delay = 0.69> <FuncUnit> <Opcode : 'select'> <InPorts = 3> <OutPorts = 1>
ST_2 : Operation 64 [1/1] (0.69ns) (out node of the LUT)   --->   "%b_copy_1_2_7 = select i1 %icmp_ln72, i32 %b_copy_1_2_2_load, i32 %b_copy_1_2_6" [../LABS/Lab8/lab2/matrixmul.cpp:79]   --->   Operation 64 'select' 'b_copy_1_2_7' <Predicate = (icmp_ln77)> <Delay = 0.69> <Core = "Sel">   --->   Core 26 'Sel' <Latency = 0> <II = 1> <Delay = 0.69> <FuncUnit> <Opcode : 'select'> <InPorts = 3> <OutPorts = 1>
ST_2 : Operation 65 [1/1] (0.69ns)   --->   "%b_copy_1_2_9 = select i1 %icmp_ln72, i32 %b_copy_1_2_10, i32 %b_copy_1_2_3_load" [../LABS/Lab8/lab2/matrixmul.cpp:79]   --->   Operation 65 'select' 'b_copy_1_2_9' <Predicate = (icmp_ln77)> <Delay = 0.69> <Core = "Sel">   --->   Core 26 'Sel' <Latency = 0> <II = 1> <Delay = 0.69> <FuncUnit> <Opcode : 'select'> <InPorts = 3> <OutPorts = 1>
ST_2 : Operation 66 [1/1] (0.00ns) (grouped into LUT with out node b_copy_0_2_5)   --->   "%b_copy_0_2 = select i1 %icmp_ln79, i32 %b_copy_0_2_1_load, i32 %b_copy_0_2_10" [../LABS/Lab8/lab2/matrixmul.cpp:79]   --->   Operation 66 'select' 'b_copy_0_2' <Predicate = (icmp_ln77)> <Delay = 0.00> <Core = "Sel">   --->   Core 26 'Sel' <Latency = 0> <II = 1> <Delay = 0.69> <FuncUnit> <Opcode : 'select'> <InPorts = 3> <OutPorts = 1>
ST_2 : Operation 67 [1/1] (0.69ns) (out node of the LUT)   --->   "%b_copy_0_2_5 = select i1 %icmp_ln72, i32 %b_copy_0_2_1_load, i32 %b_copy_0_2" [../LABS/Lab8/lab2/matrixmul.cpp:79]   --->   Operation 67 'select' 'b_copy_0_2_5' <Predicate = (icmp_ln77)> <Delay = 0.69> <Core = "Sel">   --->   Core 26 'Sel' <Latency = 0> <II = 1> <Delay = 0.69> <FuncUnit> <Opcode : 'select'> <InPorts = 3> <OutPorts = 1>
ST_2 : Operation 68 [1/1] (0.00ns) (grouped into LUT with out node b_copy_0_2_7)   --->   "%b_copy_0_2_6 = select i1 %icmp_ln79, i32 %b_copy_0_2_10, i32 %b_copy_0_2_2_load" [../LABS/Lab8/lab2/matrixmul.cpp:79]   --->   Operation 68 'select' 'b_copy_0_2_6' <Predicate = (icmp_ln77)> <Delay = 0.00> <Core = "Sel">   --->   Core 26 'Sel' <Latency = 0> <II = 1> <Delay = 0.69> <FuncUnit> <Opcode : 'select'> <InPorts = 3> <OutPorts = 1>
ST_2 : Operation 69 [1/1] (0.69ns) (out node of the LUT)   --->   "%b_copy_0_2_7 = select i1 %icmp_ln72, i32 %b_copy_0_2_2_load, i32 %b_copy_0_2_6" [../LABS/Lab8/lab2/matrixmul.cpp:79]   --->   Operation 69 'select' 'b_copy_0_2_7' <Predicate = (icmp_ln77)> <Delay = 0.69> <Core = "Sel">   --->   Core 26 'Sel' <Latency = 0> <II = 1> <Delay = 0.69> <FuncUnit> <Opcode : 'select'> <InPorts = 3> <OutPorts = 1>
ST_2 : Operation 70 [1/1] (0.69ns)   --->   "%b_copy_0_2_9 = select i1 %icmp_ln72, i32 %b_copy_0_2_10, i32 %b_copy_0_2_3_load" [../LABS/Lab8/lab2/matrixmul.cpp:79]   --->   Operation 70 'select' 'b_copy_0_2_9' <Predicate = (icmp_ln77)> <Delay = 0.69> <Core = "Sel">   --->   Core 26 'Sel' <Latency = 0> <II = 1> <Delay = 0.69> <FuncUnit> <Opcode : 'select'> <InPorts = 3> <OutPorts = 1>
ST_2 : Operation 71 [1/1] (0.00ns)   --->   "store i32 %b_copy_0_2_9, i32* %b_copy_0_2_3" [../LABS/Lab8/lab2/matrixmul.cpp:79]   --->   Operation 71 'store' <Predicate = (icmp_ln77)> <Delay = 0.00>
ST_2 : Operation 72 [1/1] (0.00ns)   --->   "store i32 %b_copy_0_2_7, i32* %b_copy_0_2_2" [../LABS/Lab8/lab2/matrixmul.cpp:79]   --->   Operation 72 'store' <Predicate = (icmp_ln77)> <Delay = 0.00>
ST_2 : Operation 73 [1/1] (0.00ns)   --->   "store i32 %b_copy_0_2_5, i32* %b_copy_0_2_1" [../LABS/Lab8/lab2/matrixmul.cpp:79]   --->   Operation 73 'store' <Predicate = (icmp_ln77)> <Delay = 0.00>
ST_2 : Operation 74 [1/1] (0.00ns)   --->   "store i32 %b_copy_1_2_9, i32* %b_copy_1_2_3" [../LABS/Lab8/lab2/matrixmul.cpp:79]   --->   Operation 74 'store' <Predicate = (icmp_ln77)> <Delay = 0.00>
ST_2 : Operation 75 [1/1] (0.00ns)   --->   "store i32 %b_copy_1_2_7, i32* %b_copy_1_2_2" [../LABS/Lab8/lab2/matrixmul.cpp:79]   --->   Operation 75 'store' <Predicate = (icmp_ln77)> <Delay = 0.00>
ST_2 : Operation 76 [1/1] (0.00ns)   --->   "store i32 %b_copy_1_2_5, i32* %b_copy_1_2_1" [../LABS/Lab8/lab2/matrixmul.cpp:79]   --->   Operation 76 'store' <Predicate = (icmp_ln77)> <Delay = 0.00>
ST_2 : Operation 77 [1/1] (0.00ns)   --->   "store i32 %b_copy_2_2_9, i32* %b_copy_2_2_3" [../LABS/Lab8/lab2/matrixmul.cpp:79]   --->   Operation 77 'store' <Predicate = (icmp_ln77)> <Delay = 0.00>
ST_2 : Operation 78 [1/1] (0.00ns)   --->   "store i32 %b_copy_2_2_7, i32* %b_copy_2_2_2" [../LABS/Lab8/lab2/matrixmul.cpp:79]   --->   Operation 78 'store' <Predicate = (icmp_ln77)> <Delay = 0.00>
ST_2 : Operation 79 [1/1] (0.00ns)   --->   "store i32 %b_copy_2_2_5, i32* %b_copy_2_2_1" [../LABS/Lab8/lab2/matrixmul.cpp:79]   --->   Operation 79 'store' <Predicate = (icmp_ln77)> <Delay = 0.00>
ST_2 : Operation 80 [1/1] (0.00ns)   --->   "br label %Col_end"   --->   Operation 80 'br' <Predicate = (icmp_ln77)> <Delay = 0.00>
ST_2 : Operation 81 [1/1] (1.56ns)   --->   "%j = add i2 %select_ln67, 1" [../LABS/Lab8/lab2/matrixmul.cpp:67]   --->   Operation 81 'add' 'j' <Predicate = true> <Delay = 1.56> <Core = "AddSub">   --->   Core 14 'AddSub' <Latency = 0> <II = 1> <Delay = 1.56> <FuncUnit> <Opcode : 'add' 'sub'> <InPorts = 2> <OutPorts = 1>
ST_2 : Operation 82 [1/1] (0.95ns)   --->   "%icmp_ln67 = icmp eq i2 %j, -1" [../LABS/Lab8/lab2/matrixmul.cpp:67]   --->   Operation 82 'icmp' 'icmp_ln67' <Predicate = true> <Delay = 0.95> <Core = "Cmp">   --->   Core 25 'Cmp' <Latency = 0> <II = 1> <Delay = 1.30> <FuncUnit> <Opcode : 'icmp'> <InPorts = 2> <OutPorts = 1>
ST_2 : Operation 83 [1/1] (1.56ns)   --->   "%i = add i2 %select_ln65, 1" [../LABS/Lab8/lab2/matrixmul.cpp:65]   --->   Operation 83 'add' 'i' <Predicate = true> <Delay = 1.56> <Core = "AddSub">   --->   Core 14 'AddSub' <Latency = 0> <II = 1> <Delay = 1.56> <FuncUnit> <Opcode : 'add' 'sub'> <InPorts = 2> <OutPorts = 1>
ST_2 : Operation 84 [1/1] (1.30ns)   --->   "%icmp_ln65 = icmp eq i4 %indvar_flatten2, -8" [../LABS/Lab8/lab2/matrixmul.cpp:65]   --->   Operation 84 'icmp' 'icmp_ln65' <Predicate = true> <Delay = 1.30> <Core = "Cmp">   --->   Core 25 'Cmp' <Latency = 0> <II = 1> <Delay = 1.30> <FuncUnit> <Opcode : 'icmp'> <InPorts = 2> <OutPorts = 1>
ST_2 : Operation 85 [1/1] (0.00ns)   --->   "br i1 %icmp_ln65, label %1, label %rewind_header" [../LABS/Lab8/lab2/matrixmul.cpp:65]   --->   Operation 85 'br' <Predicate = true> <Delay = 0.00>
ST_2 : Operation 86 [1/1] (0.00ns)   --->   "br label %rewind_header" [../LABS/Lab8/lab2/matrixmul.cpp:87]   --->   Operation 86 'br' <Predicate = (icmp_ln65)> <Delay = 0.00>

State 3 <SV = 2> <Delay = 18.2>
ST_3 : Operation 87 [1/1] (0.00ns)   --->   "call void (...)* @_ssdm_op_SpecBitsMap(i96* %a), !map !7"   --->   Operation 87 'specbitsmap' <Predicate = (do_init)> <Delay = 0.00>
ST_3 : Operation 88 [1/1] (0.00ns)   --->   "call void (...)* @_ssdm_op_SpecBitsMap(i96* %b), !map !24"   --->   Operation 88 'specbitsmap' <Predicate = (do_init)> <Delay = 0.00>
ST_3 : Operation 89 [1/1] (0.00ns)   --->   "call void (...)* @_ssdm_op_SpecBitsMap(i32* %res), !map !37"   --->   Operation 89 'specbitsmap' <Predicate = (do_init)> <Delay = 0.00>
ST_3 : Operation 90 [1/1] (0.00ns)   --->   "call void (...)* @_ssdm_op_SpecTopModule([10 x i8]* @matrixmul_str) nounwind"   --->   Operation 90 'spectopmodule' <Predicate = (do_init)> <Delay = 0.00>
ST_3 : Operation 91 [1/1] (0.00ns)   --->   "call void (...)* @_ssdm_op_SpecResourceLimit(i32 24, [4 x i8]* @p_str, [1 x i8]* @p_str1, [1 x i8]* @p_str1, [1 x i8]* @p_str1) nounwind" [../LABS/Lab8/lab2/matrixmul.cpp:54]   --->   Operation 91 'specresourcelimit' <Predicate = (do_init)> <Delay = 0.00>
ST_3 : Operation 92 [1/1] (0.00ns)   --->   "br label %Col_begin"   --->   Operation 92 'br' <Predicate = (do_init)> <Delay = 0.00>
ST_3 : Operation 93 [1/1] (0.00ns)   --->   "call void (...)* @_ssdm_op_SpecLoopName([8 x i8]* @Row_Col_str)"   --->   Operation 93 'specloopname' <Predicate = true> <Delay = 0.00>
ST_3 : Operation 94 [1/1] (0.00ns)   --->   "%empty_6 = call i32 (...)* @_ssdm_op_SpecLoopTripCount(i64 9, i64 9, i64 9)"   --->   Operation 94 'speclooptripcount' 'empty_6' <Predicate = true> <Delay = 0.00>
ST_3 : Operation 95 [1/1] (0.00ns)   --->   "call void (...)* @_ssdm_op_SpecLoopName([4 x i8]* @p_str5) nounwind" [../LABS/Lab8/lab2/matrixmul.cpp:67]   --->   Operation 95 'specloopname' <Predicate = true> <Delay = 0.00>
ST_3 : Operation 96 [1/1] (0.00ns)   --->   "%tmp_3 = call i32 (...)* @_ssdm_op_SpecRegionBegin([4 x i8]* @p_str5) nounwind" [../LABS/Lab8/lab2/matrixmul.cpp:67]   --->   Operation 96 'specregionbegin' 'tmp_3' <Predicate = true> <Delay = 0.00>
ST_3 : Operation 97 [1/1] (0.00ns)   --->   "call void (...)* @_ssdm_op_SpecPipeline(i32 -1, i32 1, i32 1, i32 0, [1 x i8]* @p_str1) nounwind" [../LABS/Lab8/lab2/matrixmul.cpp:68]   --->   Operation 97 'specpipeline' <Predicate = true> <Delay = 0.00>
ST_3 : Operation 98 [1/1] (0.00ns)   --->   "%b_copy_2_2_1_load_1 = load i32* %b_copy_2_2_1"   --->   Operation 98 'load' 'b_copy_2_2_1_load_1' <Predicate = true> <Delay = 0.00>
ST_3 : Operation 99 [1/1] (0.00ns)   --->   "%b_copy_2_2_2_load_1 = load i32* %b_copy_2_2_2"   --->   Operation 99 'load' 'b_copy_2_2_2_load_1' <Predicate = true> <Delay = 0.00>
ST_3 : Operation 100 [1/1] (0.00ns)   --->   "%b_copy_2_2_11 = load i32* %b_copy_2_2_3"   --->   Operation 100 'load' 'b_copy_2_2_11' <Predicate = true> <Delay = 0.00>
ST_3 : Operation 101 [1/1] (0.00ns)   --->   "%b_copy_1_2_1_load_1 = load i32* %b_copy_1_2_1"   --->   Operation 101 'load' 'b_copy_1_2_1_load_1' <Predicate = true> <Delay = 0.00>
ST_3 : Operation 102 [1/1] (0.00ns)   --->   "%b_copy_1_2_2_load_1 = load i32* %b_copy_1_2_2"   --->   Operation 102 'load' 'b_copy_1_2_2_load_1' <Predicate = true> <Delay = 0.00>
ST_3 : Operation 103 [1/1] (0.00ns)   --->   "%b_copy_1_2_11 = load i32* %b_copy_1_2_3"   --->   Operation 103 'load' 'b_copy_1_2_11' <Predicate = true> <Delay = 0.00>
ST_3 : Operation 104 [1/1] (0.00ns)   --->   "%b_copy_0_2_1_load_1 = load i32* %b_copy_0_2_1"   --->   Operation 104 'load' 'b_copy_0_2_1_load_1' <Predicate = true> <Delay = 0.00>
ST_3 : Operation 105 [1/1] (0.00ns)   --->   "%b_copy_0_2_2_load_1 = load i32* %b_copy_0_2_2"   --->   Operation 105 'load' 'b_copy_0_2_2_load_1' <Predicate = true> <Delay = 0.00>
ST_3 : Operation 106 [1/1] (0.00ns)   --->   "%b_copy_0_2_11 = load i32* %b_copy_0_2_3"   --->   Operation 106 'load' 'b_copy_0_2_11' <Predicate = true> <Delay = 0.00>
ST_3 : Operation 107 [1/1] (0.00ns)   --->   "%a_row_2_1_load = load i32* %a_row_2_1" [../LABS/Lab8/lab2/matrixmul.cpp:82]   --->   Operation 107 'load' 'a_row_2_1_load' <Predicate = true> <Delay = 0.00>
ST_3 : Operation 108 [1/1] (0.00ns)   --->   "%a_row_1_1_load = load i32* %a_row_1_1" [../LABS/Lab8/lab2/matrixmul.cpp:82]   --->   Operation 108 'load' 'a_row_1_1_load' <Predicate = true> <Delay = 0.00>
ST_3 : Operation 109 [1/1] (0.00ns)   --->   "%a_row_0_load = load i32* %a_row_0" [../LABS/Lab8/lab2/matrixmul.cpp:82]   --->   Operation 109 'load' 'a_row_0_load' <Predicate = true> <Delay = 0.00>
ST_3 : Operation 110 [1/1] (1.77ns)   --->   "%tmp_1 = call i32 @_ssdm_op_Mux.ap_auto.3i32.i2(i32 %b_copy_0_2_11, i32 %b_copy_0_2_2_load_1, i32 %b_copy_0_2_1_load_1, i2 %select_ln67)" [../LABS/Lab8/lab2/matrixmul.cpp:82]   --->   Operation 110 'mux' 'tmp_1' <Predicate = true> <Delay = 1.77> <Core = "MuxnS">   --->   Core 31 'MuxnS' <Latency = 0> <II = 1> <Delay = 1.77> <FuncUnit> <Opcode : 'mux'> <InPorts = 2> <OutPorts = 1>
ST_3 : Operation 111 [1/1] (8.51ns)   --->   "%mul_ln82 = mul nsw i32 %a_row_0_load, %tmp_1" [../LABS/Lab8/lab2/matrixmul.cpp:82]   --->   Operation 111 'mul' 'mul_ln82' <Predicate = true> <Delay = 8.51> <Core = "Mul">   --->   Core 16 'Mul' <Latency = 0> <II = 1> <Delay = 8.51> <FuncUnit> <Opcode : 'mul'> <InPorts = 2> <OutPorts = 1>
ST_3 : Operation 112 [1/1] (1.77ns)   --->   "%tmp_2 = call i32 @_ssdm_op_Mux.ap_auto.3i32.i2(i32 %b_copy_1_2_11, i32 %b_copy_1_2_2_load_1, i32 %b_copy_1_2_1_load_1, i2 %select_ln67)" [../LABS/Lab8/lab2/matrixmul.cpp:82]   --->   Operation 112 'mux' 'tmp_2' <Predicate = true> <Delay = 1.77> <Core = "MuxnS">   --->   Core 31 'MuxnS' <Latency = 0> <II = 1> <Delay = 1.77> <FuncUnit> <Opcode : 'mux'> <InPorts = 2> <OutPorts = 1>
ST_3 : Operation 113 [1/1] (8.51ns)   --->   "%mul_ln82_1 = mul nsw i32 %a_row_1_1_load, %tmp_2" [../LABS/Lab8/lab2/matrixmul.cpp:82]   --->   Operation 113 'mul' 'mul_ln82_1' <Predicate = true> <Delay = 8.51> <Core = "Mul">   --->   Core 16 'Mul' <Latency = 0> <II = 1> <Delay = 8.51> <FuncUnit> <Opcode : 'mul'> <InPorts = 2> <OutPorts = 1>
ST_3 : Operation 114 [1/1] (1.77ns)   --->   "%tmp_4 = call i32 @_ssdm_op_Mux.ap_auto.3i32.i2(i32 %b_copy_2_2_11, i32 %b_copy_2_2_2_load_1, i32 %b_copy_2_2_1_load_1, i2 %select_ln67)" [../LABS/Lab8/lab2/matrixmul.cpp:82]   --->   Operation 114 'mux' 'tmp_4' <Predicate = true> <Delay = 1.77> <Core = "MuxnS">   --->   Core 31 'MuxnS' <Latency = 0> <II = 1> <Delay = 1.77> <FuncUnit> <Opcode : 'mux'> <InPorts = 2> <OutPorts = 1>
ST_3 : Operation 115 [1/1] (8.51ns)   --->   "%mul_ln82_2 = mul nsw i32 %a_row_2_1_load, %tmp_4" [../LABS/Lab8/lab2/matrixmul.cpp:82]   --->   Operation 115 'mul' 'mul_ln82_2' <Predicate = true> <Delay = 8.51> <Core = "Mul">   --->   Core 16 'Mul' <Latency = 0> <II = 1> <Delay = 8.51> <FuncUnit> <Opcode : 'mul'> <InPorts = 2> <OutPorts = 1>
ST_3 : Operation 116 [1/1] (0.00ns) (grouped into TernaryAdder)   --->   "%add_ln82 = add i32 %mul_ln82_1, %mul_ln82_2" [../LABS/Lab8/lab2/matrixmul.cpp:82]   --->   Operation 116 'add' 'add_ln82' <Predicate = true> <Delay = 0.00> <Core = "TAddSub">   --->   Core 83 'TAddSub' <Latency = 0> <II = 1> <Delay = 2.18> <IPBlock> <Opcode : 'add' 'sub'> <InPorts = 3> <OutPorts = 1> <Sync> <CReg>
ST_3 : Operation 117 [1/1] (4.37ns) (root node of TernaryAdder)   --->   "%add_ln82_1 = add nsw i32 %add_ln82, %mul_ln82" [../LABS/Lab8/lab2/matrixmul.cpp:82]   --->   Operation 117 'add' 'add_ln82_1' <Predicate = true> <Delay = 4.37> <Core = "TAddSub">   --->   Core 83 'TAddSub' <Latency = 0> <II = 1> <Delay = 2.18> <IPBlock> <Opcode : 'add' 'sub'> <InPorts = 3> <OutPorts = 1> <Sync> <CReg>
ST_3 : Operation 118 [1/1] (3.63ns)   --->   "call void @_ssdm_op_Write.ap_fifo.volatile.i32P(i32* %res, i32 %add_ln82_1)" [../LABS/Lab8/lab2/matrixmul.cpp:84]   --->   Operation 118 'write' <Predicate = true> <Delay = 3.63> <Core = "FIFO">   --->   Core 32 'FIFO' <Latency = 0> <II = 1> <Delay = 3.63> <Storage> <Opcode : 'read' 'write' 'nbread' 'nbwrite'> <Ports = 0> <Width = 32> <Depth = 0> <FIFO>
ST_3 : Operation 119 [1/1] (0.00ns)   --->   "%empty = call i32 (...)* @_ssdm_op_SpecRegionEnd([4 x i8]* @p_str5, i32 %tmp_3) nounwind" [../LABS/Lab8/lab2/matrixmul.cpp:85]   --->   Operation 119 'specregionend' 'empty' <Predicate = true> <Delay = 0.00>
ST_3 : Operation 120 [1/1] (0.00ns)   --->   "call void (...)* @_ssdm_op_Return()" [../LABS/Lab8/lab2/matrixmul.cpp:87]   --->   Operation 120 'return' <Predicate = (icmp_ln65)> <Delay = 0.00>


============================================================
+ Verbose Summary: Timing violations
============================================================
Target clock period: 30ns, clock uncertainty: 3.75ns.

 <State 1>: 1.77ns
The critical path consists of the following:
	multiplexor before 'phi' operation ('do_init') [21]  (1.77 ns)

 <State 2>: 4.33ns
The critical path consists of the following:
	fifo read on port 'b' (../LABS/Lab8/lab2/matrixmul.cpp:79) [68]  (3.63 ns)
	'select' operation ('b_copy[2][2]', ../LABS/Lab8/lab2/matrixmul.cpp:79) [73]  (0 ns)
	'select' operation ('b_copy[2][2]', ../LABS/Lab8/lab2/matrixmul.cpp:79) [74]  (0.698 ns)

 <State 3>: 18.3ns
The critical path consists of the following:
	'load' operation ('b_copy_2_2_1_load_1') on local variable 'b_copy[2][2]' [99]  (0 ns)
	'mux' operation ('tmp_4', ../LABS/Lab8/lab2/matrixmul.cpp:82) [115]  (1.77 ns)
	'mul' operation ('mul_ln82_2', ../LABS/Lab8/lab2/matrixmul.cpp:82) [116]  (8.51 ns)
	'add' operation ('add_ln82', ../LABS/Lab8/lab2/matrixmul.cpp:82) [117]  (0 ns)
	'add' operation ('add_ln82_1', ../LABS/Lab8/lab2/matrixmul.cpp:82) [118]  (4.37 ns)
	fifo write on port 'res' (../LABS/Lab8/lab2/matrixmul.cpp:84) [119]  (3.63 ns)


============================================================
+ Verbose Summary: Binding
============================================================
N/A
* FSMD analyzer results:
  - Output states:
 - Input state : 
  - Chain level:
	State 1
	State 2
	State 3


============================================================
+ Verbose Summary: Datapath Resource usage 
============================================================
N/A
