

================================================================
== Vivado HLS Report for 'matrixmul'
================================================================
* Date:           Tue May  5 20:49:46 2020

* Version:        2019.1 (Build 2552052 on Fri May 24 15:28:33 MDT 2019)
* Project:        lab8_1
* Solution:       solution2
* Product family: zynq
* Target device:  xc7z010-clg400-1


================================================================
== Performance Estimates
================================================================
+ Timing (ns): 
    * Summary: 
    +--------+-------+----------+------------+
    |  Clock | Target| Estimated| Uncertainty|
    +--------+-------+----------+------------+
    |ap_clk  |  30.00|    11.024|        3.75|
    +--------+-------+----------+------------+

+ Latency (clock cycles): 
    * Summary: 
    +-----+-----+-----+-----+---------+
    |  Latency  |  Interval | Pipeline|
    | min | max | min | max |   Type  |
    +-----+-----+-----+-----+---------+
    |   82|   82|   82|   82|   none  |
    +-----+-----+-----+-----+---------+

    + Detail: 
        * Instance: 
        N/A

        * Loop: 
        +------------+-----+-----+----------+-----------+-----------+------+----------+
        |            |  Latency  | Iteration|  Initiation Interval  | Trip |          |
        |  Loop Name | min | max |  Latency |  achieved |   target  | Count| Pipelined|
        +------------+-----+-----+----------+-----------+-----------+------+----------+
        |- Row_Col   |   81|   81|         9|          -|          -|     9|    no    |
        | + Product  |    6|    6|         2|          2|          1|     3|    yes   |
        +------------+-----+-----+----------+-----------+-----------+------+----------+



================================================================
== Utilization Estimates
================================================================
* Summary: 
+-----------------+---------+-------+-------+-------+-----+
|       Name      | BRAM_18K| DSP48E|   FF  |  LUT  | URAM|
+-----------------+---------+-------+-------+-------+-----+
|DSP              |        -|      1|      -|      -|    -|
|Expression       |        -|      -|      0|    133|    -|
|FIFO             |        -|      -|      -|      -|    -|
|Instance         |        -|      -|      -|      -|    -|
|Memory           |        -|      -|      -|      -|    -|
|Multiplexer      |        -|      -|      -|     99|    -|
|Register         |        -|      -|     36|      -|    -|
+-----------------+---------+-------+-------+-------+-----+
|Total            |        0|      1|     36|    232|    0|
+-----------------+---------+-------+-------+-------+-----+
|Available        |      120|     80|  35200|  17600|    0|
+-----------------+---------+-------+-------+-------+-----+
|Utilization (%)  |        0|      1|   ~0  |      1|    0|
+-----------------+---------+-------+-------+-------+-----+

+ Detail: 
    * Instance: 
    N/A

    * DSP48E: 
    +-------------------------+----------------------+--------------+
    |         Instance        |        Module        |  Expression  |
    +-------------------------+----------------------+--------------+
    |matrixmul_mac_mulbkb_U1  |matrixmul_mac_mulbkb  | i0 * i1 + i2 |
    +-------------------------+----------------------+--------------+

    * Memory: 
    N/A

    * FIFO: 
    N/A

    * Expression: 
    +-------------------------+----------+-------+---+----+------------+------------+
    |      Variable Name      | Operation| DSP48E| FF| LUT| Bitwidth P0| Bitwidth P1|
    +-------------------------+----------+-------+---+----+------------+------------+
    |add_ln54_fu_146_p2       |     +    |      0|  0|  13|           4|           1|
    |add_ln57_fu_206_p2       |     +    |      0|  0|  15|           5|           5|
    |add_ln60_1_fu_233_p2     |     +    |      0|  0|  15|           5|           5|
    |add_ln60_2_fu_261_p2     |     +    |      0|  0|   8|           5|           5|
    |i_fu_152_p2              |     +    |      0|  0|  10|           2|           1|
    |j_fu_279_p2              |     +    |      0|  0|  10|           2|           1|
    |k_fu_223_p2              |     +    |      0|  0|  10|           2|           1|
    |sub_ln60_1_fu_255_p2     |     -    |      0|  0|   8|           5|           5|
    |sub_ln60_fu_196_p2       |     -    |      0|  0|  15|           5|           5|
    |icmp_ln54_fu_140_p2      |   icmp   |      0|  0|   9|           4|           4|
    |icmp_ln56_fu_158_p2      |   icmp   |      0|  0|   8|           2|           2|
    |icmp_ln59_fu_217_p2      |   icmp   |      0|  0|   8|           2|           2|
    |select_ln57_1_fu_172_p3  |  select  |      0|  0|   2|           1|           2|
    |select_ln57_fu_164_p3    |  select  |      0|  0|   2|           1|           1|
    +-------------------------+----------+-------+---+----+------------+------------+
    |Total                    |          |      0|  0| 133|          45|          40|
    +-------------------------+----------+-------+---+----+------------+------------+

    * Multiplexer: 
    +-----------------------+----+-----------+-----+-----------+
    |          Name         | LUT| Input Size| Bits| Total Bits|
    +-----------------------+----+-----------+-----+-----------+
    |ap_NS_fsm              |  33|          6|    1|          6|
    |i_0_reg_107            |   9|          2|    2|          4|
    |indvar_flatten_reg_96  |   9|          2|    4|          8|
    |j_0_reg_118            |   9|          2|    2|          4|
    |k_0_reg_129            |   9|          2|    2|          4|
    |res_address0           |  15|          3|    4|         12|
    |res_d0                 |  15|          3|   16|         48|
    +-----------------------+----+-----------+-----+-----------+
    |Total                  |  99|         20|   31|         86|
    +-----------------------+----+-----------+-----+-----------+

    * Register: 
    +-----------------------+---+----+-----+-----------+
    |          Name         | FF| LUT| Bits| Const Bits|
    +-----------------------+---+----+-----+-----------+
    |add_ln54_reg_297       |  4|   0|    4|          0|
    |ap_CS_fsm              |  5|   0|    5|          0|
    |i_0_reg_107            |  2|   0|    2|          0|
    |indvar_flatten_reg_96  |  4|   0|    4|          0|
    |j_0_reg_118            |  2|   0|    2|          0|
    |k_0_reg_129            |  2|   0|    2|          0|
    |k_reg_330              |  2|   0|    2|          0|
    |res_addr_reg_322       |  4|   0|    4|          0|
    |select_ln57_1_reg_307  |  2|   0|    2|          0|
    |select_ln57_reg_302    |  2|   0|    2|          0|
    |sub_ln60_reg_312       |  5|   0|    5|          0|
    |zext_ln57_reg_317      |  2|   0|    5|          3|
    +-----------------------+---+----+-----+-----------+
    |Total                  | 36|   0|   39|          3|
    +-----------------------+---+----+-----+-----------+



================================================================
== Interface
================================================================
* Summary: 
+--------------+-----+-----+------------+--------------+--------------+
|   RTL Ports  | Dir | Bits|  Protocol  | Source Object|    C Type    |
+--------------+-----+-----+------------+--------------+--------------+
|ap_clk        |  in |    1| ap_ctrl_hs |   matrixmul  | return value |
|ap_rst        |  in |    1| ap_ctrl_hs |   matrixmul  | return value |
|ap_start      |  in |    1| ap_ctrl_hs |   matrixmul  | return value |
|ap_done       | out |    1| ap_ctrl_hs |   matrixmul  | return value |
|ap_idle       | out |    1| ap_ctrl_hs |   matrixmul  | return value |
|ap_ready      | out |    1| ap_ctrl_hs |   matrixmul  | return value |
|a_address0    | out |    4|  ap_memory |       a      |     array    |
|a_ce0         | out |    1|  ap_memory |       a      |     array    |
|a_q0          |  in |    8|  ap_memory |       a      |     array    |
|b_address0    | out |    4|  ap_memory |       b      |     array    |
|b_ce0         | out |    1|  ap_memory |       b      |     array    |
|b_q0          |  in |    8|  ap_memory |       b      |     array    |
|res_address0  | out |    4|  ap_memory |      res     |     array    |
|res_ce0       | out |    1|  ap_memory |      res     |     array    |
|res_we0       | out |    1|  ap_memory |      res     |     array    |
|res_d0        | out |   16|  ap_memory |      res     |     array    |
|res_q0        |  in |   16|  ap_memory |      res     |     array    |
+--------------+-----+-----+------------+--------------+--------------+

